0.1 1
0.2 0.999687
0.3 0.996406
0.4 0.991563
0.5 0.985469
0.6 0.976406
0.7 0.966719
0.8 0.955313
0.9 0.945313
1 0.932656
1.1 0.922031
1.2 0.909687
1.3 0.896719
1.4 0.885
1.5 0.872656
1.6 0.859687
1.7 0.849219
1.8 0.838437
1.9 0.827031
2 0.814688
2.1 0.802813
2.2 0.789375
2.3 0.780156
2.4 0.77125
2.5 0.76125
2.6 0.748125
2.7 0.737656
2.8 0.729844
2.9 0.719219
3 0.707031
3.1 0.696562
3.2 0.687656
3.3 0.679063
3.4 0.67
3.5 0.66125
3.6 0.651094
3.7 0.641406
3.8 0.633594
3.9 0.624062
4 0.615781
4.1 0.608281
4.2 0.6
4.3 0.593906
4.4 0.58625
4.5 0.577813
4.6 0.570781
4.7 0.563594
4.8 0.552031
4.9 0.544687
5 0.537969
5.1 0.528594
5.2 0.521875
5.3 0.514375
5.4 0.508437
5.5 0.500781
5.6 0.4925
5.7 0.484062
5.8 0.476719
5.9 0.470156
6 0.463594
6.1 0.458281
6.2 0.453125
6.3 0.447344
6.4 0.442344
6.5 0.434219
6.6 0.427969
6.7 0.424375
6.8 0.417656
6.9 0.411563
7 0.405156
7.1 0.398594
7.2 0.394531
7.3 0.388594
7.4 0.383281
7.5 0.379062
7.6 0.374531
7.7 0.368906
7.8 0.363281
7.9 0.357969
8 0.353594
8.1 0.348281
8.2 0.342969
8.3 0.33875
8.4 0.334219
8.5 0.33
8.6 0.325469
8.7 0.321406
8.8 0.318594
8.9 0.312656
9 0.30875
9.1 0.305469
9.2 0.301719
9.3 0.2975
9.4 0.29375
9.5 0.289219
9.6 0.283438
9.7 0.280937
9.8 0.274219
9.9 0.27
10 0.266563
10.1 0.2625
10.2 0.258437
10.3 0.253906
10.4 0.250469
10.5 0.247344
10.6 0.244375
10.7 0.240781
10.8 0.238281
10.9 0.235
11 0.232187
11.1 0.229219
11.2 0.225938
11.3 0.222656
11.4 0.219219
11.5 0.216562
11.6 0.212969
11.7 0.209375
11.8 0.20625
11.9 0.203438
12 0.201094
12.1 0.197812
12.2 0.194063
12.3 0.190937
12.4 0.187344
12.5 0.185
12.6 0.182969
12.7 0.180312
12.8 0.177969
12.9 0.176875
13 0.174531
13.1 0.171406
13.2 0.169219
13.3 0.16625
13.4 0.164063
13.5 0.1625
13.6 0.160156
13.7 0.15625
13.8 0.153906
13.9 0.151719
14 0.149219
14.1 0.147031
14.2 0.144531
14.3 0.142813
14.4 0.141406
14.5 0.139687
14.6 0.138125
14.7 0.136719
14.8 0.134844
14.9 0.132656
15 0.131094
15.1 0.12875
15.2 0.126875
15.3 0.125
15.4 0.123437
15.5 0.121563
15.6 0.120469
15.7 0.118437
15.8 0.117344
15.9 0.11625
16 0.113906
16.1 0.112031
16.2 0.111406
16.3 0.109688
16.4 0.108437
16.5 0.106875
16.6 0.105469
16.7 0.103906
16.8 0.102656
16.9 0.100313
17 0.0989062
17.1 0.0979688
17.2 0.0964063
17.3 0.0951563
17.4 0.0932812
17.5 0.0914063
17.6 0.09
17.7 0.0879688
17.8 0.0867187
17.9 0.084375
18 0.0834375
18.1 0.0821875
18.2 0.08125
18.3 0.0807813
18.4 0.0798437
18.5 0.0792188
18.6 0.0775
18.7 0.0760937
18.8 0.0751563
18.9 0.0745313
19 0.0732812
19.1 0.0723438
19.2 0.0714063
19.3 0.0703125
19.4 0.0695313
19.5 0.06875
19.6 0.068125
19.7 0.0667188
19.8 0.065625
19.9 0.0645313
20 0.0634375
20.1 0.0625
20.2 0.0615625
20.3 0.060625
20.4 0.0595313
20.5 0.0592187
20.6 0.0582812
20.7 0.0565625
20.8 0.0553125
20.9 0.0540625
21 0.0532812
21.1 0.0525
21.2 0.0515625
21.3 0.0510938
21.4 0.050625
21.5 0.05
21.6 0.0489063
21.7 0.0479688
21.8 0.0470312
21.9 0.0464062
22 0.0459375
22.1 0.0451563
22.2 0.0446875
22.3 0.0442187
22.4 0.0439063
22.5 0.0435937
22.6 0.043125
22.7 0.0423438
22.8 0.0415625
22.9 0.0410938
23 0.0403125
23.1 0.04
23.2 0.0390625
23.3 0.0384375
23.4 0.0382813
23.5 0.0375
23.6 0.0365625
23.7 0.0357812
23.8 0.0354688
23.9 0.035
24 0.0345313
24.1 0.034375
24.2 0.03375
24.3 0.0332813
24.4 0.0328125
24.5 0.0326563
24.6 0.0323438
24.7 0.031875
24.8 0.0317188
24.9 0.0307812
25 0.0301562
25.1 0.0295313
25.2 0.0295313
25.3 0.0289063
25.4 0.0285937
25.5 0.028125
25.6 0.0278125
25.7 0.0273438
25.8 0.0271875
25.9 0.0270312
26 0.0267188
26.1 0.0264062
26.2 0.02625
26.3 0.025625
26.4 0.0251562
26.5 0.0248438
26.6 0.0242187
26.7 0.02375
26.8 0.0234375
26.9 0.0232813
27 0.0228125
27.1 0.0221875
27.2 0.0215625
27.3 0.0210938
27.4 0.020625
27.5 0.02
27.6 0.0196875
27.7 0.0195313
27.8 0.0190625
27.9 0.0189063
28 0.0182813
28.1 0.018125
28.2 0.0179687
28.3 0.0179687
28.4 0.0175
28.5 0.0175
28.6 0.0173437
28.7 0.0171875
28.8 0.016875
28.9 0.0165625
29 0.01625
29.1 0.0160938
29.2 0.0159375
29.3 0.015625
29.4 0.0154688
29.5 0.015
29.6 0.015
29.7 0.015
29.8 0.0146875
29.9 0.0146875
30 0.0146875
30.1 0.0142187
30.2 0.0140625
30.3 0.01375
30.4 0.0135937
30.5 0.0132813
30.6 0.0132813
30.7 0.013125
30.8 0.0126563
30.9 0.0125
31 0.0120313
31.1 0.01125
31.2 0.0109375
31.3 0.0107812
31.4 0.010625
31.5 0.0101562
31.6 0.01
31.7 0.01
31.8 0.0096875
31.9 0.0096875
32 0.00953125
32.1 0.00921875
32.2 0.0090625
32.3 0.00890625
32.4 0.00890625
32.5 0.00890625
32.6 0.00875
32.7 0.00859375
32.8 0.0084375
32.9 0.0084375
33 0.008125
33.1 0.00796875
33.2 0.00796875
33.3 0.00796875
33.4 0.0078125
33.5 0.0078125
33.6 0.0075
33.7 0.00734375
33.8 0.00734375
33.9 0.0071875
34 0.006875
34.1 0.006875
34.2 0.00671875
34.3 0.00671875
34.4 0.0065625
34.5 0.0065625
34.6 0.00640625
34.7 0.00640625
34.8 0.00640625
34.9 0.00640625
35 0.00640625
35.1 0.00609375
35.2 0.00609375
35.3 0.00609375
35.4 0.0059375
35.5 0.0059375
35.6 0.0059375
35.7 0.0059375
35.8 0.00578125
35.9 0.005625
36 0.005625
36.1 0.005625
36.2 0.00515625
36.3 0.00484375
36.4 0.00484375
36.5 0.00484375
36.6 0.00484375
36.7 0.00484375
36.8 0.00484375
36.9 0.00484375
37 0.00484375
37.1 0.00484375
37.2 0.00484375
37.3 0.00453125
37.4 0.00453125
37.5 0.00453125
37.6 0.004375
37.7 0.004375
37.8 0.004375
37.9 0.00421875
38 0.00421875
38.1 0.00390625
38.2 0.00390625
38.3 0.00390625
38.4 0.00390625
38.5 0.00390625
38.6 0.00390625
38.7 0.00390625
38.8 0.00390625
38.9 0.00390625
39 0.00390625
39.1 0.00390625
39.2 0.00375
39.3 0.00375
39.4 0.00359375
39.5 0.00359375
39.6 0.00359375
39.7 0.0034375
39.8 0.0034375
39.9 0.0034375
40 0.0034375
40.1 0.0034375
40.2 0.0034375
40.3 0.0034375
40.4 0.0034375
40.5 0.00328125
40.6 0.00328125
40.7 0.00328125
40.8 0.00328125
40.9 0.00328125
41 0.003125
41.1 0.003125
41.2 0.00296875
41.3 0.00296875
41.4 0.00296875
41.5 0.00296875
41.6 0.0028125
41.7 0.0028125
41.8 0.0028125
41.9 0.0028125
42 0.0028125
42.1 0.0028125
42.2 0.0028125
42.3 0.0028125
42.4 0.0028125
42.5 0.0028125
42.6 0.00265625
42.7 0.00265625
42.8 0.00265625
42.9 0.00265625
43 0.00265625
43.1 0.00265625
43.2 0.00265625
43.3 0.00265625
43.4 0.00265625
43.5 0.0025
43.6 0.0025
43.7 0.0025
43.8 0.0025
43.9 0.0025
44 0.00234375
44.1 0.0021875
44.2 0.00203125
44.3 0.00203125
44.4 0.00203125
44.5 0.00203125
44.6 0.00203125
44.7 0.00203125
44.8 0.001875
44.9 0.001875
45 0.001875
45.1 0.001875
45.2 0.001875
45.3 0.001875
45.4 0.001875
45.5 0.001875
45.6 0.001875
45.7 0.001875
45.8 0.001875
45.9 0.00171875
46 0.00171875
46.1 0.0015625
46.2 0.0015625
46.3 0.0015625
46.4 0.00140625
46.5 0.00140625
46.6 0.00140625
46.7 0.00140625
46.8 0.00140625
46.9 0.00140625
47 0.00140625
47.1 0.00140625
47.2 0.00140625
47.3 0.00140625
47.4 0.00140625
47.5 0.00125
47.6 0.00125
47.7 0.00125
47.8 0.00125
47.9 0.00125
48 0.00125
48.1 0.00125
48.2 0.00125
48.3 0.00125
48.4 0.00125
48.5 0.00125
48.6 0.00125
48.7 0.00125
48.8 0.00125
48.9 0.00125
49 0.00125
49.1 0.00125
49.2 0.00125
49.3 0.00125
49.4 0.00109375
49.5 0.00109375
49.6 0.00109375
49.7 0.00109375
49.8 0.0009375
49.9 0.0009375
50 0.0009375
50.1 0.0009375
50.2 0.0009375
50.3 0.0009375
50.4 0.0009375
50.5 0.00078125
50.6 0.00078125
50.7 0.00078125
50.8 0.000625
50.9 0.000625
51 0.000625
51.1 0.000625
51.2 0.000625
51.3 0.000625
51.4 0.000625
51.5 0.000625
51.6 0.000625
51.7 0.000625
51.8 0.000625
51.9 0.000625
52 0.000625
52.1 0.000625
52.2 0.000625
52.3 0.000625
52.4 0.000625
52.5 0.000625
52.6 0.000625
52.7 0.000625
52.8 0.000625
52.9 0.000625
53 0.000625
53.1 0.000625
53.2 0.000625
53.3 0.000625
53.4 0.00046875
53.5 0.00046875
53.6 0.0003125
53.7 0.0003125
53.8 0.0003125
53.9 0.0003125
54 0.0003125
54.1 0.0003125
54.2 0.0003125
54.3 0.00015625
54.4 0.00015625
54.5 0.00015625
54.6 0.00015625
54.7 0.00015625
54.8 0.00015625
54.9 0.00015625
55 0.00015625
55.1 0.00015625
55.2 0.00015625
55.3 0.00015625
55.4 0.00015625
55.5 0.00015625
55.6 0.00015625
55.7 0.00015625
55.8 0.00015625
55.9 0.00015625
56 0.00015625
56.1 0.00015625
56.2 0.00015625
56.3 0.00015625
56.4 0.00015625
56.5 0.00015625
56.6 0.00015625
56.7 0.00015625
56.8 0.00015625
56.9 0.00015625
57 0.00015625
57.1 0.00015625
57.2 0.00015625
57.3 0.00015625
57.4 0.00015625
57.5 0.00015625
57.6 0.00015625
57.7 0.00015625
57.8 0.00015625
57.9 0.00015625
58 0.00015625
58.1 0.00015625
58.2 0.00015625
58.3 0.00015625
58.4 0.00015625
58.5 0.00015625
58.6 0.00015625
58.7 0.00015625
58.8 0.00015625
58.9 0.00015625
59 0.00015625
59.1 0.00015625
59.2 0.00015625
59.3 0.00015625
59.4 0.00015625
59.5 0.00015625
59.6 0.00015625
59.7 0.00015625
59.8 0.00015625
59.9 0.00015625
60 0.00015625
60.1 0.00015625
60.2 0.00015625
60.3 0.00015625
60.4 0.00015625
60.5 0.00015625
60.6 0.00015625
60.7 0.00015625
60.8 0.00015625
60.9 0.00015625
61 0.00015625
61.1 0.00015625
61.2 0.00015625
61.3 0.00015625
61.4 0.00015625
61.5 0.00015625
61.6 0.00015625
61.7 0.00015625
61.8 0.00015625
61.9 0.00015625
62 0.00015625
62.1 0.00015625
62.2 0.00015625
62.3 0.00015625
62.4 0.00015625
62.5 0.00015625
62.6 0.00015625
62.7 0.00015625
62.8 0.00015625
62.9 0.00015625
63 0.00015625
63.1 0.00015625
63.2 0.00015625
63.3 0.00015625
63.4 0.00015625
63.5 0.00015625
63.6 0.00015625
63.7 0.00015625
63.8 0.00015625
63.9 0.00015625
64 0.00015625
64.1 0.00015625
64.2 0.00015625
64.3 0.00015625
64.4 0.00015625
64.5 0.00015625
64.6 0.00015625
64.7 0.00015625
64.8 0.00015625
64.9 0.00015625
65 0.00015625
65.1 0.00015625
65.2 0.00015625
65.3 0.00015625
65.4 0.00015625
65.5 0.00015625
65.6 0.00015625
65.7 0.00015625
65.8 0.00015625
65.9 0.00015625
66 0.00015625
66.1 0.00015625
66.2 0.00015625
66.3 0.00015625
66.4 0.00015625
66.5 0.00015625
66.6 0.00015625
66.7 0.00015625
66.8 0.00015625
66.9 0.00015625
67 0.00015625
67.1 0.00015625
67.2 0.00015625
67.3 0.00015625
67.4 0.00015625
67.5 0.00015625
67.6 0.00015625
67.7 0.00015625
67.8 0.00015625
67.9 0.00015625
68 0.00015625
68.1 0.00015625
68.2 0.00015625
68.3 0.00015625
68.4 0.00015625
68.5 0.00015625
68.6 0.00015625
68.7 0.00015625
68.8 0.00015625
68.9 0.00015625
69 0.00015625
69.1 0.00015625
69.2 0.00015625
69.3 0.00015625
69.4 0.00015625
69.5 0.00015625
69.6 0.00015625
69.7 0.00015625
69.8 0.00015625
69.9 0.00015625
70 0.00015625
70.1 0.00015625
70.2 0.00015625
70.3 0.00015625
70.4 0.00015625
70.5 0.00015625
70.6 0.00015625
70.7 0.00015625
70.8 0.00015625
70.9 0.00015625
71 0.00015625
71.1 0.00015625
71.2 0.00015625
71.3 0.00015625
71.4 0.00015625
71.5 0.00015625
71.6 0.00015625
71.7 0.00015625
71.8 0.00015625
71.9 0.00015625
72 0.00015625
72.1 0.00015625
72.2 0.00015625
72.3 0.00015625
72.4 0.00015625
72.5 0.00015625
72.6 0.00015625
72.7 0.00015625
72.8 0.00015625
72.9 0.00015625
73 0.00015625
73.1 0.00015625
73.2 0.00015625
73.3 0.00015625
73.4 0.00015625
73.5 0.00015625
73.6 0.00015625
73.7 0.00015625
73.8 0.00015625
73.9 0.00015625
74 0.00015625
74.1 0.00015625
74.2 0.00015625
74.3 0.00015625
74.4 0.00015625
74.5 0.00015625
74.6 0.00015625
74.7 0.00015625
74.8 0.00015625
74.9 0.00015625
75 0.00015625
75.1 0.00015625
75.2 0.00015625
75.3 0.00015625
75.4 0.00015625
75.5 0.00015625
75.6 0.00015625
75.7 0
0.1 1
0.2 0.999219
0.3 0.996563
0.4 0.991406
0.5 0.982344
0.6 0.971875
0.7 0.959688
0.8 0.948281
0.9 0.938125
1 0.925156
1.1 0.911563
1.2 0.900781
1.3 0.89125
1.4 0.879687
1.5 0.865469
1.6 0.853125
1.7 0.843125
1.8 0.831094
1.9 0.817344
2 0.805469
2.1 0.793906
2.2 0.782969
2.3 0.770469
2.4 0.758594
2.5 0.750469
2.6 0.7375
2.7 0.725781
2.8 0.716719
2.9 0.707656
3 0.697969
3.1 0.689063
3.2 0.681406
3.3 0.671719
3.4 0.6625
3.5 0.655
3.6 0.645156
3.7 0.636875
3.8 0.625781
3.9 0.616875
4 0.608437
4.1 0.600469
4.2 0.592969
4.3 0.585313
4.4 0.576875
4.5 0.568594
4.6 0.559844
4.7 0.550938
4.8 0.542812
4.9 0.535156
5 0.528281
5.1 0.520938
5.2 0.513437
5.3 0.506563
5.4 0.49875
5.5 0.492188
5.6 0.485938
5.7 0.47875
5.8 0.471562
5.9 0.465156
6 0.458281
6.1 0.451719
6.2 0.447187
6.3 0.442187
6.4 0.434063
6.5 0.42875
6.6 0.423906
6.7 0.419687
6.8 0.413125
6.9 0.406719
7 0.400625
7.1 0.394375
7.2 0.387656
7.3 0.380156
7.4 0.374219
7.5 0.368594
7.6 0.363437
7.7 0.357656
7.8 0.353281
7.9 0.349688
8 0.344219
8.1 0.339688
8.2 0.333594
8.3 0.327969
8.4 0.325
8.5 0.320156
8.6 0.316094
8.7 0.312344
8.8 0.307656
8.9 0.303281
9 0.297969
9.1 0.294219
9.2 0.290625
9.3 0.288125
9.4 0.284687
9.5 0.280312
9.6 0.275781
9.7 0.271406
9.8 0.266719
9.9 0.262969
10 0.25875
10.1 0.254375
10.2 0.250313
10.3 0.247969
10.4 0.24625
10.5 0.242344
10.6 0.239062
10.7 0.236406
10.8 0.234531
10.9 0.231406
11 0.228125
11.1 0.225313
11.2 0.223125
11.3 0.22125
11.4 0.217969
11.5 0.215
11.6 0.211562
11.7 0.208906
11.8 0.206719
11.9 0.204531
12 0.2025
12.1 0.19875
12.2 0.196875
12.3 0.194063
12.4 0.191562
12.5 0.187344
12.6 0.185156
12.7 0.1825
12.8 0.179219
12.9 0.175625
13 0.173438
13.1 0.169687
13.2 0.166094
13.3 0.164219
13.4 0.161875
13.5 0.16
13.6 0.158125
13.7 0.156406
13.8 0.15375
13.9 0.151875
14 0.149531
14.1 0.147813
14.2 0.145469
14.3 0.144531
14.4 0.143281
14.5 0.141719
14.6 0.140312
14.7 0.138125
14.8 0.136094
14.9 0.133594
15 0.131719
15.1 0.129531
15.2 0.127812
15.3 0.125938
15.4 0.124062
15.5 0.121563
15.6 0.119531
15.7 0.1175
15.8 0.115156
15.9 0.113906
16 0.111875
16.1 0.11
16.2 0.108125
16.3 0.107031
16.4 0.105156
16.5 0.103437
16.6 0.102656
16.7 0.10125
16.8 0.0998438
16.9 0.0982812
17 0.096875
17.1 0.095625
17.2 0.094375
17.3 0.0932812
17.4 0.0910937
17.5 0.0903125
17.6 0.089375
17.7 0.08875
17.8 0.0878125
17.9 0.0871875
18 0.0853125
18.1 0.0845312
18.2 0.0840625
18.3 0.0826562
18.4 0.0810937
18.5 0.080625
18.6 0.0796875
18.7 0.0790625
18.8 0.0782812
18.9 0.0767187
19 0.075625
19.1 0.075
19.2 0.0735938
19.3 0.0725
19.4 0.0717188
19.5 0.0709375
19.6 0.0703125
19.7 0.0695313
19.8 0.0689062
19.9 0.0679688
20 0.0671875
20.1 0.0659375
20.2 0.0645313
20.3 0.0635938
20.4 0.0625
20.5 0.0615625
20.6 0.0603125
20.7 0.059375
20.8 0.0584375
20.9 0.0578125
21 0.05625
21.1 0.0557813
21.2 0.0554687
21.3 0.0542187
21.4 0.0529688
21.5 0.051875
21.6 0.0510938
21.7 0.0503125
21.8 0.05
21.9 0.0492187
22 0.048125
22.1 0.0475
22.2 0.046875
22.3 0.0467188
22.4 0.04625
22.5 0.0460938
22.6 0.0446875
22.7 0.04375
22.8 0.0432813
22.9 0.0429688
23 0.0428125
23.1 0.0423438
23.2 0.0415625
23.3 0.04125
23.4 0.0403125
23.5 0.0398437
23.6 0.0392187
23.7 0.0384375
23.8 0.0382813
23.9 0.0379687
24 0.0370312
24.1 0.0365625
24.2 0.0357812
24.3 0.0353125
24.4 0.0346875
24.5 0.0340625
24.6 0.03375
24.7 0.0334375
24.8 0.0328125
24.9 0.0320312
25 0.03125
25.1 0.030625
25.2 0.0303125
25.3 0.0301562
25.4 0.0296875
25.5 0.0295313
25.6 0.0290625
25.7 0.0289063
25.8 0.0284375
25.9 0.028125
26 0.0275
26.1 0.0271875
26.2 0.0271875
26.3 0.0271875
26.4 0.0271875
26.5 0.0271875
26.6 0.0265625
26.7 0.0260938
26.8 0.025625
26.9 0.0253125
27 0.0246875
27.1 0.0242187
27.2 0.0240625
27.3 0.0239063
27.4 0.0235937
27.5 0.0232813
27.6 0.0226563
27.7 0.0220312
27.8 0.0215625
27.9 0.0214062
28 0.02125
28.1 0.0210938
28.2 0.0209375
28.3 0.0204688
28.4 0.02
28.5 0.0198438
28.6 0.0196875
28.7 0.0196875
28.8 0.0195313
28.9 0.0192187
29 0.01875
29.1 0.0184375
29.2 0.0182813
29.3 0.018125
29.4 0.0178125
29.5 0.0178125
29.6 0.0178125
29.7 0.0173437
29.8 0.0173437
29.9 0.0170313
30 0.0167188
30.1 0.0164062
30.2 0.0164062
30.3 0.01625
30.4 0.01625
30.5 0.0160938
30.6 0.0157812
30.7 0.0151562
30.8 0.0151562
30.9 0.0148438
31 0.014375
31.1 0.0139063
31.2 0.0135937
31.3 0.0135937
31.4 0.013125
31.5 0.0128125
31.6 0.0123437
31.7 0.0121875
31.8 0.0121875
31.9 0.011875
32 0.0117188
32.1 0.0115625
32.2 0.0115625
32.3 0.01125
32.4 0.0109375
32.5 0.0107812
32.6 0.0107812
32.7 0.0107812
32.8 0.0104688
32.9 0.0104688
33 0.0103125
33.1 0.01
33.2 0.00984375
33.3 0.00953125
33.4 0.00953125
33.5 0.00953125
33.6 0.009375
33.7 0.00921875
33.8 0.00921875
33.9 0.0090625
34 0.0090625
34.1 0.0090625
34.2 0.0090625
34.3 0.00890625
34.4 0.00875
34.5 0.0084375
34.6 0.00828125
34.7 0.00828125
34.8 0.00828125
34.9 0.008125
35 0.00796875
35.1 0.00796875
35.2 0.00765625
35.3 0.0075
35.4 0.00734375
35.5 0.00734375
35.6 0.00703125
35.7 0.00703125
35.8 0.0065625
35.9 0.0065625
36 0.00640625
36.1 0.00640625
36.2 0.00640625
36.3 0.00640625
36.4 0.00609375
36.5 0.0059375
36.6 0.0059375
36.7 0.0059375
36.8 0.0059375
36.9 0.00578125
37 0.005625
37.1 0.00546875
37.2 0.00546875
37.3 0.0053125
37.4 0.0053125
37.5 0.0053125
37.6 0.0053125
37.7 0.0053125
37.8 0.0053125
37.9 0.0053125
38 0.0053125
38.1 0.0053125
38.2 0.0053125
38.3 0.005
38.4 0.005
38.5 0.005
38.6 0.005
38.7 0.005
38.8 0.005
38.9 0.00484375
39 0.00484375
39.1 0.0046875
39.2 0.00453125
39.3 0.00453125
39.4 0.004375
39.5 0.004375
39.6 0.004375
39.7 0.004375
39.8 0.00421875
39.9 0.00421875
40 0.00421875
40.1 0.00421875
40.2 0.00421875
40.3 0.00390625
40.4 0.00390625
40.5 0.00375
40.6 0.00375
40.7 0.00375
40.8 0.00375
40.9 0.00375
41 0.00375
41.1 0.00375
41.2 0.00375
41.3 0.00359375
41.4 0.00359375
41.5 0.0034375
41.6 0.0034375
41.7 0.0034375
41.8 0.00328125
41.9 0.00328125
42 0.00328125
42.1 0.003125
42.2 0.003125
42.3 0.003125
42.4 0.003125
42.5 0.003125
42.6 0.003125
42.7 0.003125
42.8 0.003125
42.9 0.003125
43 0.003125
43.1 0.00296875
43.2 0.00296875
43.3 0.00296875
43.4 0.00296875
43.5 0.00296875
43.6 0.00296875
43.7 0.00296875
43.8 0.00296875
43.9 0.00296875
44 0.0028125
44.1 0.0028125
44.2 0.0028125
44.3 0.0028125
44.4 0.0028125
44.5 0.0028125
44.6 0.0028125
44.7 0.0028125
44.8 0.0028125
44.9 0.0028125
45 0.0028125
45.1 0.0028125
45.2 0.0028125
45.3 0.0028125
45.4 0.0028125
45.5 0.0028125
45.6 0.0028125
45.7 0.0028125
45.8 0.0028125
45.9 0.0028125
46 0.0028125
46.1 0.0028125
46.2 0.0028125
46.3 0.0028125
46.4 0.0028125
46.5 0.0028125
46.6 0.0028125
46.7 0.0028125
46.8 0.0028125
46.9 0.0028125
47 0.00265625
47.1 0.0025
47.2 0.0025
47.3 0.0025
47.4 0.00234375
47.5 0.00234375
47.6 0.0021875
47.7 0.0021875
47.8 0.00203125
47.9 0.00203125
48 0.00203125
48.1 0.00203125
48.2 0.00203125
48.3 0.00203125
48.4 0.00203125
48.5 0.00203125
48.6 0.001875
48.7 0.001875
48.8 0.001875
48.9 0.001875
49 0.001875
49.1 0.001875
49.2 0.00171875
49.3 0.00171875
49.4 0.00171875
49.5 0.00171875
49.6 0.00171875
49.7 0.00171875
49.8 0.00171875
49.9 0.00171875
50 0.00171875
50.1 0.0015625
50.2 0.0015625
50.3 0.0015625
50.4 0.00140625
50.5 0.00109375
50.6 0.00109375
50.7 0.00109375
50.8 0.00109375
50.9 0.00109375
51 0.0009375
51.1 0.0009375
51.2 0.0009375
51.3 0.0009375
51.4 0.0009375
51.5 0.0009375
51.6 0.0009375
51.7 0.00078125
51.8 0.00078125
51.9 0.00078125
52 0.00078125
52.1 0.00078125
52.2 0.00078125
52.3 0.00078125
52.4 0.00078125
52.5 0.00078125
52.6 0.00078125
52.7 0.00078125
52.8 0.00078125
52.9 0.00078125
53 0.00078125
53.1 0.00078125
53.2 0.00078125
53.3 0.00078125
53.4 0.00078125
53.5 0.00078125
53.6 0.00078125
53.7 0.00078125
53.8 0.00078125
53.9 0.00078125
54 0.00078125
54.1 0.00078125
54.2 0.00078125
54.3 0.00078125
54.4 0.00078125
54.5 0.00078125
54.6 0.00078125
54.7 0.00078125
54.8 0.00078125
54.9 0.00078125
55 0.00078125
55.1 0.00078125
55.2 0.00078125
55.3 0.00078125
55.4 0.00078125
55.5 0.00078125
55.6 0.00078125
55.7 0.00078125
55.8 0.00078125
55.9 0.00078125
56 0.00078125
56.1 0.00078125
56.2 0.00078125
56.3 0.00078125
56.4 0.00078125
56.5 0.00078125
56.6 0.00078125
56.7 0.00078125
56.8 0.00078125
56.9 0.00078125
57 0.00078125
57.1 0.00078125
57.2 0.00078125
57.3 0.00078125
57.4 0.00078125
57.5 0.00078125
57.6 0.00078125
57.7 0.00078125
57.8 0.00078125
57.9 0.00078125
58 0.00078125
58.1 0.00078125
58.2 0.00078125
58.3 0.00078125
58.4 0.00078125
58.5 0.00078125
58.6 0.00078125
58.7 0.00078125
58.8 0.00078125
58.9 0.00078125
59 0.00078125
59.1 0.00078125
59.2 0.00078125
59.3 0.00078125
59.4 0.00078125
59.5 0.00078125
59.6 0.00078125
59.7 0.00078125
59.8 0.00078125
59.9 0.00078125
60 0.00078125
60.1 0.00078125
60.2 0.00078125
60.3 0.00078125
60.4 0.00078125
60.5 0.00078125
60.6 0.00078125
60.7 0.00078125
60.8 0.00078125
60.9 0.00078125
61 0.00078125
61.1 0.00078125
61.2 0.00078125
61.3 0.00078125
61.4 0.00078125
61.5 0.00078125
61.6 0.00078125
61.7 0.00078125
61.8 0.00078125
61.9 0.00078125
62 0.00078125
62.1 0.00078125
62.2 0.00078125
62.3 0.00078125
62.4 0.00078125
62.5 0.00078125
62.6 0.00078125
62.7 0.00078125
62.8 0.00078125
62.9 0.00078125
63 0.00046875
63.1 0.00046875
63.2 0.00046875
63.3 0.00046875
63.4 0.00046875
63.5 0.00046875
63.6 0.00046875
63.7 0.00046875
63.8 0.00046875
63.9 0.00046875
64 0.00046875
64.1 0.00046875
64.2 0.00046875
64.3 0.00046875
64.4 0.00046875
64.5 0.00046875
64.6 0.00046875
64.7 0.00046875
64.8 0.00046875
64.9 0.00046875
65 0.00046875
65.1 0.00046875
65.2 0.00046875
65.3 0.00046875
65.4 0.00046875
65.5 0.00046875
65.6 0.00046875
65.7 0.00046875
65.8 0.00046875
65.9 0.00046875
66 0.00046875
66.1 0.00046875
66.2 0.00046875
66.3 0.00046875
66.4 0.00046875
66.5 0.00046875
66.6 0.00046875
66.7 0.00046875
66.8 0.00046875
66.9 0.0003125
67 0.0003125
67.1 0.0003125
67.2 0.0003125
67.3 0.0003125
67.4 0.0003125
67.5 0.0003125
67.6 0.0003125
67.7 0.0003125
67.8 0.0003125
67.9 0.0003125
68 0.0003125
68.1 0.0003125
68.2 0.0003125
68.3 0.0003125
68.4 0.0003125
68.5 0.0003125
68.6 0.0003125
68.7 0.0003125
68.8 0.0003125
68.9 0.0003125
69 0.0003125
69.1 0.0003125
69.2 0.00015625
69.3 0.00015625
69.4 0
0.1 0.99995
0.2 0.9995
0.3 0.99635
0.4 0.99065
0.5 0.98245
0.6 0.9736
0.7 0.9621
0.8 0.9506
0.9 0.9372
1 0.9243
1.1 0.9123
1.2 0.8997
1.3 0.88695
1.4 0.8759
1.5 0.863
1.6 0.85115
1.7 0.8402
1.8 0.8294
1.9 0.8185
2 0.80765
2.1 0.7969
2.2 0.78565
2.3 0.77475
2.4 0.7634
2.5 0.753
2.6 0.7432
2.7 0.73315
2.8 0.7234
2.9 0.71395
3 0.70285
3.1 0.6923
3.2 0.683
3.3 0.6721
3.4 0.66355
3.5 0.654
3.6 0.64545
3.7 0.63695
3.8 0.6276
3.9 0.61965
4 0.6113
4.1 0.60245
4.2 0.59365
4.3 0.5866
4.4 0.5781
4.5 0.56915
4.6 0.5611
4.7 0.55325
4.8 0.54505
4.9 0.5388
5 0.53145
5.1 0.5235
5.2 0.51485
5.3 0.50745
5.4 0.49955
5.5 0.4939
5.6 0.4879
5.7 0.48135
5.8 0.474
5.9 0.46735
6 0.46065
6.1 0.45375
6.2 0.44735
6.3 0.44145
6.4 0.4357
6.5 0.42995
6.6 0.42375
6.7 0.4176
6.8 0.41235
6.9 0.407
7 0.40085
7.1 0.3959
7.2 0.3897
7.3 0.3838
7.4 0.37855
7.5 0.3734
7.6 0.36615
7.7 0.36105
7.8 0.356
7.9 0.3513
8 0.3462
8.1 0.3412
8.2 0.33715
8.3 0.33325
8.4 0.3292
8.5 0.3245
8.6 0.32015
8.7 0.31535
8.8 0.31125
8.9 0.3064
9 0.3017
9.1 0.29645
9.2 0.292
9.3 0.28815
9.4 0.28465
9.5 0.2804
9.6 0.27605
9.7 0.27195
9.8 0.2676
9.9 0.26395
10 0.2604
10.1 0.257
10.2 0.25315
10.3 0.2498
10.4 0.24705
10.5 0.24425
10.6 0.2411
10.7 0.2377
10.8 0.2344
10.9 0.23075
11 0.22775
11.1 0.22425
11.2 0.22135
11.3 0.2177
11.4 0.2143
11.5 0.21075
11.6 0.20745
11.7 0.20465
11.8 0.2015
11.9 0.19835
12 0.1957
12.1 0.19275
12.2 0.18975
12.3 0.18755
12.4 0.18545
12.5 0.18245
12.6 0.18005
12.7 0.17695
12.8 0.1749
12.9 0.173
13 0.1701
13.1 0.16755
13.2 0.1655
13.3 0.1634
13.4 0.1611
13.5 0.1588
13.6 0.1558
13.7 0.1536
13.8 0.1512
13.9 0.14915
14 0.14695
14.1 0.14465
14.2 0.14295
14.3 0.14105
14.4 0.1391
14.5 0.13705
14.6 0.13505
14.7 0.1331
14.8 0.1311
14.9 0.1289
15 0.12685
15.1 0.1255
15.2 0.12425
15.3 0.1225
15.4 0.1209
15.5 0.1191
15.6 0.1172
15.7 0.1153
15.8 0.11355
15.9 0.11225
16 0.1104
16.1 0.1091
16.2 0.1067
16.3 0.1052
16.4 0.1033
16.5 0.10195
16.6 0.1003
16.7 0.0992
16.8 0.09745
16.9 0.096
17 0.095
17.1 0.09355
17.2 0.09225
17.3 0.09095
17.4 0.08955
17.5 0.08815
17.6 0.08695
17.7 0.0857
17.8 0.0842
17.9 0.0832
18 0.08195
18.1 0.08085
18.2 0.07965
18.3 0.0784
18.4 0.07685
18.5 0.0753
18.6 0.0745
18.7 0.07345
18.8 0.07245
18.9 0.0712
19 0.07015
19.1 0.06885
19.2 0.068
19.3 0.06715
19.4 0.06575
19.5 0.0648
19.6 0.06365
19.7 0.0625
19.8 0.0611
19.9 0.0602
20 0.0595
20.1 0.0583
20.2 0.05735
20.3 0.05665
20.4 0.05605
20.5 0.05515
20.6 0.05415
20.7 0.05355
20.8 0.05275
20.9 0.0521
21 0.0513
21.1 0.0506
21.2 0.0499
21.3 0.0492
21.4 0.0485
21.5 0.0479
21.6 0.04765
21.7 0.0472
21.8 0.0466
21.9 0.04595
22 0.0454
22.1 0.04465
22.2 0.04385
22.3 0.04345
22.4 0.04265
22.5 0.0423
22.6 0.0419
22.7 0.0412
22.8 0.04075
22.9 0.0403
23 0.0396
23.1 0.0393
23.2 0.0388
23.3 0.03815
23.4 0.03775
23.5 0.03715
23.6 0.0369
23.7 0.0364
23.8 0.0358
23.9 0.0351
24 0.0345
24.1 0.03385
24.2 0.0334
24.3 0.03295
24.4 0.0326
24.5 0.03215
24.6 0.0316
24.7 0.0313
24.8 0.03085
24.9 0.03025
25 0.0297
25.1 0.02915
25.2 0.02865
25.3 0.0283
25.4 0.028
25.5 0.02785
25.6 0.0276
25.7 0.0272
25.8 0.0268
25.9 0.02655
26 0.0264
26.1 0.02585
26.2 0.0253
26.3 0.025
26.4 0.0246
26.5 0.0242
26.6 0.0238
26.7 0.0233
26.8 0.02315
26.9 0.0227
27 0.02225
27.1 0.02185
27.2 0.0216
27.3 0.02125
27.4 0.02065
27.5 0.02035
27.6 0.0201
27.7 0.0199
27.8 0.01965
27.9 0.0194
28 0.0191
28.1 0.0188
28.2 0.0187
28.3 0.0185
28.4 0.0182
28.5 0.0179
28.6 0.01755
28.7 0.01745
28.8 0.01705
28.9 0.01675
29 0.0165
29.1 0.0163
29.2 0.0161
29.3 0.0158
29.4 0.0156
29.5 0.0154
29.6 0.0152
29.7 0.01485
29.8 0.01475
29.9 0.0146
30 0.01435
30.1 0.0142
30.2 0.014
30.3 0.0139
30.4 0.0137
30.5 0.0136
30.6 0.01345
30.7 0.0132
30.8 0.013
30.9 0.013
31 0.0129
31.1 0.01265
31.2 0.0122
31.3 0.01205
31.4 0.01195
31.5 0.0119
31.6 0.0118
31.7 0.01165
31.8 0.01155
31.9 0.0114
32 0.0114
32.1 0.01125
32.2 0.01115
32.3 0.01095
32.4 0.01075
32.5 0.0107
32.6 0.0104
32.7 0.0103
32.8 0.0101
32.9 0.01005
33 0.00985
33.1 0.00985
33.2 0.0098
33.3 0.00975
33.4 0.0097
33.5 0.0096
33.6 0.0095
33.7 0.00935
33.8 0.00925
33.9 0.00915
34 0.00905
34.1 0.009
34.2 0.009
34.3 0.00895
34.4 0.00895
34.5 0.0088
34.6 0.00865
34.7 0.00855
34.8 0.00835
34.9 0.00805
35 0.00795
35.1 0.00775
35.2 0.0077
35.3 0.0076
35.4 0.00755
35.5 0.0075
35.6 0.00745
35.7 0.0074
35.8 0.0074
35.9 0.00725
36 0.00715
36.1 0.0071
36.2 0.00705
36.3 0.00695
36.4 0.00695
36.5 0.0069
36.6 0.00675
36.7 0.00675
36.8 0.0067
36.9 0.0066
37 0.0065
37.1 0.0064
37.2 0.00635
37.3 0.0063
37.4 0.0062
37.5 0.0062
37.6 0.00615
37.7 0.0061
37.8 0.00595
37.9 0.0059
38 0.0059
38.1 0.00585
38.2 0.0058
38.3 0.0058
38.4 0.0057
38.5 0.00555
38.6 0.00555
38.7 0.00535
38.8 0.00525
38.9 0.00515
39 0.0051
39.1 0.00495
39.2 0.0049
39.3 0.00485
39.4 0.00475
39.5 0.00465
39.6 0.0045
39.7 0.00445
39.8 0.0044
39.9 0.00435
40 0.0043
40.1 0.0043
40.2 0.0043
40.3 0.00425
40.4 0.0041
40.5 0.0041
40.6 0.0041
40.7 0.0041
40.8 0.00405
40.9 0.00405
41 0.00395
41.1 0.0039
41.2 0.0039
41.3 0.00375
41.4 0.0037
41.5 0.00365
41.6 0.00365
41.7 0.00365
41.8 0.0036
41.9 0.0035
42 0.0035
42.1 0.0034
42.2 0.00335
42.3 0.00325
42.4 0.00315
42.5 0.003
42.6 0.003
42.7 0.003
42.8 0.0029
42.9 0.00285
43 0.0028
43.1 0.00275
43.2 0.00265
43.3 0.00265
43.4 0.00265
43.5 0.00265
43.6 0.00265
43.7 0.00265
43.8 0.00265
43.9 0.00265
44 0.00265
44.1 0.00265
44.2 0.00265
44.3 0.00265
44.4 0.0025
44.5 0.0025
44.6 0.0025
44.7 0.0025
44.8 0.0025
44.9 0.0024
45 0.00235
45.1 0.00235
45.2 0.0023
45.3 0.00225
45.4 0.00215
45.5 0.0021
45.6 0.00205
45.7 0.00205
45.8 0.00205
45.9 0.002
46 0.002
46.1 0.00185
46.2 0.00175
46.3 0.0017
46.4 0.0017
46.5 0.0017
46.6 0.0017
46.7 0.0017
46.8 0.0017
46.9 0.0017
47 0.0017
47.1 0.0016
47.2 0.0016
47.3 0.00155
47.4 0.00155
47.5 0.0015
47.6 0.00145
47.7 0.00145
47.8 0.00145
47.9 0.00145
48 0.0014
48.1 0.0014
48.2 0.0014
48.3 0.0014
48.4 0.0014
48.5 0.0014
48.6 0.0014
48.7 0.0014
48.8 0.0014
48.9 0.00135
49 0.00125
49.1 0.00125
49.2 0.00115
49.3 0.00115
49.4 0.0011
49.5 0.0011
49.6 0.0011
49.7 0.00105
49.8 0.00105
49.9 0.00105
50 0.001
50.1 0.001
50.2 0.001
50.3 0.0009
50.4 0.0009
50.5 0.0009
50.6 0.0009
50.7 0.0009
50.8 0.0009
50.9 0.0009
51 0.0009
51.1 0.0009
51.2 0.0009
51.3 0.0009
51.4 0.0009
51.5 0.0009
51.6 0.0009
51.7 0.0009
51.8 0.0009
51.9 0.0009
52 0.00085
52.1 0.00085
52.2 0.00085
52.3 0.00085
52.4 0.0008
52.5 0.0008
52.6 0.0008
52.7 0.0008
52.8 0.0008
52.9 0.0008
53 0.0008
53.1 0.0007
53.2 0.0007
53.3 0.0007
53.4 0.00065
53.5 0.00065
53.6 0.00065
53.7 0.00065
53.8 0.00065
53.9 0.0006
54 0.0006
54.1 0.0006
54.2 0.0006
54.3 0.0006
54.4 0.0006
54.5 0.0006
54.6 0.0006
54.7 0.0006
54.8 0.00055
54.9 0.00055
55 0.00055
55.1 0.00055
55.2 0.00055
55.3 0.00055
55.4 0.00055
55.5 0.00055
55.6 0.00055
55.7 0.00055
55.8 0.0005
55.9 0.0005
56 0.0005
56.1 0.0005
56.2 0.0005
56.3 0.0005
56.4 0.0005
56.5 0.0005
56.6 0.0005
56.7 0.0005
56.8 0.0005
56.9 0.0005
57 0.0005
57.1 0.0005
57.2 0.0005
57.3 0.0005
57.4 0.0005
57.5 0.0005
57.6 0.0005
57.7 0.0005
57.8 0.00045
57.9 0.00045
58 0.00045
58.1 0.00045
58.2 0.00045
58.3 0.00045
58.4 0.00045
58.5 0.00045
58.6 0.00045
58.7 0.00045
58.8 0.00045
58.9 0.00045
59 0.00045
59.1 0.00045
59.2 0.00045
59.3 0.00045
59.4 0.00045
59.5 0.00045
59.6 0.00045
59.7 0.00045
59.8 0.00045
59.9 0.00045
60 0.00045
60.1 0.00045
60.2 0.00045
60.3 0.00045
60.4 0.00045
60.5 0.00045
60.6 0.00045
60.7 0.00045
60.8 0.00045
60.9 0.00045
61 0.00045
61.1 0.00045
61.2 0.00045
61.3 0.0004
61.4 0.0004
61.5 0.0004
61.6 0.0004
61.7 0.0004
61.8 0.00035
61.9 0.00035
62 0.00035
62.1 0.00035
62.2 0.0003
62.3 0.0003
62.4 0.0003
62.5 0.0003
62.6 0.0003
62.7 0.0003
62.8 0.0003
62.9 0.0003
63 0.0003
63.1 0.0003
63.2 0.0003
63.3 0.0003
63.4 0.0003
63.5 0.0003
63.6 0.0003
63.7 0.0003
63.8 0.0003
63.9 0.0003
64 0.0003
64.1 0.0003
64.2 0.0003
64.3 0.0003
64.4 0.0003
64.5 0.00025
64.6 0.00025
64.7 0.00025
64.8 0.00025
64.9 0.00025
65 0.00025
65.1 0.00025
65.2 0.00025
65.3 0.00025
65.4 0.00025
65.5 0.00025
65.6 0.00025
65.7 0.0002
65.8 0.0002
65.9 0.0002
66 0.0002
66.1 0.0002
66.2 0.0002
66.3 0.0002
66.4 0.00015
66.5 0.00015
66.6 0.00015
66.7 0.0001
66.8 0.0001
66.9 0.0001
67 0.0001
67.1 0.0001
67.2 0.0001
67.3 0.0001
67.4 0.0001
67.5 0.0001
67.6 0.0001
67.7 0.0001
67.8 0.0001
67.9 0.0001
68 0.0001
68.1 0.0001
68.2 0.0001
68.3 0.0001
68.4 0.0001
68.5 0.0001
68.6 0.0001
68.7 5e-05
68.8 5e-05
68.9 5e-05
69 5e-05
69.1 5e-05
69.2 5e-05
69.3 5e-05
69.4 5e-05
69.5 5e-05
69.6 5e-05
69.7 5e-05
69.8 5e-05
69.9 5e-05
70 5e-05
70.1 5e-05
70.2 5e-05
70.3 5e-05
70.4 5e-05
70.5 5e-05
70.6 5e-05
70.7 5e-05
70.8 5e-05
70.9 5e-05
71 5e-05
71.1 5e-05
71.2 5e-05
71.3 5e-05
71.4 5e-05
71.5 5e-05
71.6 5e-05
71.7 5e-05
71.8 5e-05
71.9 5e-05
72 5e-05
72.1 5e-05
72.2 5e-05
72.3 0
0.1 1
0.2 0.99965
0.3 0.9973
0.4 0.9912
0.5 0.983
0.6 0.97175
0.7 0.95945
0.8 0.94785
0.9 0.93545
1 0.9225
1.1 0.91035
1.2 0.89775
1.3 0.8863
1.4 0.8743
1.5 0.8631
1.6 0.8527
1.7 0.8405
1.8 0.8277
1.9 0.81595
2 0.80555
2.1 0.79265
2.2 0.7816
2.3 0.7718
2.4 0.7601
2.5 0.7508
2.6 0.74015
2.7 0.73065
2.8 0.72015
2.9 0.70975
3 0.6995
3.1 0.68975
3.2 0.68
3.3 0.67025
3.4 0.65925
3.5 0.6506
3.6 0.64255
3.7 0.63235
3.8 0.62405
3.9 0.61545
4 0.60635
4.1 0.59765
4.2 0.5904
4.3 0.5819
4.4 0.5729
4.5 0.5646
4.6 0.5563
4.7 0.5498
4.8 0.5412
4.9 0.53375
5 0.5268
5.1 0.5199
5.2 0.51215
5.3 0.50445
5.4 0.497
5.5 0.49
5.6 0.4834
5.7 0.47715
5.8 0.4708
5.9 0.46435
6 0.45705
6.1 0.45095
6.2 0.4445
6.3 0.43795
6.4 0.43235
6.5 0.4267
6.6 0.4208
6.7 0.41545
6.8 0.4098
6.9 0.4038
7 0.39765
7.1 0.3927
7.2 0.38665
7.3 0.38225
7.4 0.3761
7.5 0.37155
7.6 0.3674
7.7 0.3624
7.8 0.35745
7.9 0.35225
8 0.3481
8.1 0.34255
8.2 0.33765
8.3 0.33245
8.4 0.32795
8.5 0.3236
8.6 0.31935
8.7 0.3141
8.8 0.30935
8.9 0.30505
9 0.30095
9.1 0.29675
9.2 0.29255
9.3 0.2888
9.4 0.2846
9.5 0.28045
9.6 0.2766
9.7 0.2725
9.8 0.26955
9.9 0.26585
10 0.2618
10.1 0.2581
10.2 0.2541
10.3 0.25035
10.4 0.2471
10.5 0.2437
10.6 0.2402
10.7 0.23655
10.8 0.2338
10.9 0.23025
11 0.2268
11.1 0.2238
11.2 0.2197
11.3 0.2164
11.4 0.2134
11.5 0.21025
11.6 0.20735
11.7 0.20455
11.8 0.20195
11.9 0.1993
12 0.19665
12.1 0.19395
12.2 0.19075
12.3 0.1887
12.4 0.1862
12.5 0.1837
12.6 0.18135
12.7 0.1789
12.8 0.17615
12.9 0.17345
13 0.1708
13.1 0.16875
13.2 0.16655
13.3 0.1637
13.4 0.16175
13.5 0.1592
13.6 0.1575
13.7 0.15525
13.8 0.1527
13.9 0.15045
14 0.14815
14.1 0.1459
14.2 0.1433
14.3 0.1413
14.4 0.139
14.5 0.1371
14.6 0.13545
14.7 0.13325
14.8 0.1313
14.9 0.1292
15 0.1271
15.1 0.1255
15.2 0.1241
15.3 0.12225
15.4 0.1206
15.5 0.1187
15.6 0.1173
15.7 0.1161
15.8 0.1145
15.9 0.1132
16 0.1118
16.1 0.1105
16.2 0.1091
16.3 0.1078
16.4 0.10635
16.5 0.105
16.6 0.10355
16.7 0.1019
16.8 0.10085
16.9 0.0993
17 0.0979
17.1 0.0965
17.2 0.0951
17.3 0.0939
17.4 0.0926
17.5 0.0909
17.6 0.08955
17.7 0.0883
17.8 0.0872
17.9 0.08575
18 0.08465
18.1 0.08375
18.2 0.0826
18.3 0.08075
18.4 0.0798
18.5 0.07855
18.6 0.0774
18.7 0.07645
18.8 0.07515
18.9 0.07425
19 0.0731
19.1 0.0722
19.2 0.07125
19.3 0.07045
19.4 0.0697
19.5 0.06895
19.6 0.06765
19.7 0.0671
19.8 0.0663
19.9 0.0656
20 0.06475
20.1 0.06405
20.2 0.0634
20.3 0.0622
20.4 0.06155
20.5 0.06065
20.6 0.0599
20.7 0.05925
20.8 0.0584
20.9 0.0578
21 0.0567
21.1 0.0556
21.2 0.0547
21.3 0.0538
21.4 0.0531
21.5 0.05265
21.6 0.052
21.7 0.051
21.8 0.0504
21.9 0.04925
22 0.04845
22.1 0.04795
22.2 0.0475
22.3 0.04695
22.4 0.04615
22.5 0.04535
22.6 0.0446
22.7 0.0441
22.8 0.04355
22.9 0.04295
23 0.0423
23.1 0.0421
23.2 0.0416
23.3 0.0407
23.4 0.04
23.5 0.03925
23.6 0.0386
23.7 0.03835
23.8 0.03795
23.9 0.0375
24 0.03685
24.1 0.0364
24.2 0.03595
24.3 0.0356
24.4 0.03525
24.5 0.0346
24.6 0.0341
24.7 0.0337
24.8 0.0333
24.9 0.033
25 0.03265
25.1 0.0323
25.2 0.03175
25.3 0.0309
25.4 0.03055
25.5 0.0302
25.6 0.0298
25.7 0.0294
25.8 0.02905
25.9 0.02845
26 0.02805
26.1 0.0278
26.2 0.0275
26.3 0.02705
26.4 0.02675
26.5 0.02635
26.6 0.02595
26.7 0.02545
26.8 0.02515
26.9 0.0247
27 0.0245
27.1 0.0241
27.2 0.0237
27.3 0.0233
27.4 0.0228
27.5 0.02255
27.6 0.022
27.7 0.02155
27.8 0.0213
27.9 0.02115
28 0.0208
28.1 0.02065
28.2 0.0204
28.3 0.02025
28.4 0.02015
28.5 0.01995
28.6 0.01965
28.7 0.01935
28.8 0.0191
28.9 0.0188
29 0.01815
29.1 0.01805
29.2 0.018
29.3 0.01765
29.4 0.01745
29.5 0.0173
29.6 0.01705
29.7 0.0167
29.8 0.01655
29.9 0.0165
30 0.0163
30.1 0.01605
30.2 0.01585
30.3 0.0157
30.4 0.0154
30.5 0.0152
30.6 0.015
30.7 0.0147
30.8 0.01455
30.9 0.0144
31 0.0143
31.1 0.01415
31.2 0.014
31.3 0.01385
31.4 0.01345
31.5 0.01335
31.6 0.013
31.7 0.01275
31.8 0.01265
31.9 0.0124
32 0.0123
32.1 0.0121
32.2 0.0121
32.3 0.01185
32.4 0.01175
32.5 0.0116
32.6 0.0114
32.7 0.01125
32.8 0.0111
32.9 0.01095
33 0.01085
33.1 0.0108
33.2 0.01065
33.3 0.0103
33.4 0.01015
33.5 0.01005
33.6 0.01
33.7 0.00985
33.8 0.0097
33.9 0.0095
34 0.00925
34.1 0.0091
34.2 0.009
34.3 0.0089
34.4 0.0088
34.5 0.0087
34.6 0.00855
34.7 0.0084
34.8 0.0083
34.9 0.00825
35 0.00815
35.1 0.00795
35.2 0.0079
35.3 0.00785
35.4 0.00775
35.5 0.00765
35.6 0.00755
35.7 0.00745
35.8 0.00745
35.9 0.0074
36 0.00725
36.1 0.00715
36.2 0.00705
36.3 0.00695
36.4 0.00675
36.5 0.00655
36.6 0.00645
36.7 0.00645
36.8 0.0064
36.9 0.00635
37 0.00625
37.1 0.0061
37.2 0.0059
37.3 0.0059
37.4 0.00585
37.5 0.0058
37.6 0.0057
37.7 0.00555
37.8 0.00545
37.9 0.0053
38 0.0051
38.1 0.00505
38.2 0.0049
38.3 0.00475
38.4 0.0047
38.5 0.00465
38.6 0.00465
38.7 0.0045
38.8 0.0044
38.9 0.00425
39 0.0042
39.1 0.0041
39.2 0.00405
39.3 0.00395
39.4 0.00395
39.5 0.0038
39.6 0.00375
39.7 0.00365
39.8 0.0036
39.9 0.00355
40 0.00355
40.1 0.00355
40.2 0.00355
40.3 0.00345
40.4 0.00345
40.5 0.0034
40.6 0.00335
40.7 0.0033
40.8 0.00325
40.9 0.00325
41 0.00315
41.1 0.0031
41.2 0.00305
41.3 0.00295
41.4 0.00295
41.5 0.00295
41.6 0.00295
41.7 0.0029
41.8 0.00285
41.9 0.00275
42 0.00275
42.1 0.00265
42.2 0.00255
42.3 0.00255
42.4 0.00255
42.5 0.0025
42.6 0.00245
42.7 0.0024
42.8 0.00225
42.9 0.0022
43 0.0022
43.1 0.0022
43.2 0.0022
43.3 0.00205
43.4 0.00205
43.5 0.00205
43.6 0.00195
43.7 0.00195
43.8 0.00195
43.9 0.00195
44 0.00195
44.1 0.00195
44.2 0.00195
44.3 0.00195
44.4 0.0019
44.5 0.00185
44.6 0.00185
44.7 0.0017
44.8 0.0017
44.9 0.00165
45 0.00165
45.1 0.00165
45.2 0.00165
45.3 0.0016
45.4 0.0015
45.5 0.00145
45.6 0.00145
45.7 0.00145
45.8 0.00145
45.9 0.00145
46 0.00145
46.1 0.00145
46.2 0.00145
46.3 0.00145
46.4 0.00145
46.5 0.00145
46.6 0.0014
46.7 0.0014
46.8 0.0014
46.9 0.0014
47 0.0014
47.1 0.0014
47.2 0.0014
47.3 0.0013
47.4 0.0013
47.5 0.0013
47.6 0.00125
47.7 0.00125
47.8 0.00125
47.9 0.00125
48 0.00125
48.1 0.0012
48.2 0.0012
48.3 0.00115
48.4 0.0011
48.5 0.00105
48.6 0.00105
48.7 0.00105
48.8 0.00105
48.9 0.00105
49 0.00105
49.1 0.00105
49.2 0.001
49.3 0.0009
49.4 0.0009
49.5 0.0009
49.6 0.00085
49.7 0.0008
49.8 0.00075
49.9 0.0007
50 0.0007
50.1 0.0007
50.2 0.0007
50.3 0.0007
50.4 0.0007
50.5 0.0007
50.6 0.0007
50.7 0.00065
50.8 0.00065
50.9 0.00065
51 0.00065
51.1 0.0006
51.2 0.0006
51.3 0.0006
51.4 0.0006
51.5 0.0006
51.6 0.0006
51.7 0.0006
51.8 0.0006
51.9 0.0006
52 0.0006
52.1 0.0006
52.2 0.00055
52.3 0.00055
52.4 0.00055
52.5 0.00055
52.6 0.00055
52.7 0.00055
52.8 0.00055
52.9 0.00055
53 0.00055
53.1 0.00055
53.2 0.00055
53.3 0.00055
53.4 0.00045
53.5 0.00045
53.6 0.00045
53.7 0.00045
53.8 0.00045
53.9 0.00045
54 0.00045
54.1 0.00045
54.2 0.0004
54.3 0.0004
54.4 0.00035
54.5 0.00035
54.6 0.00035
54.7 0.00035
54.8 0.00035
54.9 0.00035
55 0.00035
55.1 0.00035
55.2 0.00035
55.3 0.00035
55.4 0.00035
55.5 0.00035
55.6 0.00035
55.7 0.00035
55.8 0.00035
55.9 0.00035
56 0.00035
56.1 0.0003
56.2 0.0003
56.3 0.0003
56.4 0.0003
56.5 0.0003
56.6 0.0003
56.7 0.0003
56.8 0.0003
56.9 0.0003
57 0.0003
57.1 0.0003
57.2 0.0003
57.3 0.0003
57.4 0.0003
57.5 0.00025
57.6 0.00025
57.7 0.00025
57.8 0.00025
57.9 0.00025
58 0.00025
58.1 0.00025
58.2 0.0002
58.3 0.0002
58.4 0.0002
58.5 0.0002
58.6 0.0002
58.7 0.0002
58.8 0.0002
58.9 0.0002
59 0.0002
59.1 0.0002
59.2 0.0002
59.3 0.0002
59.4 0.0002
59.5 0.0002
59.6 0.0002
59.7 0.0002
59.8 0.0002
59.9 0.00015
60 0.00015
60.1 0.00015
60.2 0.00015
60.3 0.00015
60.4 0.00015
60.5 0.00015
60.6 0.00015
60.7 0.00015
60.8 0.00015
60.9 0.00015
61 0.00015
61.1 0.00015
61.2 0.00015
61.3 0.00015
61.4 0.00015
61.5 0.00015
61.6 0.00015
61.7 0.00015
61.8 0.00015
61.9 0.00015
62 0.00015
62.1 0.00015
62.2 0.00015
62.3 0.00015
62.4 0.00015
62.5 0.00015
62.6 0.00015
62.7 0.0001
62.8 0.0001
62.9 0.0001
63 0.0001
63.1 0.0001
63.2 0.0001
63.3 0.0001
63.4 0.0001
63.5 0.0001
63.6 0.0001
63.7 0.0001
63.8 0.0001
63.9 0.0001
64 0.0001
64.1 0.0001
64.2 0.0001
64.3 0.0001
64.4 0.0001
64.5 0.0001
64.6 0.0001
64.7 0.0001
64.8 0.0001
64.9 0.0001
65 0.0001
65.1 0.0001
65.2 0.0001
65.3 0.0001
65.4 0.0001
65.5 0.0001
65.6 0.0001
65.7 0.0001
65.8 0.0001
65.9 0.0001
66 0.0001
66.1 0.0001
66.2 0.0001
66.3 5e-05
66.4 5e-05
66.5 5e-05
66.6 5e-05
66.7 5e-05
66.8 5e-05
66.9 5e-05
67 5e-05
67.1 5e-05
67.2 5e-05
67.3 5e-05
67.4 5e-05
67.5 5e-05
67.6 5e-05
67.7 5e-05
67.8 5e-05
67.9 5e-05
68 5e-05
68.1 5e-05
68.2 5e-05
68.3 5e-05
68.4 5e-05
68.5 5e-05
68.6 5e-05
68.7 5e-05
68.8 5e-05
68.9 5e-05
69 5e-05
69.1 5e-05
69.2 5e-05
69.3 5e-05
69.4 5e-05
69.5 5e-05
69.6 5e-05
69.7 5e-05
69.8 5e-05
69.9 5e-05
70 5e-05
70.1 5e-05
70.2 5e-05
70.3 5e-05
70.4 5e-05
70.5 5e-05
70.6 5e-05
70.7 5e-05
70.8 5e-05
70.9 5e-05
71 5e-05
71.1 5e-05
71.2 5e-05
71.3 5e-05
71.4 5e-05
71.5 5e-05
71.6 5e-05
71.7 5e-05
71.8 5e-05
71.9 5e-05
72 5e-05
72.1 5e-05
72.2 5e-05
72.3 5e-05
72.4 5e-05
72.5 5e-05
72.6 5e-05
72.7 5e-05
72.8 5e-05
72.9 5e-05
73 5e-05
73.1 5e-05
73.2 5e-05
73.3 5e-05
73.4 5e-05
73.5 5e-05
73.6 5e-05
73.7 5e-05
73.8 5e-05
73.9 5e-05
74 5e-05
74.1 5e-05
74.2 5e-05
74.3 5e-05
74.4 5e-05
74.5 5e-05
74.6 5e-05
74.7 5e-05
74.8 5e-05
74.9 5e-05
75 5e-05
75.1 5e-05
75.2 5e-05
75.3 5e-05
75.4 5e-05
75.5 5e-05
75.6 5e-05
75.7 5e-05
75.8 5e-05
75.9 5e-05
76 5e-05
76.1 5e-05
76.2 5e-05
76.3 5e-05
76.4 5e-05
76.5 5e-05
76.6 5e-05
76.7 5e-05
76.8 5e-05
76.9 5e-05
77 5e-05
77.1 5e-05
77.2 5e-05
77.3 5e-05
77.4 5e-05
77.5 5e-05
77.6 5e-05
77.7 5e-05
77.8 5e-05
77.9 5e-05
78 5e-05
78.1 5e-05
78.2 5e-05
78.3 5e-05
78.4 5e-05
78.5 5e-05
78.6 5e-05
78.7 5e-05
78.8 5e-05
78.9 5e-05
79 5e-05
79.1 5e-05
79.2 5e-05
79.3 5e-05
79.4 5e-05
79.5 5e-05
79.6 5e-05
79.7 5e-05
79.8 5e-05
79.9 5e-05
80 5e-05
80.1 5e-05
80.2 5e-05
80.3 5e-05
80.4 5e-05
80.5 5e-05
80.6 5e-05
80.7 5e-05
80.8 5e-05
80.9 5e-05
81 5e-05
81.1 5e-05
81.2 5e-05
81.3 5e-05
81.4 5e-05
81.5 5e-05
81.6 5e-05
81.7 5e-05
81.8 5e-05
81.9 5e-05
82 5e-05
82.1 5e-05
82.2 5e-05
82.3 5e-05
82.4 5e-05
82.5 5e-05
82.6 5e-05
82.7 5e-05
82.8 5e-05
82.9 5e-05
83 5e-05
83.1 5e-05
83.2 5e-05
83.3 5e-05
83.4 5e-05
83.5 5e-05
83.6 5e-05
83.7 5e-05
83.8 5e-05
83.9 5e-05
84 5e-05
84.1 5e-05
84.2 5e-05
84.3 5e-05
84.4 5e-05
84.5 5e-05
84.6 5e-05
84.7 5e-05
84.8 5e-05
84.9 5e-05
85 5e-05
85.1 5e-05
85.2 5e-05
85.3 5e-05
85.4 5e-05
85.5 5e-05
85.6 5e-05
85.7 5e-05
85.8 5e-05
85.9 5e-05
86 5e-05
86.1 5e-05
86.2 5e-05
86.3 5e-05
86.4 5e-05
86.5 5e-05
86.6 5e-05
86.7 5e-05
86.8 5e-05
86.9 5e-05
87 5e-05
87.1 5e-05
87.2 5e-05
87.3 5e-05
87.4 5e-05
87.5 5e-05
87.6 5e-05
87.7 5e-05
87.8 5e-05
87.9 5e-05
88 5e-05
88.1 5e-05
88.2 5e-05
88.3 5e-05
88.4 5e-05
88.5 5e-05
88.6 5e-05
88.7 5e-05
88.8 5e-05
88.9 5e-05
89 5e-05
89.1 5e-05
89.2 5e-05
89.3 5e-05
89.4 5e-05
89.5 5e-05
89.6 5e-05
89.7 5e-05
89.8 5e-05
89.9 5e-05
90 5e-05
90.1 0
0.1 1
0.2 0.99935
0.3 0.9968
0.4 0.9915
0.5 0.98415
0.6 0.9741
0.7 0.96335
0.8 0.9505
0.9 0.93865
1 0.92575
1.1 0.9137
1.2 0.9005
1.3 0.8866
1.4 0.8744
1.5 0.86235
1.6 0.85125
1.7 0.8391
1.8 0.8275
1.9 0.81705
2 0.80625
2.1 0.79475
2.2 0.78435
2.3 0.7744
2.4 0.76405
2.5 0.75335
2.6 0.74375
2.7 0.73255
2.8 0.7222
2.9 0.7104
3 0.70125
3.1 0.69045
3.2 0.68075
3.3 0.67125
3.4 0.6614
3.5 0.65195
3.6 0.6427
3.7 0.63515
3.8 0.62685
3.9 0.6191
4 0.6119
4.1 0.60325
4.2 0.59585
4.3 0.5883
4.4 0.58045
4.5 0.57225
4.6 0.56515
4.7 0.55675
4.8 0.54855
4.9 0.54175
5 0.5333
5.1 0.5253
5.2 0.51845
5.3 0.5105
5.4 0.50265
5.5 0.495
5.6 0.48835
5.7 0.48175
5.8 0.4751
5.9 0.4678
6 0.4605
6.1 0.45335
6.2 0.4462
6.3 0.44115
6.4 0.43515
6.5 0.4282
6.6 0.4217
6.7 0.4163
6.8 0.4107
6.9 0.4058
7 0.4001
7.1 0.3948
7.2 0.3895
7.3 0.3844
7.4 0.37915
7.5 0.3737
7.6 0.3683
7.7 0.3634
7.8 0.3583
7.9 0.3531
8 0.3482
8.1 0.344
8.2 0.34005
8.3 0.33545
8.4 0.3311
8.5 0.3264
8.6 0.321
8.7 0.3166
8.8 0.3119
8.9 0.30745
9 0.3028
9.1 0.299
9.2 0.2952
9.3 0.2911
9.4 0.28735
9.5 0.28335
9.6 0.27875
9.7 0.2752
9.8 0.2718
9.9 0.26785
10 0.2632
10.1 0.259
10.2 0.25565
10.3 0.2519
10.4 0.2476
10.5 0.24375
10.6 0.23985
10.7 0.23645
10.8 0.23375
10.9 0.2314
11 0.2281
11.1 0.225
11.2 0.22245
11.3 0.2191
11.4 0.21555
11.5 0.21275
11.6 0.2096
11.7 0.206
11.8 0.2035
11.9 0.2009
12 0.198
12.1 0.19505
12.2 0.1924
12.3 0.18965
12.4 0.18695
12.5 0.18425
12.6 0.1816
12.7 0.1791
12.8 0.17625
12.9 0.17355
13 0.17095
13.1 0.1686
13.2 0.16615
13.3 0.164
13.4 0.16165
13.5 0.15935
13.6 0.1566
13.7 0.1545
13.8 0.15255
13.9 0.1504
14 0.14805
14.1 0.1456
14.2 0.14355
14.3 0.14155
14.4 0.13955
14.5 0.13785
14.6 0.136
14.7 0.13385
14.8 0.13185
14.9 0.1299
15 0.1279
15.1 0.12625
15.2 0.1241
15.3 0.12235
15.4 0.12095
15.5 0.11975
15.6 0.11735
15.7 0.1152
15.8 0.11385
15.9 0.11245
16 0.11095
16.1 0.10955
16.2 0.10785
16.3 0.10625
16.4 0.10435
16.5 0.1034
16.6 0.10235
16.7 0.1008
16.8 0.09945
16.9 0.0982
17 0.097
17.1 0.09535
17.2 0.0939
17.3 0.09265
17.4 0.0911
17.5 0.0902
17.6 0.08915
17.7 0.08805
17.8 0.08675
17.9 0.0855
18 0.08405
18.1 0.083
18.2 0.082
18.3 0.08095
18.4 0.0799
18.5 0.07895
18.6 0.07765
18.7 0.0766
18.8 0.07555
18.9 0.074
19 0.07295
19.1 0.0718
19.2 0.07065
19.3 0.06915
19.4 0.06825
19.5 0.0672
19.6 0.06645
19.7 0.0655
19.8 0.06445
19.9 0.0636
20 0.0625
20.1 0.06185
20.2 0.0606
20.3 0.05955
20.4 0.05845
20.5 0.05775
20.6 0.0568
20.7 0.056
20.8 0.05525
20.9 0.05435
21 0.05365
21.1 0.0528
21.2 0.05215
21.3 0.05125
21.4 0.05055
21.5 0.0498
21.6 0.04885
21.7 0.04845
21.8 0.04765
21.9 0.0471
22 0.0464
22.1 0.04565
22.2 0.04505
22.3 0.04445
22.4 0.04375
22.5 0.0431
22.6 0.0427
22.7 0.0422
22.8 0.0416
22.9 0.04115
23 0.0405
23.1 0.04005
23.2 0.03935
23.3 0.039
23.4 0.0385
23.5 0.0379
23.6 0.0373
23.7 0.03645
23.8 0.03595
23.9 0.0353
24 0.03495
24.1 0.03465
24.2 0.03415
24.3 0.0338
24.4 0.03335
24.5 0.0328
24.6 0.0323
24.7 0.03185
24.8 0.03155
24.9 0.0308
25 0.03045
25.1 0.02965
25.2 0.0291
25.3 0.0288
25.4 0.0282
25.5 0.0278
25.6 0.0275
25.7 0.02715
25.8 0.0268
25.9 0.0265
26 0.02635
26.1 0.0258
26.2 0.02555
26.3 0.02525
26.4 0.0247
26.5 0.0244
26.6 0.02385
26.7 0.0235
26.8 0.02325
26.9 0.02295
27 0.02245
27.1 0.02205
27.2 0.02165
27.3 0.0215
27.4 0.02115
27.5 0.0209
27.6 0.02075
27.7 0.0205
27.8 0.0203
27.9 0.0199
28 0.0194
28.1 0.01915
28.2 0.0188
28.3 0.01855
28.4 0.01835
28.5 0.0182
28.6 0.018
28.7 0.01775
28.8 0.01735
28.9 0.017
29 0.01675
29.1 0.01635
29.2 0.0161
29.3 0.0161
29.4 0.01555
29.5 0.0153
29.6 0.0151
29.7 0.015
29.8 0.0148
29.9 0.01445
30 0.01425
30.1 0.0139
30.2 0.0138
30.3 0.01355
30.4 0.0133
30.5 0.01315
30.6 0.01295
30.7 0.01275
30.8 0.0125
30.9 0.0124
31 0.01195
31.1 0.0119
31.2 0.0117
31.3 0.0114
31.4 0.0113
31.5 0.0111
31.6 0.01095
31.7 0.0108
31.8 0.0106
31.9 0.0105
32 0.0103
32.1 0.0103
32.2 0.01025
32.3 0.01025
32.4 0.01015
32.5 0.01
32.6 0.00995
32.7 0.00975
32.8 0.00965
32.9 0.00965
33 0.00955
33.1 0.00955
33.2 0.0095
33.3 0.0094
33.4 0.0092
33.5 0.00895
33.6 0.0089
33.7 0.00885
33.8 0.00875
33.9 0.00855
34 0.0084
34.1 0.00835
34.2 0.00825
34.3 0.00825
34.4 0.0082
34.5 0.00805
34.6 0.00785
34.7 0.0078
34.8 0.0077
34.9 0.00745
35 0.00745
35.1 0.00745
35.2 0.00735
35.3 0.0072
35.4 0.00705
35.5 0.00685
35.6 0.00675
35.7 0.00655
35.8 0.00645
35.9 0.0064
36 0.0064
36.1 0.0063
36.2 0.0062
36.3 0.006
36.4 0.006
36.5 0.006
36.6 0.00585
36.7 0.0058
36.8 0.0057
36.9 0.0056
37 0.0055
37.1 0.00545
37.2 0.00545
37.3 0.0054
37.4 0.0053
37.5 0.0053
37.6 0.0053
37.7 0.0052
37.8 0.0052
37.9 0.00505
38 0.00495
38.1 0.00485
38.2 0.0048
38.3 0.00475
38.4 0.0047
38.5 0.0046
38.6 0.00455
38.7 0.00445
38.8 0.00445
38.9 0.00425
39 0.00425
39.1 0.0042
39.2 0.00415
39.3 0.00395
39.4 0.00385
39.5 0.00385
39.6 0.0038
39.7 0.0036
39.8 0.0035
39.9 0.0035
40 0.0035
40.1 0.0035
40.2 0.0035
40.3 0.00345
40.4 0.00345
40.5 0.00335
40.6 0.00335
40.7 0.0033
40.8 0.00325
40.9 0.00325
41 0.0032
41.1 0.0032
41.2 0.0032
41.3 0.0032
41.4 0.0032
41.5 0.0031
41.6 0.00305
41.7 0.003
41.8 0.0029
41.9 0.0028
42 0.0028
42.1 0.0028
42.2 0.0028
42.3 0.0028
42.4 0.0028
42.5 0.00275
42.6 0.0027
42.7 0.00265
42.8 0.0026
42.9 0.00255
43 0.00255
43.1 0.0025
43.2 0.00245
43.3 0.00245
43.4 0.00245
43.5 0.0024
43.6 0.0024
43.7 0.0024
43.8 0.0024
43.9 0.0024
44 0.0023
44.1 0.0023
44.2 0.00225
44.3 0.00215
44.4 0.00215
44.5 0.0021
44.6 0.00205
44.7 0.00205
44.8 0.002
44.9 0.0019
45 0.0019
45.1 0.00185
45.2 0.00185
45.3 0.00185
45.4 0.0018
45.5 0.0018
45.6 0.0018
45.7 0.0018
45.8 0.0018
45.9 0.0018
46 0.00165
46.1 0.00165
46.2 0.00165
46.3 0.0016
46.4 0.0016
46.5 0.00155
46.6 0.00155
46.7 0.0015
46.8 0.00145
46.9 0.00145
47 0.0014
47.1 0.0014
47.2 0.0013
47.3 0.0013
47.4 0.00125
47.5 0.00125
47.6 0.0012
47.7 0.0012
47.8 0.0012
47.9 0.0012
48 0.0012
48.1 0.00115
48.2 0.00115
48.3 0.0011
48.4 0.00105
48.5 0.00105
48.6 0.001
48.7 0.00095
48.8 0.00095
48.9 0.00095
49 0.0009
49.1 0.0009
49.2 0.0009
49.3 0.0009
49.4 0.00085
49.5 0.00085
49.6 0.00085
49.7 0.00085
49.8 0.0008
49.9 0.0008
50 0.0008
50.1 0.0008
50.2 0.0008
50.3 0.00075
50.4 0.00075
50.5 0.00075
50.6 0.00075
50.7 0.0007
50.8 0.0007
50.9 0.0007
51 0.0007
51.1 0.0007
51.2 0.0007
51.3 0.0007
51.4 0.0007
51.5 0.0007
51.6 0.0007
51.7 0.0007
51.8 0.0007
51.9 0.0007
52 0.0007
52.1 0.0007
52.2 0.0007
52.3 0.00065
52.4 0.00065
52.5 0.00065
52.6 0.0006
52.7 0.0006
52.8 0.0006
52.9 0.0006
53 0.0006
53.1 0.0006
53.2 0.0006
53.3 0.00055
53.4 0.00055
53.5 0.00055
53.6 0.00055
53.7 0.00055
53.8 0.00055
53.9 0.00055
54 0.00055
54.1 0.00055
54.2 0.0005
54.3 0.0005
54.4 0.0005
54.5 0.0005
54.6 0.0005
54.7 0.00045
54.8 0.00045
54.9 0.00045
55 0.00045
55.1 0.00045
55.2 0.00045
55.3 0.00045
55.4 0.00045
55.5 0.00045
55.6 0.00045
55.7 0.00045
55.8 0.00045
55.9 0.00045
56 0.00045
56.1 0.00045
56.2 0.00045
56.3 0.00045
56.4 0.00045
56.5 0.00045
56.6 0.00045
56.7 0.00045
56.8 0.00045
56.9 0.00045
57 0.00045
57.1 0.00045
57.2 0.00045
57.3 0.0004
57.4 0.0004
57.5 0.0004
57.6 0.0004
57.7 0.0004
57.8 0.0004
57.9 0.0004
58 0.0004
58.1 0.0004
58.2 0.0004
58.3 0.0004
58.4 0.0004
58.5 0.0004
58.6 0.0004
58.7 0.0004
58.8 0.0004
58.9 0.0004
59 0.0004
59.1 0.0004
59.2 0.0004
59.3 0.0004
59.4 0.0004
59.5 0.00035
59.6 0.00035
59.7 0.00035
59.8 0.00035
59.9 0.00035
60 0.00035
60.1 0.00035
60.2 0.00035
60.3 0.00035
60.4 0.00035
60.5 0.00035
60.6 0.00035
60.7 0.00035
60.8 0.00035
60.9 0.00035
61 0.0003
61.1 0.0003
61.2 0.0003
61.3 0.0003
61.4 0.0003
61.5 0.0003
61.6 0.0003
61.7 0.0003
61.8 0.0003
61.9 0.0003
62 0.0003
62.1 0.0003
62.2 0.0003
62.3 0.0003
62.4 0.0003
62.5 0.0003
62.6 0.0003
62.7 0.0003
62.8 0.0003
62.9 0.0003
63 0.0003
63.1 0.0003
63.2 0.0003
63.3 0.0003
63.4 0.0003
63.5 0.0003
63.6 0.0003
63.7 0.0003
63.8 0.0003
63.9 0.0003
64 0.0003
64.1 0.0003
64.2 0.0003
64.3 0.00025
64.4 0.00025
64.5 0.00025
64.6 0.00025
64.7 0.00025
64.8 0.00025
64.9 0.00025
65 0.00025
65.1 0.00025
65.2 0.00025
65.3 0.00025
65.4 0.00025
65.5 0.0002
65.6 0.0002
65.7 0.0002
65.8 0.0002
65.9 0.0002
66 0.0002
66.1 0.0002
66.2 0.0002
66.3 0.0002
66.4 0.0002
66.5 0.0002
66.6 0.0002
66.7 0.0002
66.8 0.0002
66.9 0.0002
67 0.0002
67.1 0.0002
67.2 0.0002
67.3 0.0002
67.4 0.0002
67.5 0.0002
67.6 0.0002
67.7 0.0002
67.8 0.0002
67.9 0.0002
68 0.00015
68.1 0.00015
68.2 0.00015
68.3 0.00015
68.4 0.00015
68.5 0.00015
68.6 0.00015
68.7 0.00015
68.8 0.00015
68.9 0.00015
69 0.00015
69.1 0.00015
69.2 0.0001
69.3 0.0001
69.4 0.0001
69.5 0.0001
69.6 0.0001
69.7 0.0001
69.8 0.0001
69.9 0.0001
70 0.0001
70.1 0.0001
70.2 0.0001
70.3 0.0001
70.4 0.0001
70.5 0.0001
70.6 0.0001
70.7 0.0001
70.8 0.0001
70.9 0.0001
71 0.0001
71.1 0.0001
71.2 0.0001
71.3 0.0001
71.4 0.0001
71.5 0.0001
71.6 0.0001
71.7 0.0001
71.8 0.0001
71.9 0.0001
72 5e-05
72.1 5e-05
72.2 5e-05
72.3 5e-05
72.4 5e-05
72.5 5e-05
72.6 5e-05
72.7 5e-05
72.8 5e-05
72.9 5e-05
73 5e-05
73.1 5e-05
73.2 5e-05
73.3 5e-05
73.4 5e-05
73.5 5e-05
73.6 5e-05
73.7 5e-05
73.8 5e-05
73.9 5e-05
74 5e-05
74.1 5e-05
74.2 5e-05
74.3 5e-05
74.4 5e-05
74.5 5e-05
74.6 5e-05
74.7 5e-05
74.8 5e-05
74.9 5e-05
75 5e-05
75.1 5e-05
75.2 5e-05
75.3 5e-05
75.4 5e-05
75.5 5e-05
75.6 5e-05
75.7 5e-05
75.8 5e-05
75.9 5e-05
76 5e-05
76.1 5e-05
76.2 5e-05
76.3 5e-05
76.4 5e-05
76.5 5e-05
76.6 0
0.1 1
0.2 0.9997
0.3 0.9973
0.4 0.9925
0.5 0.9832
0.6 0.9728
0.7 0.963
0.8 0.9516
0.9 0.9395
1 0.92595
1.1 0.91285
1.2 0.90095
1.3 0.8893
1.4 0.87645
1.5 0.8629
1.6 0.8502
1.7 0.8383
1.8 0.82585
1.9 0.81505
2 0.8042
2.1 0.7926
2.2 0.78185
2.3 0.77105
2.4 0.76065
2.5 0.74965
2.6 0.73955
2.7 0.73015
2.8 0.72125
2.9 0.7094
3 0.69835
3.1 0.6891
3.2 0.6787
3.3 0.6688
3.4 0.65835
3.5 0.64975
3.6 0.6413
3.7 0.6333
3.8 0.6236
3.9 0.6139
4 0.60595
4.1 0.59865
4.2 0.59045
4.3 0.58175
4.4 0.5749
4.5 0.56615
4.6 0.5586
4.7 0.55045
4.8 0.543
4.9 0.5341
5 0.52665
5.1 0.5191
5.2 0.51155
5.3 0.50455
5.4 0.49715
5.5 0.4908
5.6 0.48425
5.7 0.47805
5.8 0.47155
5.9 0.4639
6 0.45845
6.1 0.4521
6.2 0.446
6.3 0.44
6.4 0.43425
6.5 0.42925
6.6 0.4232
6.7 0.4166
6.8 0.41165
6.9 0.4065
7 0.40055
7.1 0.39535
7.2 0.3906
7.3 0.38465
7.4 0.37955
7.5 0.3743
7.6 0.36925
7.7 0.36375
7.8 0.3578
7.9 0.35195
8 0.3475
8.1 0.3428
8.2 0.33735
8.3 0.33245
8.4 0.32765
8.5 0.3226
8.6 0.3176
8.7 0.31215
8.8 0.30785
8.9 0.3032
9 0.2991
9.1 0.2951
9.2 0.29095
9.3 0.2853
9.4 0.2822
9.5 0.27825
9.6 0.2738
9.7 0.2706
9.8 0.2665
9.9 0.26315
10 0.26015
10.1 0.25685
10.2 0.25345
10.3 0.2493
10.4 0.2453
10.5 0.2414
10.6 0.2384
10.7 0.2351
10.8 0.232
10.9 0.2295
11 0.2262
11.1 0.2232
11.2 0.2209
11.3 0.2182
11.4 0.2151
11.5 0.21215
11.6 0.2098
11.7 0.2069
11.8 0.204
11.9 0.20105
12 0.19765
12.1 0.1952
12.2 0.19285
12.3 0.1908
12.4 0.18815
12.5 0.18575
12.6 0.1828
12.7 0.18025
12.8 0.1777
12.9 0.1747
13 0.1724
13.1 0.1704
13.2 0.16845
13.3 0.16595
13.4 0.1641
13.5 0.16175
13.6 0.1597
13.7 0.15795
13.8 0.15555
13.9 0.1533
14 0.15135
14.1 0.14925
14.2 0.14735
14.3 0.14525
14.4 0.14315
14.5 0.14095
14.6 0.13875
14.7 0.1363
14.8 0.1338
14.9 0.1317
15 0.1299
15.1 0.12845
15.2 0.12695
15.3 0.1248
15.4 0.12285
15.5 0.1212
15.6 0.1193
15.7 0.1178
15.8 0.1164
15.9 0.1149
16 0.11375
16.1 0.11185
16.2 0.11
16.3 0.108
16.4 0.10585
16.5 0.1039
16.6 0.10185
16.7 0.1004
16.8 0.09925
16.9 0.09805
17 0.0971
17.1 0.09565
17.2 0.09415
17.3 0.0931
17.4 0.0916
17.5 0.09015
17.6 0.08885
17.7 0.08785
17.8 0.08715
17.9 0.0862
18 0.0847
18.1 0.08345
18.2 0.0825
18.3 0.0815
18.4 0.0803
18.5 0.07895
18.6 0.0776
18.7 0.07655
18.8 0.07545
18.9 0.07405
19 0.0733
19.1 0.07245
19.2 0.07165
19.3 0.0705
19.4 0.0693
19.5 0.06835
19.6 0.0671
19.7 0.0662
19.8 0.0652
19.9 0.06405
20 0.06335
20.1 0.06255
20.2 0.06165
20.3 0.0609
20.4 0.06015
20.5 0.0593
20.6 0.0587
20.7 0.05785
20.8 0.05685
20.9 0.0563
21 0.05565
21.1 0.05465
21.2 0.0541
21.3 0.05305
21.4 0.05255
21.5 0.0516
21.6 0.05085
21.7 0.05025
21.8 0.04955
21.9 0.0487
22 0.04815
22.1 0.04725
22.2 0.04635
22.3 0.04555
22.4 0.0449
22.5 0.0441
22.6 0.0436
22.7 0.04325
22.8 0.0425
22.9 0.0421
23 0.04145
23.1 0.0408
23.2 0.04025
23.3 0.03955
23.4 0.03895
23.5 0.0383
23.6 0.0378
23.7 0.0374
23.8 0.03685
23.9 0.03635
24 0.03585
24.1 0.03545
24.2 0.03475
24.3 0.03425
24.4 0.03375
24.5 0.0334
24.6 0.0329
24.7 0.0326
24.8 0.0321
24.9 0.03125
25 0.03055
25.1 0.0303
25.2 0.03
25.3 0.0297
25.4 0.0294
25.5 0.0291
25.6 0.02825
25.7 0.02795
25.8 0.0275
25.9 0.02725
26 0.02705
26.1 0.02645
26.2 0.0262
26.3 0.02575
26.4 0.02555
26.5 0.02535
26.6 0.02495
26.7 0.02475
26.8 0.02425
26.9 0.024
27 0.02395
27.1 0.02355
27.2 0.0232
27.3 0.023
27.4 0.0229
27.5 0.02255
27.6 0.02215
27.7 0.02205
27.8 0.02175
27.9 0.02145
28 0.02115
28.1 0.0209
28.2 0.02065
28.3 0.02045
28.4 0.02015
28.5 0.0199
28.6 0.0197
28.7 0.0195
28.8 0.01945
28.9 0.0192
29 0.01885
29.1 0.0187
29.2 0.0184
29.3 0.0183
29.4 0.0181
29.5 0.0178
29.6 0.01755
29.7 0.0173
29.8 0.01695
29.9 0.0168
30 0.01655
30.1 0.01655
30.2 0.01625
30.3 0.01595
30.4 0.01585
30.5 0.0157
30.6 0.01555
30.7 0.0154
30.8 0.0153
30.9 0.0151
31 0.0149
31.1 0.0147
31.2 0.0143
31.3 0.0141
31.4 0.01405
31.5 0.0139
31.6 0.01355
31.7 0.0135
31.8 0.01335
31.9 0.01315
32 0.0131
32.1 0.0128
32.2 0.0126
32.3 0.01235
32.4 0.01215
32.5 0.01205
32.6 0.0118
32.7 0.0115
32.8 0.01135
32.9 0.011
33 0.01085
33.1 0.0107
33.2 0.01065
33.3 0.0106
33.4 0.0103
33.5 0.01025
33.6 0.01015
33.7 0.0101
33.8 0.01
33.9 0.00995
34 0.00995
34.1 0.0096
34.2 0.00945
34.3 0.0094
34.4 0.00935
34.5 0.0092
34.6 0.0091
34.7 0.0089
34.8 0.00875
34.9 0.00845
35 0.0083
35.1 0.00825
35.2 0.00825
35.3 0.0082
35.4 0.008
35.5 0.00795
35.6 0.00785
35.7 0.0078
35.8 0.00765
35.9 0.00755
36 0.00745
36.1 0.0073
36.2 0.00715
36.3 0.00705
36.4 0.007
36.5 0.00695
36.6 0.0069
36.7 0.00685
36.8 0.00685
36.9 0.0067
37 0.00665
37.1 0.00655
37.2 0.0064
37.3 0.0061
37.4 0.00605
37.5 0.006
37.6 0.00595
37.7 0.00595
37.8 0.00585
37.9 0.0058
38 0.0057
38.1 0.0056
38.2 0.00545
38.3 0.0054
38.4 0.00535
38.5 0.0052
38.6 0.0051
38.7 0.00505
38.8 0.005
38.9 0.00485
39 0.0048
39.1 0.00475
39.2 0.0046
39.3 0.0045
39.4 0.0045
39.5 0.00445
39.6 0.0044
39.7 0.0044
39.8 0.0044
39.9 0.00435
40 0.0043
40.1 0.00425
40.2 0.0042
40.3 0.0042
40.4 0.0041
40.5 0.00405
40.6 0.00405
40.7 0.004
40.8 0.00395
40.9 0.00385
41 0.00385
41.1 0.00385
41.2 0.00385
41.3 0.0038
41.4 0.0037
41.5 0.0037
41.6 0.00365
41.7 0.00365
41.8 0.0036
41.9 0.0035
42 0.0035
42.1 0.00345
42.2 0.0033
42.3 0.0032
42.4 0.00315
42.5 0.0031
42.6 0.00305
42.7 0.003
42.8 0.00285
42.9 0.0028
43 0.0027
43.1 0.00265
43.2 0.00265
43.3 0.00255
43.4 0.00255
43.5 0.00255
43.6 0.0025
43.7 0.0024
43.8 0.0024
43.9 0.0024
44 0.0024
44.1 0.00235
44.2 0.00235
44.3 0.00235
44.4 0.0022
44.5 0.0022
44.6 0.0021
44.7 0.00205
44.8 0.00205
44.9 0.00205
45 0.00195
45.1 0.0019
45.2 0.0019
45.3 0.0019
45.4 0.0019
45.5 0.0019
45.6 0.00185
45.7 0.0018
45.8 0.0018
45.9 0.00175
46 0.0017
46.1 0.0017
46.2 0.0017
46.3 0.00165
46.4 0.0016
46.5 0.0016
46.6 0.0016
46.7 0.00155
46.8 0.0015
46.9 0.00145
47 0.00145
47.1 0.00145
47.2 0.00145
47.3 0.00145
47.4 0.0014
47.5 0.0014
47.6 0.00135
47.7 0.00125
47.8 0.00125
47.9 0.00125
48 0.00125
48.1 0.00125
48.2 0.0012
48.3 0.0012
48.4 0.0012
48.5 0.0012
48.6 0.0012
48.7 0.0012
48.8 0.0012
48.9 0.0012
49 0.0012
49.1 0.0012
49.2 0.00115
49.3 0.00105
49.4 0.00105
49.5 0.00105
49.6 0.00105
49.7 0.00105
49.8 0.00105
49.9 0.00105
50 0.00105
50.1 0.00105
50.2 0.00105
50.3 0.00105
50.4 0.00105
50.5 0.00105
50.6 0.00105
50.7 0.00105
50.8 0.00105
50.9 0.00105
51 0.001
51.1 0.001
51.2 0.001
51.3 0.001
51.4 0.001
51.5 0.001
51.6 0.001
51.7 0.00095
51.8 0.00095
51.9 0.0009
52 0.0009
52.1 0.0009
52.2 0.0009
52.3 0.0009
52.4 0.0009
52.5 0.0009
52.6 0.0009
52.7 0.0009
52.8 0.00085
52.9 0.0008
53 0.0008
53.1 0.0008
53.2 0.0008
53.3 0.00075
53.4 0.00075
53.5 0.0007
53.6 0.0007
53.7 0.0007
53.8 0.0007
53.9 0.0007
54 0.0007
54.1 0.0007
54.2 0.00065
54.3 0.00065
54.4 0.00065
54.5 0.00065
54.6 0.00065
54.7 0.00065
54.8 0.00065
54.9 0.00065
55 0.00065
55.1 0.0006
55.2 0.0006
55.3 0.0006
55.4 0.0006
55.5 0.0006
55.6 0.00055
55.7 0.00055
55.8 0.00055
55.9 0.00055
56 0.00055
56.1 0.00055
56.2 0.00055
56.3 0.00055
56.4 0.00055
56.5 0.00055
56.6 0.00055
56.7 0.00055
56.8 0.00055
56.9 0.0005
57 0.0005
57.1 0.0005
57.2 0.0005
57.3 0.0005
57.4 0.0005
57.5 0.0005
57.6 0.00045
57.7 0.00045
57.8 0.00045
57.9 0.00045
58 0.00045
58.1 0.00045
58.2 0.00045
58.3 0.00045
58.4 0.00045
58.5 0.00045
58.6 0.00045
58.7 0.00045
58.8 0.00045
58.9 0.0004
59 0.0004
59.1 0.0004
59.2 0.0004
59.3 0.0004
59.4 0.0004
59.5 0.0004
59.6 0.0004
59.7 0.00035
59.8 0.00035
59.9 0.00035
60 0.00035
60.1 0.00035
60.2 0.00035
60.3 0.00035
60.4 0.00035
60.5 0.0003
60.6 0.0003
60.7 0.0003
60.8 0.0003
60.9 0.0003
61 0.0003
61.1 0.0003
61.2 0.0003
61.3 0.0003
61.4 0.0003
61.5 0.0003
61.6 0.0003
61.7 0.0003
61.8 0.0003
61.9 0.00025
62 0.00025
62.1 0.00025
62.2 0.00025
62.3 0.00025
62.4 0.00025
62.5 0.00025
62.6 0.00025
62.7 0.00025
62.8 0.00025
62.9 0.00025
63 0.0002
63.1 0.0002
63.2 0.0002
63.3 0.0002
63.4 0.0002
63.5 0.0002
63.6 0.0002
63.7 0.0002
63.8 0.0002
63.9 0.0002
64 0.0002
64.1 0.0002
64.2 0.0002
64.3 0.0002
64.4 0.0002
64.5 0.0002
64.6 0.00015
64.7 0.00015
64.8 0.00015
64.9 0.00015
65 0.00015
65.1 0.00015
65.2 0.00015
65.3 0.00015
65.4 0.00015
65.5 0.00015
65.6 0.00015
65.7 0.00015
65.8 0.00015
65.9 0.00015
66 0.00015
66.1 0.00015
66.2 0.00015
66.3 0.00015
66.4 0.00015
66.5 0.00015
66.6 0.00015
66.7 0.00015
66.8 0.00015
66.9 0.00015
67 0.00015
67.1 0.00015
67.2 0.00015
67.3 0.00015
67.4 0.00015
67.5 0.00015
67.6 0.00015
67.7 0.00015
67.8 0.00015
67.9 0.00015
68 0.00015
68.1 0.00015
68.2 0.00015
68.3 0.00015
68.4 0.00015
68.5 0.00015
68.6 0.00015
68.7 0.00015
68.8 0.00015
68.9 0.00015
69 0.00015
69.1 0.00015
69.2 0.00015
69.3 0.00015
69.4 0.00015
69.5 0.00015
69.6 0.00015
69.7 0.00015
69.8 0.00015
69.9 0.00015
70 0.00015
70.1 0.00015
70.2 0.00015
70.3 0.00015
70.4 0.00015
70.5 0.00015
70.6 0.00015
70.7 0.00015
70.8 0.00015
70.9 0.00015
71 0.00015
71.1 0.00015
71.2 0.00015
71.3 0.00015
71.4 0.00015
71.5 0.00015
71.6 0.00015
71.7 0.00015
71.8 0.00015
71.9 0.00015
72 0.00015
72.1 0.00015
72.2 0.00015
72.3 0.00015
72.4 0.00015
72.5 0.00015
72.6 0.00015
72.7 0.00015
72.8 0.00015
72.9 0.00015
73 0.00015
73.1 0.00015
73.2 0.00015
73.3 0.00015
73.4 0.00015
73.5 0.00015
73.6 0.00015
73.7 0.00015
73.8 0.00015
73.9 0.00015
74 0.00015
74.1 0.00015
74.2 0.00015
74.3 0.00015
74.4 0.00015
74.5 0.00015
74.6 0.00015
74.7 0.00015
74.8 0.00015
74.9 0.00015
75 0.00015
75.1 0.00015
75.2 0.00015
75.3 0.00015
75.4 0.00015
75.5 0.00015
75.6 0.00015
75.7 0.00015
75.8 0.0001
75.9 0.0001
76 0.0001
76.1 0.0001
76.2 0.0001
76.3 0.0001
76.4 0.0001
76.5 0.0001
76.6 0.0001
76.7 0.0001
76.8 0.0001
76.9 0.0001
77 0.0001
77.1 0.0001
77.2 0.0001
77.3 0.0001
77.4 0.0001
77.5 0.0001
77.6 0.0001
77.7 0.0001
77.8 0.0001
77.9 0.0001
78 0.0001
78.1 0.0001
78.2 0.0001
78.3 0.0001
78.4 0.0001
78.5 0.0001
78.6 0.0001
78.7 0.0001
78.8 0.0001
78.9 0.0001
79 0.0001
79.1 0.0001
79.2 0.0001
79.3 0.0001
79.4 0.0001
79.5 0.0001
79.6 0.0001
79.7 0.0001
79.8 0.0001
79.9 0.0001
80 0.0001
80.1 0.0001
80.2 0.0001
80.3 0.0001
80.4 0.0001
80.5 0.0001
80.6 0.0001
80.7 5e-05
80.8 5e-05
80.9 5e-05
81 5e-05
81.1 5e-05
81.2 5e-05
81.3 5e-05
81.4 5e-05
81.5 5e-05
81.6 5e-05
81.7 5e-05
81.8 5e-05
81.9 5e-05
82 5e-05
82.1 5e-05
82.2 5e-05
82.3 5e-05
82.4 5e-05
82.5 5e-05
82.6 5e-05
82.7 5e-05
82.8 5e-05
82.9 5e-05
83 5e-05
83.1 5e-05
83.2 5e-05
83.3 5e-05
83.4 5e-05
83.5 5e-05
83.6 5e-05
83.7 5e-05
83.8 5e-05
83.9 5e-05
84 5e-05
84.1 5e-05
84.2 5e-05
84.3 5e-05
84.4 5e-05
84.5 5e-05
84.6 5e-05
84.7 5e-05
84.8 5e-05
84.9 5e-05
85 5e-05
85.1 5e-05
85.2 5e-05
85.3 5e-05
85.4 0
0.1 1
0.2 0.9995
0.3 0.99685
0.4 0.9914
0.5 0.98365
0.6 0.97235
0.7 0.9611
0.8 0.9501
0.9 0.9374
1 0.92425
1.1 0.91035
1.2 0.89835
1.3 0.8853
1.4 0.8735
1.5 0.86245
1.6 0.8506
1.7 0.8371
1.8 0.8257
1.9 0.8124
2 0.80165
2.1 0.7894
2.2 0.7787
2.3 0.7673
2.4 0.75635
2.5 0.7456
2.6 0.73505
2.7 0.7243
2.8 0.71395
2.9 0.7043
3 0.6951
3.1 0.6856
3.2 0.67635
3.3 0.66675
3.4 0.65725
3.5 0.64765
3.6 0.63925
3.7 0.6296
3.8 0.62045
3.9 0.6126
4 0.60475
4.1 0.59665
4.2 0.5882
4.3 0.58
4.4 0.57235
4.5 0.56395
4.6 0.55585
4.7 0.54745
4.8 0.53925
4.9 0.5325
5 0.5249
5.1 0.51785
5.2 0.5107
5.3 0.50305
5.4 0.49535
5.5 0.48845
5.6 0.48035
5.7 0.47305
5.8 0.46595
5.9 0.46025
6 0.45385
6.1 0.44765
6.2 0.44115
6.3 0.43475
6.4 0.42895
6.5 0.4229
6.6 0.41685
6.7 0.4096
6.8 0.4038
6.9 0.3975
7 0.3916
7.1 0.3852
7.2 0.3791
7.3 0.3741
7.4 0.36755
7.5 0.3624
7.6 0.3581
7.7 0.35345
7.8 0.3487
7.9 0.3435
8 0.33865
8.1 0.33325
8.2 0.32825
8.3 0.32365
8.4 0.32005
8.5 0.31545
8.6 0.31105
8.7 0.30645
8.8 0.30205
8.9 0.29815
9 0.29395
9.1 0.29065
9.2 0.2852
9.3 0.2815
9.4 0.2774
9.5 0.27315
9.6 0.26975
9.7 0.2655
9.8 0.2619
9.9 0.2585
10 0.25475
10.1 0.25045
10.2 0.2475
10.3 0.24345
10.4 0.2406
10.5 0.2375
10.6 0.2342
10.7 0.2315
10.8 0.2285
10.9 0.2251
11 0.22155
11.1 0.2186
11.2 0.2155
11.3 0.21275
11.4 0.20915
11.5 0.20595
11.6 0.20275
11.7 0.20005
11.8 0.198
11.9 0.1949
12 0.19215
12.1 0.18915
12.2 0.1861
12.3 0.184
12.4 0.181
12.5 0.1791
12.6 0.1767
12.7 0.17415
12.8 0.1714
12.9 0.16905
13 0.16655
13.1 0.1642
13.2 0.1617
13.3 0.15945
13.4 0.15695
13.5 0.15495
13.6 0.1527
13.7 0.1505
13.8 0.1491
13.9 0.14685
14 0.14395
14.1 0.1418
14.2 0.14025
14.3 0.13875
14.4 0.1365
14.5 0.13415
14.6 0.1322
14.7 0.1301
14.8 0.128
14.9 0.12585
15 0.1243
15.1 0.1224
15.2 0.12095
15.3 0.11935
15.4 0.118
15.5 0.1163
15.6 0.11485
15.7 0.11325
15.8 0.11125
15.9 0.1096
16 0.10785
16.1 0.1062
16.2 0.1049
16.3 0.1037
16.4 0.1022
16.5 0.1008
16.6 0.0994
16.7 0.09805
16.8 0.09635
16.9 0.09525
17 0.09395
17.1 0.0923
17.2 0.09095
17.3 0.08935
17.4 0.08815
17.5 0.08675
17.6 0.08575
17.7 0.08445
17.8 0.08305
17.9 0.08185
18 0.0805
18.1 0.0796
18.2 0.0784
18.3 0.0776
18.4 0.0761
18.5 0.07475
18.6 0.0738
18.7 0.07265
18.8 0.0717
18.9 0.07075
19 0.0702
19.1 0.06925
19.2 0.06845
19.3 0.0677
19.4 0.067
19.5 0.06625
19.6 0.06535
19.7 0.06435
19.8 0.0636
19.9 0.06285
20 0.0615
20.1 0.06065
20.2 0.05985
20.3 0.05875
20.4 0.0578
20.5 0.05725
20.6 0.0566
20.7 0.05585
20.8 0.0549
20.9 0.05405
21 0.0535
21.1 0.053
21.2 0.05255
21.3 0.05185
21.4 0.0515
21.5 0.05085
21.6 0.0503
21.7 0.0494
21.8 0.04885
21.9 0.0483
22 0.04765
22.1 0.04725
22.2 0.0469
22.3 0.046
22.4 0.0453
22.5 0.04485
22.6 0.04415
22.7 0.0437
22.8 0.0434
22.9 0.04265
23 0.0415
23.1 0.0411
23.2 0.04045
23.3 0.04
23.4 0.03945
23.5 0.0386
23.6 0.03805
23.7 0.0373
23.8 0.0367
23.9 0.0362
24 0.03555
24.1 0.0352
24.2 0.03475
24.3 0.03395
24.4 0.03355
24.5 0.03325
24.6 0.033
24.7 0.0327
24.8 0.03235
24.9 0.032
25 0.0317
25.1 0.0313
25.2 0.03085
25.3 0.03025
25.4 0.02985
25.5 0.02935
25.6 0.02895
25.7 0.0286
25.8 0.02825
25.9 0.0281
26 0.0277
26.1 0.0272
26.2 0.027
26.3 0.02665
26.4 0.02635
26.5 0.0258
26.6 0.0253
26.7 0.02485
26.8 0.02395
26.9 0.0235
27 0.0232
27.1 0.023
27.2 0.0226
27.3 0.02225
27.4 0.022
27.5 0.02165
27.6 0.02115
27.7 0.0208
27.8 0.02065
27.9 0.0203
28 0.0201
28.1 0.01975
28.2 0.01965
28.3 0.01925
28.4 0.01915
28.5 0.019
28.6 0.01875
28.7 0.01835
28.8 0.0181
28.9 0.01805
29 0.01785
29.1 0.01765
29.2 0.01755
29.3 0.01735
29.4 0.01705
29.5 0.01665
29.6 0.0163
29.7 0.01615
29.8 0.01605
29.9 0.01585
30 0.01555
30.1 0.01535
30.2 0.0152
30.3 0.01505
30.4 0.0146
30.5 0.0143
30.6 0.0142
30.7 0.01395
30.8 0.01375
30.9 0.0136
31 0.01345
31.1 0.01335
31.2 0.0132
31.3 0.01305
31.4 0.0128
31.5 0.01275
31.6 0.01255
31.7 0.01235
31.8 0.01215
31.9 0.01195
32 0.0118
32.1 0.01175
32.2 0.0116
32.3 0.0114
32.4 0.0114
32.5 0.0113
32.6 0.01115
32.7 0.01085
32.8 0.0107
32.9 0.01065
33 0.01055
33.1 0.01035
33.2 0.01025
33.3 0.00995
33.4 0.00975
33.5 0.0096
33.6 0.0095
33.7 0.0094
33.8 0.00915
33.9 0.00905
34 0.0089
34.1 0.0087
34.2 0.0087
34.3 0.00855
34.4 0.0084
34.5 0.00825
34.6 0.0082
34.7 0.00805
34.8 0.00795
34.9 0.00785
35 0.0077
35.1 0.00765
35.2 0.00755
35.3 0.00745
35.4 0.00745
35.5 0.00725
35.6 0.00715
35.7 0.00705
35.8 0.0069
35.9 0.00685
36 0.00665
36.1 0.00655
36.2 0.00645
36.3 0.0064
36.4 0.0064
36.5 0.0063
36.6 0.00625
36.7 0.0062
36.8 0.00615
36.9 0.0061
37 0.006
37.1 0.0059
37.2 0.00575
37.3 0.0057
37.4 0.0057
37.5 0.00555
37.6 0.00545
37.7 0.00545
37.8 0.0052
37.9 0.0051
38 0.00505
38.1 0.00495
38.2 0.0049
38.3 0.0048
38.4 0.0047
38.5 0.0047
38.6 0.0046
38.7 0.00455
38.8 0.00455
38.9 0.00445
39 0.0044
39.1 0.0044
39.2 0.00425
39.3 0.00425
39.4 0.00415
39.5 0.0041
39.6 0.004
39.7 0.0039
39.8 0.00385
39.9 0.0038
40 0.0038
40.1 0.0037
40.2 0.0036
40.3 0.0035
40.4 0.00345
40.5 0.00345
40.6 0.0034
40.7 0.0034
40.8 0.0034
40.9 0.0033
41 0.0032
41.1 0.00315
41.2 0.00315
41.3 0.00315
41.4 0.00315
41.5 0.0031
41.6 0.003
41.7 0.003
41.8 0.0029
41.9 0.00285
42 0.00285
42.1 0.00265
42.2 0.0026
42.3 0.00255
42.4 0.00255
42.5 0.00245
42.6 0.00245
42.7 0.0024
42.8 0.0024
42.9 0.00235
43 0.00235
43.1 0.00225
43.2 0.0022
43.3 0.0022
43.4 0.00205
43.5 0.002
43.6 0.00195
43.7 0.00195
43.8 0.00185
43.9 0.00185
44 0.00185
44.1 0.0018
44.2 0.0018
44.3 0.0018
44.4 0.0018
44.5 0.00175
44.6 0.00175
44.7 0.00175
44.8 0.0017
44.9 0.0017
45 0.0017
45.1 0.0017
45.2 0.0017
45.3 0.00165
45.4 0.00165
45.5 0.0016
45.6 0.0016
45.7 0.00155
45.8 0.00155
45.9 0.00155
46 0.00145
46.1 0.00145
46.2 0.00145
46.3 0.00145
46.4 0.00145
46.5 0.0014
46.6 0.0014
46.7 0.0014
46.8 0.0014
46.9 0.0014
47 0.0014
47.1 0.00135
47.2 0.00135
47.3 0.00135
47.4 0.00135
47.5 0.0013
47.6 0.0013
47.7 0.0013
47.8 0.0013
47.9 0.00125
48 0.00125
48.1 0.00125
48.2 0.0012
48.3 0.0012
48.4 0.0011
48.5 0.0011
48.6 0.0011
48.7 0.00105
48.8 0.00105
48.9 0.00105
49 0.00105
49.1 0.001
49.2 0.001
49.3 0.00095
49.4 0.00095
49.5 0.00095
49.6 0.0009
49.7 0.0008
49.8 0.0008
49.9 0.00075
50 0.00075
50.1 0.00075
50.2 0.0007
50.3 0.0007
50.4 0.0007
50.5 0.0007
50.6 0.00065
50.7 0.00065
50.8 0.00065
50.9 0.00065
51 0.00065
51.1 0.00065
51.2 0.0006
51.3 0.00055
51.4 0.00055
51.5 0.00055
51.6 0.00055
51.7 0.00055
51.8 0.0005
51.9 0.0005
52 0.0005
52.1 0.0005
52.2 0.0005
52.3 0.0005
52.4 0.0005
52.5 0.0005
52.6 0.00045
52.7 0.00045
52.8 0.00045
52.9 0.00045
53 0.00045
53.1 0.00045
53.2 0.00045
53.3 0.00045
53.4 0.00045
53.5 0.00045
53.6 0.00045
53.7 0.00045
53.8 0.0004
53.9 0.0004
54 0.0004
54.1 0.0004
54.2 0.0004
54.3 0.0004
54.4 0.0004
54.5 0.0004
54.6 0.00035
54.7 0.00035
54.8 0.00035
54.9 0.00035
55 0.00035
55.1 0.0003
55.2 0.0003
55.3 0.0003
55.4 0.0003
55.5 0.0003
55.6 0.0003
55.7 0.0003
55.8 0.0003
55.9 0.0003
56 0.0003
56.1 0.0003
56.2 0.0003
56.3 0.0003
56.4 0.0003
56.5 0.0003
56.6 0.0003
56.7 0.0003
56.8 0.0003
56.9 0.0003
57 0.0003
57.1 0.0003
57.2 0.0003
57.3 0.0003
57.4 0.00025
57.5 0.00025
57.6 0.00025
57.7 0.00025
57.8 0.00025
57.9 0.00025
58 0.00025
58.1 0.00025
58.2 0.00025
58.3 0.00025
58.4 0.00025
58.5 0.00025
58.6 0.00025
58.7 0.00025
58.8 0.00025
58.9 0.00025
59 0.00025
59.1 0.00025
59.2 0.0002
59.3 0.0002
59.4 0.0002
59.5 0.0002
59.6 0.0002
59.7 0.0002
59.8 0.0002
59.9 0.0002
60 0.0002
60.1 0.0002
60.2 0.0002
60.3 0.00015
60.4 0.00015
60.5 0.00015
60.6 0.00015
60.7 0.00015
60.8 0.00015
60.9 0.00015
61 0.00015
61.1 0.00015
61.2 0.00015
61.3 0.00015
61.4 0.0001
61.5 0.0001
61.6 0.0001
61.7 0.0001
61.8 0.0001
61.9 0.0001
62 0.0001
62.1 0.0001
62.2 0.0001
62.3 0.0001
62.4 0.0001
62.5 0.0001
62.6 0.0001
62.7 0.0001
62.8 0.0001
62.9 0.0001
63 0.0001
63.1 0.0001
63.2 0.0001
63.3 0.0001
63.4 0.0001
63.5 0.0001
63.6 0.0001
63.7 0.0001
63.8 0.0001
63.9 0.0001
64 0.0001
64.1 0.0001
64.2 0.0001
64.3 0.0001
64.4 0.0001
64.5 0.0001
64.6 0.0001
64.7 0.0001
64.8 0.0001
64.9 0.0001
65 0.0001
65.1 0.0001
65.2 0.0001
65.3 0.0001
65.4 0.0001
65.5 0.0001
65.6 0.0001
65.7 0.0001
65.8 0.0001
65.9 0.0001
66 0.0001
66.1 0.0001
66.2 0.0001
66.3 0.0001
66.4 0.0001
66.5 0.0001
66.6 0.0001
66.7 0.0001
66.8 0.0001
66.9 0.0001
67 0.0001
67.1 0.0001
67.2 0.0001
67.3 0.0001
67.4 0.0001
67.5 0.0001
67.6 0.0001
67.7 0.0001
67.8 0.0001
67.9 0.0001
68 0.0001
68.1 0.0001
68.2 0.0001
68.3 0.0001
68.4 0.0001
68.5 0.0001
68.6 0.0001
68.7 0.0001
68.8 0.0001
68.9 0.0001
69 0.0001
69.1 0.0001
69.2 0.0001
69.3 0.0001
69.4 0.0001
69.5 0.0001
69.6 0.0001
69.7 0.0001
69.8 0.0001
69.9 0.0001
70 0.0001
70.1 0.0001
70.2 0.0001
70.3 0.0001
70.4 0.0001
70.5 0.0001
70.6 0.0001
70.7 0.0001
70.8 0.0001
70.9 0.0001
71 0.0001
71.1 0.0001
71.2 0.0001
71.3 0.0001
71.4 0.0001
71.5 0.0001
71.6 0.0001
71.7 0.0001
71.8 0.0001
71.9 0.0001
72 0.0001
72.1 0.0001
72.2 0.0001
72.3 0.0001
72.4 0.0001
72.5 0.0001
72.6 0.0001
72.7 0.0001
72.8 0.0001
72.9 0.0001
73 0.0001
73.1 0.0001
73.2 0.0001
73.3 0.0001
73.4 0.0001
73.5 0.0001
73.6 0.0001
73.7 0.0001
73.8 0.0001
73.9 0.0001
74 0.0001
74.1 0.0001
74.2 0.0001
74.3 0.0001
74.4 0.0001
74.5 0.0001
74.6 0.0001
74.7 0.0001
74.8 0.0001
74.9 0.0001
75 0.0001
75.1 0.0001
75.2 0.0001
75.3 0.0001
75.4 5e-05
75.5 5e-05
75.6 5e-05
75.7 5e-05
75.8 5e-05
75.9 5e-05
76 5e-05
76.1 0
0.1 1
0.2 0.99975
0.3 0.99715
0.4 0.991
0.5 0.98245
0.6 0.97365
0.7 0.9634
0.8 0.9518
0.9 0.9391
1 0.92615
1.1 0.9135
1.2 0.9017
1.3 0.8892
1.4 0.87715
1.5 0.86535
1.6 0.85325
1.7 0.8403
1.8 0.82855
1.9 0.81745
2 0.80695
2.1 0.7951
2.2 0.78405
2.3 0.7726
2.4 0.7615
2.5 0.75155
2.6 0.7418
2.7 0.7311
2.8 0.72085
2.9 0.70925
3 0.6995
3.1 0.6904
3.2 0.68095
3.3 0.6706
3.4 0.6605
3.5 0.65145
3.6 0.643
3.7 0.63385
3.8 0.62475
3.9 0.61565
4 0.60755
4.1 0.59955
4.2 0.5911
4.3 0.582
4.4 0.574
4.5 0.56585
4.6 0.5591
4.7 0.5517
4.8 0.54525
4.9 0.53725
5 0.5295
5.1 0.521
5.2 0.5147
5.3 0.5071
5.4 0.5003
5.5 0.49415
5.6 0.4875
5.7 0.48145
5.8 0.47535
5.9 0.4687
6 0.4616
6.1 0.4548
6.2 0.44815
6.3 0.44185
6.4 0.43545
6.5 0.42935
6.6 0.4232
6.7 0.41755
6.8 0.41155
6.9 0.40545
7 0.4002
7.1 0.3941
7.2 0.3877
7.3 0.38335
7.4 0.37845
7.5 0.3727
7.6 0.36745
7.7 0.36235
7.8 0.35745
7.9 0.35315
8 0.3473
8.1 0.3427
8.2 0.338
8.3 0.3334
8.4 0.32865
8.5 0.3243
8.6 0.3208
8.7 0.31535
8.8 0.3103
8.9 0.3057
9 0.30185
9.1 0.29745
9.2 0.2937
9.3 0.2892
9.4 0.28505
9.5 0.28115
9.6 0.2771
9.7 0.27295
9.8 0.2695
9.9 0.2658
10 0.2626
10.1 0.25905
10.2 0.2551
10.3 0.2513
10.4 0.24745
10.5 0.24405
10.6 0.24065
10.7 0.2376
10.8 0.23455
10.9 0.23075
11 0.228
11.1 0.22505
11.2 0.22085
11.3 0.2177
11.4 0.2145
11.5 0.21115
11.6 0.2079
11.7 0.20505
11.8 0.20165
11.9 0.19925
12 0.19655
12.1 0.1934
12.2 0.19075
12.3 0.18745
12.4 0.1849
12.5 0.1823
12.6 0.18015
12.7 0.17755
12.8 0.1754
12.9 0.1722
13 0.1703
13.1 0.16785
13.2 0.16495
13.3 0.16235
13.4 0.16065
13.5 0.15805
13.6 0.15645
13.7 0.154
13.8 0.1518
13.9 0.1496
14 0.14735
14.1 0.14535
14.2 0.14345
14.3 0.1416
14.4 0.1396
14.5 0.13735
14.6 0.13565
14.7 0.1338
14.8 0.13175
14.9 0.1294
15 0.1269
15.1 0.12545
15.2 0.12395
15.3 0.1221
15.4 0.1204
15.5 0.11905
15.6 0.11725
15.7 0.1153
15.8 0.1138
15.9 0.1124
16 0.1107
16.1 0.1093
16.2 0.1076
16.3 0.10595
16.4 0.1046
16.5 0.1031
16.6 0.1018
16.7 0.10065
16.8 0.0991
16.9 0.0977
17 0.09645
17.1 0.09545
17.2 0.09385
17.3 0.09245
17.4 0.0908
17.5 0.08935
17.6 0.08785
17.7 0.0866
17.8 0.08565
17.9 0.08435
18 0.0832
18.1 0.0821
18.2 0.0811
18.3 0.0798
18.4 0.0785
18.5 0.0778
18.6 0.0767
18.7 0.076
18.8 0.07515
18.9 0.0738
19 0.0729
19.1 0.072
19.2 0.07065
19.3 0.06955
19.4 0.06875
19.5 0.06805
19.6 0.06725
19.7 0.06645
19.8 0.06585
19.9 0.06505
20 0.0642
20.1 0.06315
20.2 0.0621
20.3 0.061
20.4 0.06015
20.5 0.05945
20.6 0.0588
20.7 0.05825
20.8 0.05735
20.9 0.0564
21 0.05575
21.1 0.05515
21.2 0.05435
21.3 0.05365
21.4 0.05275
21.5 0.05205
21.6 0.0514
21.7 0.05065
21.8 0.0499
21.9 0.04935
22 0.04845
22.1 0.0477
22.2 0.04705
22.3 0.0463
22.4 0.04565
22.5 0.045
22.6 0.0444
22.7 0.04365
22.8 0.04305
22.9 0.0426
23 0.0419
23.1 0.04145
23.2 0.04105
23.3 0.04065
23.4 0.04015
23.5 0.03975
23.6 0.0394
23.7 0.0389
23.8 0.03835
23.9 0.0378
24 0.0374
24.1 0.0365
24.2 0.03625
24.3 0.036
24.4 0.0354
24.5 0.0349
24.6 0.03435
24.7 0.03405
24.8 0.03345
24.9 0.03305
25 0.0327
25.1 0.0324
25.2 0.0319
25.3 0.0315
25.4 0.031
25.5 0.03065
25.6 0.0304
25.7 0.02995
25.8 0.0296
25.9 0.0291
26 0.02865
26.1 0.0283
26.2 0.02805
26.3 0.02725
26.4 0.02685
26.5 0.0265
26.6 0.0262
26.7 0.02585
26.8 0.0254
26.9 0.02465
27 0.02425
27.1 0.0239
27.2 0.0236
27.3 0.0234
27.4 0.02295
27.5 0.0227
27.6 0.02235
27.7 0.02195
27.8 0.02175
27.9 0.02145
28 0.02115
28.1 0.021
28.2 0.02055
28.3 0.02015
28.4 0.01975
28.5 0.01945
28.6 0.0192
28.7 0.0189
28.8 0.01855
28.9 0.01825
29 0.01795
29.1 0.01775
29.2 0.01765
29.3 0.0175
29.4 0.01735
29.5 0.01725
29.6 0.01705
29.7 0.01685
29.8 0.01655
29.9 0.01635
30 0.0162
30.1 0.0159
30.2 0.01585
30.3 0.01575
30.4 0.0155
30.5 0.01525
30.6 0.0149
30.7 0.0147
30.8 0.0146
30.9 0.0144
31 0.01435
31.1 0.01405
31.2 0.0139
31.3 0.01365
31.4 0.01355
31.5 0.01335
31.6 0.01315
31.7 0.01305
31.8 0.01295
31.9 0.0126
32 0.0123
32.1 0.0121
32.2 0.012
32.3 0.01165
32.4 0.0116
32.5 0.0115
32.6 0.0114
32.7 0.0112
32.8 0.0109
32.9 0.01075
33 0.0107
33.1 0.01045
33.2 0.01035
33.3 0.01035
33.4 0.0102
33.5 0.0101
33.6 0.01
33.7 0.0099
33.8 0.0098
33.9 0.00965
34 0.0095
34.1 0.0092
34.2 0.0092
34.3 0.00915
34.4 0.00895
34.5 0.0088
34.6 0.0087
34.7 0.0085
34.8 0.0083
34.9 0.0081
35 0.00785
35.1 0.0078
35.2 0.0076
35.3 0.00735
35.4 0.00735
35.5 0.0071
35.6 0.0069
35.7 0.00665
35.8 0.00655
35.9 0.0065
36 0.00645
36.1 0.00635
36.2 0.00635
36.3 0.00625
36.4 0.0061
36.5 0.00605
36.6 0.006
36.7 0.00595
36.8 0.0059
36.9 0.0058
37 0.0058
37.1 0.0057
37.2 0.0056
37.3 0.0054
37.4 0.00535
37.5 0.00515
37.6 0.00505
37.7 0.00505
37.8 0.00505
37.9 0.00495
38 0.00495
38.1 0.0049
38.2 0.0048
38.3 0.0045
38.4 0.0045
38.5 0.0043
38.6 0.00425
38.7 0.0042
38.8 0.0042
38.9 0.00415
39 0.00415
39.1 0.00405
39.2 0.004
39.3 0.0039
39.4 0.00375
39.5 0.00365
39.6 0.00365
39.7 0.0035
39.8 0.0035
39.9 0.0035
40 0.0035
40.1 0.0034
40.2 0.0034
40.3 0.0034
40.4 0.0033
40.5 0.00325
40.6 0.0032
40.7 0.00315
40.8 0.00305
40.9 0.003
41 0.00295
41.1 0.00295
41.2 0.0027
41.3 0.0026
41.4 0.0026
41.5 0.00255
41.6 0.0025
41.7 0.0025
41.8 0.00245
41.9 0.00245
42 0.0024
42.1 0.00235
42.2 0.00235
42.3 0.0023
42.4 0.0023
42.5 0.00225
42.6 0.0022
42.7 0.00215
42.8 0.00215
42.9 0.00205
43 0.00205
43.1 0.002
43.2 0.002
43.3 0.00195
43.4 0.00185
43.5 0.00185
43.6 0.0018
43.7 0.0018
43.8 0.00175
43.9 0.00175
44 0.00175
44.1 0.00175
44.2 0.0017
44.3 0.0016
44.4 0.00155
44.5 0.00155
44.6 0.00155
44.7 0.0015
44.8 0.0015
44.9 0.0015
45 0.0015
45.1 0.0015
45.2 0.0015
45.3 0.0015
45.4 0.0015
45.5 0.0015
45.6 0.0015
45.7 0.0015
45.8 0.0014
45.9 0.0014
46 0.0014
46.1 0.00135
46.2 0.00135
46.3 0.0013
46.4 0.0013
46.5 0.00125
46.6 0.00125
46.7 0.0011
46.8 0.0011
46.9 0.00105
47 0.00105
47.1 0.00105
47.2 0.00105
47.3 0.001
47.4 0.001
47.5 0.001
47.6 0.001
47.7 0.001
47.8 0.001
47.9 0.001
48 0.001
48.1 0.00095
48.2 0.00095
48.3 0.00095
48.4 0.00095
48.5 0.00085
48.6 0.00085
48.7 0.00085
48.8 0.00085
48.9 0.0008
49 0.00075
49.1 0.00075
49.2 0.00075
49.3 0.00075
49.4 0.00075
49.5 0.00075
49.6 0.0007
49.7 0.0007
49.8 0.0007
49.9 0.0007
50 0.00065
50.1 0.00065
50.2 0.0006
50.3 0.0006
50.4 0.0006
50.5 0.0006
50.6 0.0006
50.7 0.0006
50.8 0.0006
50.9 0.00055
51 0.00055
51.1 0.0005
51.2 0.00045
51.3 0.00045
51.4 0.00045
51.5 0.00045
51.6 0.00045
51.7 0.00045
51.8 0.00045
51.9 0.00045
52 0.00045
52.1 0.00045
52.2 0.00045
52.3 0.00045
52.4 0.00045
52.5 0.00045
52.6 0.00045
52.7 0.00045
52.8 0.00045
52.9 0.0004
53 0.0004
53.1 0.0004
53.2 0.0004
53.3 0.0004
53.4 0.0004
53.5 0.0004
53.6 0.0004
53.7 0.0004
53.8 0.0004
53.9 0.0004
54 0.0004
54.1 0.0004
54.2 0.0004
54.3 0.0004
54.4 0.0004
54.5 0.0004
54.6 0.0004
54.7 0.0004
54.8 0.0004
54.9 0.0004
55 0.0004
55.1 0.0004
55.2 0.0004
55.3 0.0004
55.4 0.0004
55.5 0.0004
55.6 0.0004
55.7 0.0004
55.8 0.0004
55.9 0.0004
56 0.0004
56.1 0.0004
56.2 0.0004
56.3 0.0004
56.4 0.0004
56.5 0.0004
56.6 0.0004
56.7 0.0004
56.8 0.0004
56.9 0.0004
57 0.0004
57.1 0.0004
57.2 0.0004
57.3 0.0004
57.4 0.0004
57.5 0.0004
57.6 0.00035
57.7 0.00035
57.8 0.00035
57.9 0.00035
58 0.00035
58.1 0.00035
58.2 0.00035
58.3 0.00035
58.4 0.00035
58.5 0.00035
58.6 0.00035
58.7 0.00035
58.8 0.00035
58.9 0.00035
59 0.00035
59.1 0.00035
59.2 0.00035
59.3 0.00035
59.4 0.0003
59.5 0.0003
59.6 0.0003
59.7 0.0003
59.8 0.0003
59.9 0.00025
60 0.00025
60.1 0.00025
60.2 0.00025
60.3 0.0002
60.4 0.00015
60.5 0.00015
60.6 0.0001
60.7 5e-05
60.8 5e-05
60.9 5e-05
61 5e-05
61.1 5e-05
61.2 5e-05
61.3 5e-05
61.4 5e-05
61.5 5e-05
61.6 5e-05
61.7 5e-05
61.8 5e-05
61.9 5e-05
62 5e-05
62.1 5e-05
62.2 5e-05
62.3 5e-05
62.4 5e-05
62.5 5e-05
62.6 5e-05
62.7 5e-05
62.8 5e-05
62.9 5e-05
63 5e-05
63.1 5e-05
63.2 5e-05
63.3 5e-05
63.4 5e-05
63.5 5e-05
63.6 5e-05
63.7 5e-05
63.8 5e-05
63.9 5e-05
64 5e-05
64.1 5e-05
64.2 5e-05
64.3 5e-05
64.4 5e-05
64.5 5e-05
64.6 5e-05
64.7 5e-05
64.8 5e-05
64.9 5e-05
65 5e-05
65.1 5e-05
65.2 5e-05
65.3 5e-05
65.4 5e-05
65.5 5e-05
65.6 5e-05
65.7 5e-05
65.8 5e-05
65.9 5e-05
66 5e-05
66.1 5e-05
66.2 5e-05
66.3 5e-05
66.4 5e-05
66.5 5e-05
66.6 5e-05
66.7 5e-05
66.8 5e-05
66.9 5e-05
67 5e-05
67.1 5e-05
67.2 5e-05
67.3 5e-05
67.4 5e-05
67.5 5e-05
67.6 5e-05
67.7 5e-05
67.8 5e-05
67.9 5e-05
68 5e-05
68.1 5e-05
68.2 5e-05
68.3 0
0.1 1
0.2 0.999531
0.3 0.996875
0.4 0.990313
0.5 0.982187
0.6 0.973281
0.7 0.961562
0.8 0.949688
0.9 0.937344
1 0.926406
1.1 0.91375
1.2 0.900625
1.3 0.887969
1.4 0.875312
1.5 0.863906
1.6 0.853437
1.7 0.838594
1.8 0.826562
1.9 0.813281
2 0.802813
2.1 0.790312
2.2 0.777656
2.3 0.765156
2.4 0.755781
2.5 0.743594
2.6 0.732812
2.7 0.722813
2.8 0.71125
2.9 0.702031
3 0.694531
3.1 0.685156
3.2 0.675938
3.3 0.669531
3.4 0.660781
3.5 0.649062
3.6 0.640313
3.7 0.630781
3.8 0.621563
3.9 0.612812
4 0.60375
4.1 0.594531
4.2 0.587187
4.3 0.576719
4.4 0.568437
4.5 0.559531
4.6 0.549844
4.7 0.540781
4.8 0.532969
4.9 0.524219
5 0.518437
5.1 0.509531
5.2 0.503906
5.3 0.497656
5.4 0.488906
5.5 0.479844
5.6 0.472344
5.7 0.464844
5.8 0.458125
5.9 0.451562
6 0.446719
6.1 0.440156
6.2 0.433906
6.3 0.4275
6.4 0.419687
6.5 0.415
6.6 0.409219
6.7 0.402031
6.8 0.396875
6.9 0.391875
7 0.385781
7.1 0.381094
7.2 0.375
7.3 0.370625
7.4 0.366406
7.5 0.360313
7.6 0.355625
7.7 0.350156
7.8 0.346406
7.9 0.340313
8 0.334844
8.1 0.327812
8.2 0.324375
8.3 0.320469
8.4 0.314375
8.5 0.309375
8.6 0.305
8.7 0.299531
8.8 0.294687
8.9 0.290781
9 0.286094
9.1 0.283125
9.2 0.279062
9.3 0.276563
9.4 0.272344
9.5 0.268125
9.6 0.263125
9.7 0.260469
9.8 0.256563
9.9 0.253281
10 0.249531
10.1 0.244844
10.2 0.24125
10.3 0.238437
10.4 0.235313
10.5 0.231406
10.6 0.227812
10.7 0.224844
10.8 0.221562
10.9 0.218281
11 0.214688
11.1 0.212656
11.2 0.210156
11.3 0.207344
11.4 0.205313
11.5 0.200625
11.6 0.197344
11.7 0.194688
11.8 0.192031
11.9 0.189844
12 0.188906
12.1 0.186094
12.2 0.183906
12.3 0.181094
12.4 0.178906
12.5 0.176094
12.6 0.173594
12.7 0.170937
12.8 0.168594
12.9 0.166406
13 0.16375
13.1 0.161094
13.2 0.158438
13.3 0.155937
13.4 0.154375
13.5 0.152031
13.6 0.150156
13.7 0.147656
13.8 0.145781
13.9 0.144062
14 0.142188
14.1 0.140781
14.2 0.139375
14.3 0.137813
14.4 0.135938
14.5 0.13375
14.6 0.131875
14.7 0.130156
14.8 0.128437
14.9 0.125625
15 0.12375
15.1 0.122656
15.2 0.120313
15.3 0.118906
15.4 0.1175
15.5 0.116094
15.6 0.114688
15.7 0.114219
15.8 0.112656
15.9 0.111094
16 0.110313
16.1 0.10875
16.2 0.106719
16.3 0.105
16.4 0.103437
16.5 0.101875
16.6 0.100313
16.7 0.09875
16.8 0.0973437
16.9 0.0957813
17 0.0946875
17.1 0.0940625
17.2 0.0917187
17.3 0.090625
17.4 0.0896875
17.5 0.0878125
17.6 0.0864063
17.7 0.0853125
17.8 0.0842188
17.9 0.08375
18 0.0826562
18.1 0.0807813
18.2 0.0790625
18.3 0.0785938
18.4 0.0775
18.5 0.0760937
18.6 0.0751563
18.7 0.0740625
18.8 0.0725
18.9 0.0715625
19 0.0696875
19.1 0.0685938
19.2 0.0673438
19.3 0.0659375
19.4 0.0651563
19.5 0.0642187
19.6 0.0639063
19.7 0.0628125
19.8 0.0617188
19.9 0.0607813
20 0.0596875
20.1 0.0585938
20.2 0.0571875
20.3 0.0565625
20.4 0.0560938
20.5 0.0546875
20.6 0.0540625
20.7 0.0529688
20.8 0.0525
20.9 0.051875
21 0.0509375
21.1 0.0503125
21.2 0.0495313
21.3 0.04875
21.4 0.0485937
21.5 0.0471875
21.6 0.046875
21.7 0.04625
21.8 0.0457812
21.9 0.0454687
22 0.0451563
22.1 0.0445313
22.2 0.044375
22.3 0.04375
22.4 0.0426562
22.5 0.0421875
22.6 0.0417188
22.7 0.0414062
22.8 0.0410938
22.9 0.0404688
23 0.04
23.1 0.0395313
23.2 0.0390625
23.3 0.03875
23.4 0.038125
23.5 0.0378125
23.6 0.0371875
23.7 0.03625
23.8 0.0359375
23.9 0.0357812
24 0.0357812
24.1 0.0351563
24.2 0.0346875
24.3 0.034375
24.4 0.0340625
24.5 0.0340625
24.6 0.0335937
24.7 0.0328125
24.8 0.0320312
24.9 0.0317188
25 0.0317188
25.1 0.0314062
25.2 0.0314062
25.3 0.0309375
25.4 0.0304688
25.5 0.0301562
25.6 0.029375
25.7 0.0289063
25.8 0.0285937
25.9 0.028125
26 0.0276563
26.1 0.0271875
26.2 0.0271875
26.3 0.026875
26.4 0.0265625
26.5 0.0265625
26.6 0.02625
26.7 0.0257812
26.8 0.025625
26.9 0.025625
27 0.025625
27.1 0.0253125
27.2 0.025
27.3 0.0246875
27.4 0.0240625
27.5 0.0234375
27.6 0.0229687
27.7 0.0223437
27.8 0.0221875
27.9 0.0220312
28 0.0217188
28.1 0.0214062
28.2 0.0210938
28.3 0.0209375
28.4 0.0209375
28.5 0.020625
28.6 0.020625
28.7 0.0204688
28.8 0.0203125
28.9 0.0201562
29 0.0196875
29.1 0.019375
29.2 0.0192187
29.3 0.0185937
29.4 0.0185937
29.5 0.0182813
29.6 0.0182813
29.7 0.0178125
29.8 0.0176563
29.9 0.0176563
30 0.0170313
30.1 0.0170313
30.2 0.0170313
30.3 0.016875
30.4 0.0165625
30.5 0.0164062
30.6 0.01625
30.7 0.0159375
30.8 0.015625
30.9 0.0153125
31 0.0153125
31.1 0.0148438
31.2 0.0145312
31.3 0.0140625
31.4 0.0139063
31.5 0.01375
31.6 0.0134375
31.7 0.0134375
31.8 0.013125
31.9 0.0129687
32 0.0125
32.1 0.0121875
32.2 0.0121875
32.3 0.0121875
32.4 0.0120313
32.5 0.0120313
32.6 0.0117188
32.7 0.0117188
32.8 0.0115625
32.9 0.0114062
33 0.0114062
33.1 0.01125
33.2 0.0109375
33.3 0.0107812
33.4 0.010625
33.5 0.0103125
33.6 0.0103125
33.7 0.0103125
33.8 0.0101562
33.9 0.00984375
34 0.0096875
34.1 0.0096875
34.2 0.00953125
34.3 0.00953125
34.4 0.009375
34.5 0.00921875
34.6 0.00921875
34.7 0.00875
34.8 0.00859375
34.9 0.008125
35 0.0078125
35.1 0.00734375
35.2 0.0071875
35.3 0.006875
35.4 0.006875
35.5 0.006875
35.6 0.0065625
35.7 0.00640625
35.8 0.00640625
35.9 0.00625
36 0.00625
36.1 0.0059375
36.2 0.0059375
36.3 0.0059375
36.4 0.0059375
36.5 0.0059375
36.6 0.0059375
36.7 0.00578125
36.8 0.00578125
36.9 0.00578125
37 0.00578125
37.1 0.00578125
37.2 0.005625
37.3 0.005625
37.4 0.00546875
37.5 0.00546875
37.6 0.00515625
37.7 0.00515625
37.8 0.005
37.9 0.005
38 0.005
38.1 0.005
38.2 0.005
38.3 0.005
38.4 0.00484375
38.5 0.0046875
38.6 0.0046875
38.7 0.0046875
38.8 0.0046875
38.9 0.0046875
39 0.00453125
39.1 0.00453125
39.2 0.00453125
39.3 0.00453125
39.4 0.00453125
39.5 0.00453125
39.6 0.004375
39.7 0.00421875
39.8 0.0040625
39.9 0.0040625
40 0.0040625
40.1 0.0040625
40.2 0.0040625
40.3 0.0040625
40.4 0.0040625
40.5 0.00390625
40.6 0.00390625
40.7 0.00359375
40.8 0.0034375
40.9 0.0034375
41 0.0034375
41.1 0.0034375
41.2 0.00296875
41.3 0.00296875
41.4 0.00296875
41.5 0.0028125
41.6 0.0028125
41.7 0.0028125
41.8 0.00265625
41.9 0.0025
42 0.0025
42.1 0.0025
42.2 0.0025
42.3 0.0025
42.4 0.0025
42.5 0.00234375
42.6 0.00234375
42.7 0.00234375
42.8 0.00234375
42.9 0.00234375
43 0.0021875
43.1 0.0021875
43.2 0.0021875
43.3 0.0021875
43.4 0.00203125
43.5 0.00203125
43.6 0.00203125
43.7 0.00171875
43.8 0.00171875
43.9 0.00171875
44 0.00171875
44.1 0.00171875
44.2 0.00171875
44.3 0.00171875
44.4 0.00171875
44.5 0.00171875
44.6 0.00171875
44.7 0.00171875
44.8 0.00171875
44.9 0.00171875
45 0.00171875
45.1 0.00171875
45.2 0.0015625
45.3 0.00125
45.4 0.00125
45.5 0.00125
45.6 0.00125
45.7 0.00125
45.8 0.00125
45.9 0.00125
46 0.00125
46.1 0.00125
46.2 0.00125
46.3 0.00125
46.4 0.00125
46.5 0.00125
46.6 0.00125
46.7 0.00125
46.8 0.00125
46.9 0.00125
47 0.00125
47.1 0.00125
47.2 0.00125
47.3 0.00125
47.4 0.00109375
47.5 0.00109375
47.6 0.00109375
47.7 0.00109375
47.8 0.00109375
47.9 0.00109375
48 0.00109375
48.1 0.00109375
48.2 0.00109375
48.3 0.00109375
48.4 0.00109375
48.5 0.0009375
48.6 0.0009375
48.7 0.0009375
48.8 0.0009375
48.9 0.0009375
49 0.0009375
49.1 0.0009375
49.2 0.0009375
49.3 0.0009375
49.4 0.0009375
49.5 0.0009375
49.6 0.0009375
49.7 0.0009375
49.8 0.0009375
49.9 0.0009375
50 0.0009375
50.1 0.0009375
50.2 0.0009375
50.3 0.0009375
50.4 0.0009375
50.5 0.0009375
50.6 0.0009375
50.7 0.0009375
50.8 0.0009375
50.9 0.0009375
51 0.0009375
51.1 0.0009375
51.2 0.0009375
51.3 0.0009375
51.4 0.0009375
51.5 0.0009375
51.6 0.0009375
51.7 0.0009375
51.8 0.0009375
51.9 0.00078125
52 0.00078125
52.1 0.00078125
52.2 0.00078125
52.3 0.00078125
52.4 0.00078125
52.5 0.00078125
52.6 0.00046875
52.7 0.00046875
52.8 0.00046875
52.9 0.00046875
53 0.00046875
53.1 0.00046875
53.2 0.00046875
53.3 0.00046875
53.4 0.00046875
53.5 0.00046875
53.6 0.00046875
53.7 0.0003125
53.8 0.0003125
53.9 0.0003125
54 0.0003125
54.1 0.0003125
54.2 0.0003125
54.3 0.0003125
54.4 0.0003125
54.5 0.0003125
54.6 0.0003125
54.7 0.0003125
54.8 0.0003125
54.9 0.0003125
55 0.0003125
55.1 0.0003125
55.2 0.0003125
55.3 0.0003125
55.4 0.0003125
55.5 0.0003125
55.6 0.0003125
55.7 0.0003125
55.8 0.0003125
55.9 0.0003125
56 0.0003125
56.1 0.0003125
56.2 0.0003125
56.3 0.0003125
56.4 0.0003125
56.5 0.0003125
56.6 0.0003125
56.7 0.00015625
56.8 0.00015625
56.9 0.00015625
57 0.00015625
57.1 0.00015625
57.2 0.00015625
57.3 0.00015625
57.4 0.00015625
57.5 0.00015625
57.6 0.00015625
57.7 0.00015625
57.8 0.00015625
57.9 0.00015625
58 0.00015625
58.1 0.00015625
58.2 0.00015625
58.3 0.00015625
58.4 0.00015625
58.5 0.00015625
58.6 0.00015625
58.7 0.00015625
58.8 0.00015625
58.9 0.00015625
59 0.00015625
59.1 0.00015625
59.2 0.00015625
59.3 0.00015625
59.4 0.00015625
59.5 0.00015625
59.6 0.00015625
59.7 0.00015625
59.8 0.00015625
59.9 0.00015625
60 0.00015625
60.1 0.00015625
60.2 0.00015625
60.3 0.00015625
60.4 0.00015625
60.5 0.00015625
60.6 0.00015625
60.7 0.00015625
60.8 0.00015625
60.9 0.00015625
61 0.00015625
61.1 0.00015625
61.2 0.00015625
61.3 0.00015625
61.4 0.00015625
61.5 0.00015625
61.6 0.00015625
61.7 0.00015625
61.8 0.00015625
61.9 0.00015625
62 0.00015625
62.1 0.00015625
62.2 0.00015625
62.3 0.00015625
62.4 0.00015625
62.5 0.00015625
62.6 0.00015625
62.7 0.00015625
62.8 0.00015625
62.9 0.00015625
63 0.00015625
63.1 0.00015625
63.2 0.00015625
63.3 0.00015625
63.4 0.00015625
63.5 0.00015625
63.6 0.00015625
63.7 0.00015625
63.8 0.00015625
63.9 0.00015625
64 0.00015625
64.1 0.00015625
64.2 0.00015625
64.3 0.00015625
64.4 0.00015625
64.5 0.00015625
64.6 0.00015625
64.7 0.00015625
64.8 0.00015625
64.9 0.00015625
65 0.00015625
65.1 0.00015625
65.2 0.00015625
65.3 0.00015625
65.4 0.00015625
65.5 0.00015625
65.6 0.00015625
65.7 0.00015625
65.8 0.00015625
65.9 0.00015625
66 0.00015625
66.1 0.00015625
66.2 0.00015625
66.3 0.00015625
66.4 0.00015625
66.5 0.00015625
66.6 0.00015625
66.7 0.00015625
66.8 0.00015625
66.9 0.00015625
67 0.00015625
67.1 0.00015625
67.2 0.00015625
67.3 0.00015625
67.4 0.00015625
67.5 0.00015625
67.6 0.00015625
67.7 0.00015625
67.8 0.00015625
67.9 0.00015625
68 0.00015625
68.1 0.00015625
68.2 0.00015625
68.3 0.00015625
68.4 0.00015625
68.5 0.00015625
68.6 0.00015625
68.7 0.00015625
68.8 0.00015625
68.9 0.00015625
69 0.00015625
69.1 0.00015625
69.2 0.00015625
69.3 0.00015625
69.4 0.00015625
69.5 0.00015625
69.6 0.00015625
69.7 0.00015625
69.8 0.00015625
69.9 0.00015625
70 0.00015625
70.1 0.00015625
70.2 0.00015625
70.3 0.00015625
70.4 0.00015625
70.5 0.00015625
70.6 0.00015625
70.7 0.00015625
70.8 0.00015625
70.9 0.00015625
71 0.00015625
71.1 0.00015625
71.2 0.00015625
71.3 0.00015625
71.4 0.00015625
71.5 0.00015625
71.6 0.00015625
71.7 0.00015625
71.8 0.00015625
71.9 0.00015625
72 0.00015625
72.1 0.00015625
72.2 0.00015625
72.3 0.00015625
72.4 0.00015625
72.5 0.00015625
72.6 0.00015625
72.7 0.00015625
72.8 0.00015625
72.9 0.00015625
73 0.00015625
73.1 0.00015625
73.2 0.00015625
73.3 0.00015625
73.4 0.00015625
73.5 0.00015625
73.6 0.00015625
73.7 0.00015625
73.8 0.00015625
73.9 0
