0.1 0
0.2 0.0003125
0.3 0.00359375
0.4 0.0084375
0.5 0.0145313
0.6 0.0235938
0.7 0.0332812
0.8 0.0446875
0.9 0.0546875
1 0.0673437
1.1 0.0779688
1.2 0.0903125
1.3 0.103281
1.4 0.115
1.5 0.127344
1.6 0.140313
1.7 0.150781
1.8 0.161562
1.9 0.172969
2 0.185312
2.1 0.197187
2.2 0.210625
2.3 0.219844
2.4 0.22875
2.5 0.23875
2.6 0.251875
2.7 0.262344
2.8 0.270156
2.9 0.280781
3 0.292969
3.1 0.303438
3.2 0.312344
3.3 0.320937
3.4 0.33
3.5 0.33875
3.6 0.348906
3.7 0.358594
3.8 0.366406
3.9 0.375937
4 0.384219
4.1 0.391719
4.2 0.4
4.3 0.406094
4.4 0.41375
4.5 0.422187
4.6 0.429219
4.7 0.436406
4.8 0.447969
4.9 0.455313
5 0.462031
5.1 0.471406
5.2 0.478125
5.3 0.485625
5.4 0.491563
5.5 0.499219
5.6 0.5075
5.7 0.515938
5.8 0.523281
5.9 0.529844
6 0.536406
6.1 0.541719
6.2 0.546875
6.3 0.552656
6.4 0.557656
6.5 0.565781
6.6 0.572031
6.7 0.575625
6.8 0.582344
6.9 0.588437
7 0.594844
7.1 0.601406
7.2 0.605469
7.3 0.611406
7.4 0.616719
7.5 0.620938
7.6 0.625469
7.7 0.631094
7.8 0.636719
7.9 0.642031
8 0.646406
8.1 0.651719
8.2 0.657031
8.3 0.66125
8.4 0.665781
8.5 0.67
8.6 0.674531
8.7 0.678594
8.8 0.681406
8.9 0.687344
9 0.69125
9.1 0.694531
9.2 0.698281
9.3 0.7025
9.4 0.70625
9.5 0.710781
9.6 0.716562
9.7 0.719063
9.8 0.725781
9.9 0.73
10 0.733437
10.1 0.7375
10.2 0.741563
10.3 0.746094
10.4 0.749531
10.5 0.752656
10.6 0.755625
10.7 0.759219
10.8 0.761719
10.9 0.765
11 0.767813
11.1 0.770781
11.2 0.774062
11.3 0.777344
11.4 0.780781
11.5 0.783438
11.6 0.787031
11.7 0.790625
11.8 0.79375
11.9 0.796562
12 0.798906
12.1 0.802188
12.2 0.805937
12.3 0.809063
12.4 0.812656
12.5 0.815
12.6 0.817031
12.7 0.819688
12.8 0.822031
12.9 0.823125
13 0.825469
13.1 0.828594
13.2 0.830781
13.3 0.83375
13.4 0.835938
13.5 0.8375
13.6 0.839844
13.7 0.84375
13.8 0.846094
13.9 0.848281
14 0.850781
14.1 0.852969
14.2 0.855469
14.3 0.857187
14.4 0.858594
14.5 0.860313
14.6 0.861875
14.7 0.863281
14.8 0.865156
14.9 0.867344
15 0.868906
15.1 0.87125
15.2 0.873125
15.3 0.875
15.4 0.876563
15.5 0.878437
15.6 0.879531
15.7 0.881563
15.8 0.882656
15.9 0.88375
16 0.886094
16.1 0.887969
16.2 0.888594
16.3 0.890312
16.4 0.891563
16.5 0.893125
16.6 0.894531
16.7 0.896094
16.8 0.897344
16.9 0.899687
17 0.901094
17.1 0.902031
17.2 0.903594
17.3 0.904844
17.4 0.906719
17.5 0.908594
17.6 0.91
17.7 0.912031
17.8 0.913281
17.9 0.915625
18 0.916562
18.1 0.917813
18.2 0.91875
18.3 0.919219
18.4 0.920156
18.5 0.920781
18.6 0.9225
18.7 0.923906
18.8 0.924844
18.9 0.925469
19 0.926719
19.1 0.927656
19.2 0.928594
19.3 0.929688
19.4 0.930469
19.5 0.93125
19.6 0.931875
19.7 0.933281
19.8 0.934375
19.9 0.935469
20 0.936562
20.1 0.9375
20.2 0.938438
20.3 0.939375
20.4 0.940469
20.5 0.940781
20.6 0.941719
20.7 0.943438
20.8 0.944688
20.9 0.945937
21 0.946719
21.1 0.9475
21.2 0.948438
21.3 0.948906
21.4 0.949375
21.5 0.95
21.6 0.951094
21.7 0.952031
21.8 0.952969
21.9 0.953594
22 0.954063
22.1 0.954844
22.2 0.955313
22.3 0.955781
22.4 0.956094
22.5 0.956406
22.6 0.956875
22.7 0.957656
22.8 0.958438
22.9 0.958906
23 0.959688
23.1 0.96
23.2 0.960938
23.3 0.961562
23.4 0.961719
23.5 0.9625
23.6 0.963437
23.7 0.964219
23.8 0.964531
23.9 0.965
24 0.965469
24.1 0.965625
24.2 0.96625
24.3 0.966719
24.4 0.967187
24.5 0.967344
24.6 0.967656
24.7 0.968125
24.8 0.968281
24.9 0.969219
25 0.969844
25.1 0.970469
25.2 0.970469
25.3 0.971094
25.4 0.971406
25.5 0.971875
25.6 0.972187
25.7 0.972656
25.8 0.972812
25.9 0.972969
26 0.973281
26.1 0.973594
26.2 0.97375
26.3 0.974375
26.4 0.974844
26.5 0.975156
26.6 0.975781
26.7 0.97625
26.8 0.976563
26.9 0.976719
27 0.977187
27.1 0.977812
27.2 0.978437
27.3 0.978906
27.4 0.979375
27.5 0.98
27.6 0.980313
27.7 0.980469
27.8 0.980938
27.9 0.981094
28 0.981719
28.1 0.981875
28.2 0.982031
28.3 0.982031
28.4 0.9825
28.5 0.9825
28.6 0.982656
28.7 0.982812
28.8 0.983125
28.9 0.983437
29 0.98375
29.1 0.983906
29.2 0.984062
29.3 0.984375
29.4 0.984531
29.5 0.985
29.6 0.985
29.7 0.985
29.8 0.985313
29.9 0.985313
30 0.985313
30.1 0.985781
30.2 0.985938
30.3 0.98625
30.4 0.986406
30.5 0.986719
30.6 0.986719
30.7 0.986875
30.8 0.987344
30.9 0.9875
31 0.987969
31.1 0.98875
31.2 0.989062
31.3 0.989219
31.4 0.989375
31.5 0.989844
31.6 0.99
31.7 0.99
31.8 0.990313
31.9 0.990313
32 0.990469
32.1 0.990781
32.2 0.990938
32.3 0.991094
32.4 0.991094
32.5 0.991094
32.6 0.99125
32.7 0.991406
32.8 0.991563
32.9 0.991563
33 0.991875
33.1 0.992031
33.2 0.992031
33.3 0.992031
33.4 0.992188
33.5 0.992188
33.6 0.9925
33.7 0.992656
33.8 0.992656
33.9 0.992812
34 0.993125
34.1 0.993125
34.2 0.993281
34.3 0.993281
34.4 0.993437
34.5 0.993437
34.6 0.993594
34.7 0.993594
34.8 0.993594
34.9 0.993594
35 0.993594
35.1 0.993906
35.2 0.993906
35.3 0.993906
35.4 0.994062
35.5 0.994062
35.6 0.994062
35.7 0.994062
35.8 0.994219
35.9 0.994375
36 0.994375
36.1 0.994375
36.2 0.994844
36.3 0.995156
36.4 0.995156
36.5 0.995156
36.6 0.995156
36.7 0.995156
36.8 0.995156
36.9 0.995156
37 0.995156
37.1 0.995156
37.2 0.995156
37.3 0.995469
37.4 0.995469
37.5 0.995469
37.6 0.995625
37.7 0.995625
37.8 0.995625
37.9 0.995781
38 0.995781
38.1 0.996094
38.2 0.996094
38.3 0.996094
38.4 0.996094
38.5 0.996094
38.6 0.996094
38.7 0.996094
38.8 0.996094
38.9 0.996094
39 0.996094
39.1 0.996094
39.2 0.99625
39.3 0.99625
39.4 0.996406
39.5 0.996406
39.6 0.996406
39.7 0.996563
39.8 0.996563
39.9 0.996563
40 0.996563
40.1 0.996563
40.2 0.996563
40.3 0.996563
40.4 0.996563
40.5 0.996719
40.6 0.996719
40.7 0.996719
40.8 0.996719
40.9 0.996719
41 0.996875
41.1 0.996875
41.2 0.997031
41.3 0.997031
41.4 0.997031
41.5 0.997031
41.6 0.997188
41.7 0.997188
41.8 0.997188
41.9 0.997188
42 0.997188
42.1 0.997188
42.2 0.997188
42.3 0.997188
42.4 0.997188
42.5 0.997188
42.6 0.997344
42.7 0.997344
42.8 0.997344
42.9 0.997344
43 0.997344
43.1 0.997344
43.2 0.997344
43.3 0.997344
43.4 0.997344
43.5 0.9975
43.6 0.9975
43.7 0.9975
43.8 0.9975
43.9 0.9975
44 0.997656
44.1 0.997812
44.2 0.997969
44.3 0.997969
44.4 0.997969
44.5 0.997969
44.6 0.997969
44.7 0.997969
44.8 0.998125
44.9 0.998125
45 0.998125
45.1 0.998125
45.2 0.998125
45.3 0.998125
45.4 0.998125
45.5 0.998125
45.6 0.998125
45.7 0.998125
45.8 0.998125
45.9 0.998281
46 0.998281
46.1 0.998437
46.2 0.998437
46.3 0.998437
46.4 0.998594
46.5 0.998594
46.6 0.998594
46.7 0.998594
46.8 0.998594
46.9 0.998594
47 0.998594
47.1 0.998594
47.2 0.998594
47.3 0.998594
47.4 0.998594
47.5 0.99875
47.6 0.99875
47.7 0.99875
47.8 0.99875
47.9 0.99875
48 0.99875
48.1 0.99875
48.2 0.99875
48.3 0.99875
48.4 0.99875
48.5 0.99875
48.6 0.99875
48.7 0.99875
48.8 0.99875
48.9 0.99875
49 0.99875
49.1 0.99875
49.2 0.99875
49.3 0.99875
49.4 0.998906
49.5 0.998906
49.6 0.998906
49.7 0.998906
49.8 0.999062
49.9 0.999062
50 0.999062
50.1 0.999062
50.2 0.999062
50.3 0.999062
50.4 0.999062
50.5 0.999219
50.6 0.999219
50.7 0.999219
50.8 0.999375
50.9 0.999375
51 0.999375
51.1 0.999375
51.2 0.999375
51.3 0.999375
51.4 0.999375
51.5 0.999375
51.6 0.999375
51.7 0.999375
51.8 0.999375
51.9 0.999375
52 0.999375
52.1 0.999375
52.2 0.999375
52.3 0.999375
52.4 0.999375
52.5 0.999375
52.6 0.999375
52.7 0.999375
52.8 0.999375
52.9 0.999375
53 0.999375
53.1 0.999375
53.2 0.999375
53.3 0.999375
53.4 0.999531
53.5 0.999531
53.6 0.999687
53.7 0.999687
53.8 0.999687
53.9 0.999687
54 0.999687
54.1 0.999687
54.2 0.999687
54.3 0.999844
54.4 0.999844
54.5 0.999844
54.6 0.999844
54.7 0.999844
54.8 0.999844
54.9 0.999844
55 0.999844
55.1 0.999844
55.2 0.999844
55.3 0.999844
55.4 0.999844
55.5 0.999844
55.6 0.999844
55.7 0.999844
55.8 0.999844
55.9 0.999844
56 0.999844
56.1 0.999844
56.2 0.999844
56.3 0.999844
56.4 0.999844
56.5 0.999844
56.6 0.999844
56.7 0.999844
56.8 0.999844
56.9 0.999844
57 0.999844
57.1 0.999844
57.2 0.999844
57.3 0.999844
57.4 0.999844
57.5 0.999844
57.6 0.999844
57.7 0.999844
57.8 0.999844
57.9 0.999844
58 0.999844
58.1 0.999844
58.2 0.999844
58.3 0.999844
58.4 0.999844
58.5 0.999844
58.6 0.999844
58.7 0.999844
58.8 0.999844
58.9 0.999844
59 0.999844
59.1 0.999844
59.2 0.999844
59.3 0.999844
59.4 0.999844
59.5 0.999844
59.6 0.999844
59.7 0.999844
59.8 0.999844
59.9 0.999844
60 0.999844
60.1 0.999844
60.2 0.999844
60.3 0.999844
60.4 0.999844
60.5 0.999844
60.6 0.999844
60.7 0.999844
60.8 0.999844
60.9 0.999844
61 0.999844
61.1 0.999844
61.2 0.999844
61.3 0.999844
61.4 0.999844
61.5 0.999844
61.6 0.999844
61.7 0.999844
61.8 0.999844
61.9 0.999844
62 0.999844
62.1 0.999844
62.2 0.999844
62.3 0.999844
62.4 0.999844
62.5 0.999844
62.6 0.999844
62.7 0.999844
62.8 0.999844
62.9 0.999844
63 0.999844
63.1 0.999844
63.2 0.999844
63.3 0.999844
63.4 0.999844
63.5 0.999844
63.6 0.999844
63.7 0.999844
63.8 0.999844
63.9 0.999844
64 0.999844
64.1 0.999844
64.2 0.999844
64.3 0.999844
64.4 0.999844
64.5 0.999844
64.6 0.999844
64.7 0.999844
64.8 0.999844
64.9 0.999844
65 0.999844
65.1 0.999844
65.2 0.999844
65.3 0.999844
65.4 0.999844
65.5 0.999844
65.6 0.999844
65.7 0.999844
65.8 0.999844
65.9 0.999844
66 0.999844
66.1 0.999844
66.2 0.999844
66.3 0.999844
66.4 0.999844
66.5 0.999844
66.6 0.999844
66.7 0.999844
66.8 0.999844
66.9 0.999844
67 0.999844
67.1 0.999844
67.2 0.999844
67.3 0.999844
67.4 0.999844
67.5 0.999844
67.6 0.999844
67.7 0.999844
67.8 0.999844
67.9 0.999844
68 0.999844
68.1 0.999844
68.2 0.999844
68.3 0.999844
68.4 0.999844
68.5 0.999844
68.6 0.999844
68.7 0.999844
68.8 0.999844
68.9 0.999844
69 0.999844
69.1 0.999844
69.2 0.999844
69.3 0.999844
69.4 0.999844
69.5 0.999844
69.6 0.999844
69.7 0.999844
69.8 0.999844
69.9 0.999844
70 0.999844
70.1 0.999844
70.2 0.999844
70.3 0.999844
70.4 0.999844
70.5 0.999844
70.6 0.999844
70.7 0.999844
70.8 0.999844
70.9 0.999844
71 0.999844
71.1 0.999844
71.2 0.999844
71.3 0.999844
71.4 0.999844
71.5 0.999844
71.6 0.999844
71.7 0.999844
71.8 0.999844
71.9 0.999844
72 0.999844
72.1 0.999844
72.2 0.999844
72.3 0.999844
72.4 0.999844
72.5 0.999844
72.6 0.999844
72.7 0.999844
72.8 0.999844
72.9 0.999844
73 0.999844
73.1 0.999844
73.2 0.999844
73.3 0.999844
73.4 0.999844
73.5 0.999844
73.6 0.999844
73.7 0.999844
73.8 0.999844
73.9 0.999844
74 0.999844
74.1 0.999844
74.2 0.999844
74.3 0.999844
74.4 0.999844
74.5 0.999844
74.6 0.999844
74.7 0.999844
74.8 0.999844
74.9 0.999844
75 0.999844
75.1 0.999844
75.2 0.999844
75.3 0.999844
75.4 0.999844
75.5 0.999844
75.6 0.999844
75.7 1
0.1 0
0.2 0.00078125
0.3 0.0034375
0.4 0.00859375
0.5 0.0176562
0.6 0.028125
0.7 0.0403125
0.8 0.0517188
0.9 0.061875
1 0.0748438
1.1 0.0884375
1.2 0.0992187
1.3 0.10875
1.4 0.120313
1.5 0.134531
1.6 0.146875
1.7 0.156875
1.8 0.168906
1.9 0.182656
2 0.194531
2.1 0.206094
2.2 0.217031
2.3 0.229531
2.4 0.241406
2.5 0.249531
2.6 0.2625
2.7 0.274219
2.8 0.283281
2.9 0.292344
3 0.302031
3.1 0.310937
3.2 0.318594
3.3 0.328281
3.4 0.3375
3.5 0.345
3.6 0.354844
3.7 0.363125
3.8 0.374219
3.9 0.383125
4 0.391562
4.1 0.399531
4.2 0.407031
4.3 0.414687
4.4 0.423125
4.5 0.431406
4.6 0.440156
4.7 0.449062
4.8 0.457188
4.9 0.464844
5 0.471719
5.1 0.479063
5.2 0.486563
5.3 0.493437
5.4 0.50125
5.5 0.507813
5.6 0.514062
5.7 0.52125
5.8 0.528438
5.9 0.534844
6 0.541719
6.1 0.548281
6.2 0.552813
6.3 0.557813
6.4 0.565937
6.5 0.57125
6.6 0.576094
6.7 0.580313
6.8 0.586875
6.9 0.593281
7 0.599375
7.1 0.605625
7.2 0.612344
7.3 0.619844
7.4 0.625781
7.5 0.631406
7.6 0.636563
7.7 0.642344
7.8 0.646719
7.9 0.650312
8 0.655781
8.1 0.660312
8.2 0.666406
8.3 0.672031
8.4 0.675
8.5 0.679844
8.6 0.683906
8.7 0.687656
8.8 0.692344
8.9 0.696719
9 0.702031
9.1 0.705781
9.2 0.709375
9.3 0.711875
9.4 0.715313
9.5 0.719688
9.6 0.724219
9.7 0.728594
9.8 0.733281
9.9 0.737031
10 0.74125
10.1 0.745625
10.2 0.749687
10.3 0.752031
10.4 0.75375
10.5 0.757656
10.6 0.760938
10.7 0.763594
10.8 0.765469
10.9 0.768594
11 0.771875
11.1 0.774687
11.2 0.776875
11.3 0.77875
11.4 0.782031
11.5 0.785
11.6 0.788438
11.7 0.791094
11.8 0.793281
11.9 0.795469
12 0.7975
12.1 0.80125
12.2 0.803125
12.3 0.805937
12.4 0.808438
12.5 0.812656
12.6 0.814844
12.7 0.8175
12.8 0.820781
12.9 0.824375
13 0.826562
13.1 0.830313
13.2 0.833906
13.3 0.835781
13.4 0.838125
13.5 0.84
13.6 0.841875
13.7 0.843594
13.8 0.84625
13.9 0.848125
14 0.850469
14.1 0.852187
14.2 0.854531
14.3 0.855469
14.4 0.856719
14.5 0.858281
14.6 0.859688
14.7 0.861875
14.8 0.863906
14.9 0.866406
15 0.868281
15.1 0.870469
15.2 0.872188
15.3 0.874062
15.4 0.875938
15.5 0.878437
15.6 0.880469
15.7 0.8825
15.8 0.884844
15.9 0.886094
16 0.888125
16.1 0.89
16.2 0.891875
16.3 0.892969
16.4 0.894844
16.5 0.896563
16.6 0.897344
16.7 0.89875
16.8 0.900156
16.9 0.901719
17 0.903125
17.1 0.904375
17.2 0.905625
17.3 0.906719
17.4 0.908906
17.5 0.909687
17.6 0.910625
17.7 0.91125
17.8 0.912188
17.9 0.912813
18 0.914687
18.1 0.915469
18.2 0.915937
18.3 0.917344
18.4 0.918906
18.5 0.919375
18.6 0.920312
18.7 0.920937
18.8 0.921719
18.9 0.923281
19 0.924375
19.1 0.925
19.2 0.926406
19.3 0.9275
19.4 0.928281
19.5 0.929063
19.6 0.929688
19.7 0.930469
19.8 0.931094
19.9 0.932031
20 0.932813
20.1 0.934063
20.2 0.935469
20.3 0.936406
20.4 0.9375
20.5 0.938438
20.6 0.939688
20.7 0.940625
20.8 0.941562
20.9 0.942187
21 0.94375
21.1 0.944219
21.2 0.944531
21.3 0.945781
21.4 0.947031
21.5 0.948125
21.6 0.948906
21.7 0.949688
21.8 0.95
21.9 0.950781
22 0.951875
22.1 0.9525
22.2 0.953125
22.3 0.953281
22.4 0.95375
22.5 0.953906
22.6 0.955313
22.7 0.95625
22.8 0.956719
22.9 0.957031
23 0.957187
23.1 0.957656
23.2 0.958438
23.3 0.95875
23.4 0.959688
23.5 0.960156
23.6 0.960781
23.7 0.961562
23.8 0.961719
23.9 0.962031
24 0.962969
24.1 0.963437
24.2 0.964219
24.3 0.964688
24.4 0.965313
24.5 0.965938
24.6 0.96625
24.7 0.966562
24.8 0.967187
24.9 0.967969
25 0.96875
25.1 0.969375
25.2 0.969688
25.3 0.969844
25.4 0.970313
25.5 0.970469
25.6 0.970938
25.7 0.971094
25.8 0.971562
25.9 0.971875
26 0.9725
26.1 0.972812
26.2 0.972812
26.3 0.972812
26.4 0.972812
26.5 0.972812
26.6 0.973437
26.7 0.973906
26.8 0.974375
26.9 0.974688
27 0.975313
27.1 0.975781
27.2 0.975938
27.3 0.976094
27.4 0.976406
27.5 0.976719
27.6 0.977344
27.7 0.977969
27.8 0.978437
27.9 0.978594
28 0.97875
28.1 0.978906
28.2 0.979062
28.3 0.979531
28.4 0.98
28.5 0.980156
28.6 0.980313
28.7 0.980313
28.8 0.980469
28.9 0.980781
29 0.98125
29.1 0.981563
29.2 0.981719
29.3 0.981875
29.4 0.982187
29.5 0.982187
29.6 0.982187
29.7 0.982656
29.8 0.982656
29.9 0.982969
30 0.983281
30.1 0.983594
30.2 0.983594
30.3 0.98375
30.4 0.98375
30.5 0.983906
30.6 0.984219
30.7 0.984844
30.8 0.984844
30.9 0.985156
31 0.985625
31.1 0.986094
31.2 0.986406
31.3 0.986406
31.4 0.986875
31.5 0.987187
31.6 0.987656
31.7 0.987812
31.8 0.987812
31.9 0.988125
32 0.988281
32.1 0.988437
32.2 0.988437
32.3 0.98875
32.4 0.989062
32.5 0.989219
32.6 0.989219
32.7 0.989219
32.8 0.989531
32.9 0.989531
33 0.989688
33.1 0.99
33.2 0.990156
33.3 0.990469
33.4 0.990469
33.5 0.990469
33.6 0.990625
33.7 0.990781
33.8 0.990781
33.9 0.990938
34 0.990938
34.1 0.990938
34.2 0.990938
34.3 0.991094
34.4 0.99125
34.5 0.991563
34.6 0.991719
34.7 0.991719
34.8 0.991719
34.9 0.991875
35 0.992031
35.1 0.992031
35.2 0.992344
35.3 0.9925
35.4 0.992656
35.5 0.992656
35.6 0.992969
35.7 0.992969
35.8 0.993437
35.9 0.993437
36 0.993594
36.1 0.993594
36.2 0.993594
36.3 0.993594
36.4 0.993906
36.5 0.994062
36.6 0.994062
36.7 0.994062
36.8 0.994062
36.9 0.994219
37 0.994375
37.1 0.994531
37.2 0.994531
37.3 0.994687
37.4 0.994687
37.5 0.994687
37.6 0.994687
37.7 0.994687
37.8 0.994687
37.9 0.994687
38 0.994687
38.1 0.994687
38.2 0.994687
38.3 0.995
38.4 0.995
38.5 0.995
38.6 0.995
38.7 0.995
38.8 0.995
38.9 0.995156
39 0.995156
39.1 0.995313
39.2 0.995469
39.3 0.995469
39.4 0.995625
39.5 0.995625
39.6 0.995625
39.7 0.995625
39.8 0.995781
39.9 0.995781
40 0.995781
40.1 0.995781
40.2 0.995781
40.3 0.996094
40.4 0.996094
40.5 0.99625
40.6 0.99625
40.7 0.99625
40.8 0.99625
40.9 0.99625
41 0.99625
41.1 0.99625
41.2 0.99625
41.3 0.996406
41.4 0.996406
41.5 0.996563
41.6 0.996563
41.7 0.996563
41.8 0.996719
41.9 0.996719
42 0.996719
42.1 0.996875
42.2 0.996875
42.3 0.996875
42.4 0.996875
42.5 0.996875
42.6 0.996875
42.7 0.996875
42.8 0.996875
42.9 0.996875
43 0.996875
43.1 0.997031
43.2 0.997031
43.3 0.997031
43.4 0.997031
43.5 0.997031
43.6 0.997031
43.7 0.997031
43.8 0.997031
43.9 0.997031
44 0.997188
44.1 0.997188
44.2 0.997188
44.3 0.997188
44.4 0.997188
44.5 0.997188
44.6 0.997188
44.7 0.997188
44.8 0.997188
44.9 0.997188
45 0.997188
45.1 0.997188
45.2 0.997188
45.3 0.997188
45.4 0.997188
45.5 0.997188
45.6 0.997188
45.7 0.997188
45.8 0.997188
45.9 0.997188
46 0.997188
46.1 0.997188
46.2 0.997188
46.3 0.997188
46.4 0.997188
46.5 0.997188
46.6 0.997188
46.7 0.997188
46.8 0.997188
46.9 0.997188
47 0.997344
47.1 0.9975
47.2 0.9975
47.3 0.9975
47.4 0.997656
47.5 0.997656
47.6 0.997812
47.7 0.997812
47.8 0.997969
47.9 0.997969
48 0.997969
48.1 0.997969
48.2 0.997969
48.3 0.997969
48.4 0.997969
48.5 0.997969
48.6 0.998125
48.7 0.998125
48.8 0.998125
48.9 0.998125
49 0.998125
49.1 0.998125
49.2 0.998281
49.3 0.998281
49.4 0.998281
49.5 0.998281
49.6 0.998281
49.7 0.998281
49.8 0.998281
49.9 0.998281
50 0.998281
50.1 0.998437
50.2 0.998437
50.3 0.998437
50.4 0.998594
50.5 0.998906
50.6 0.998906
50.7 0.998906
50.8 0.998906
50.9 0.998906
51 0.999062
51.1 0.999062
51.2 0.999062
51.3 0.999062
51.4 0.999062
51.5 0.999062
51.6 0.999062
51.7 0.999219
51.8 0.999219
51.9 0.999219
52 0.999219
52.1 0.999219
52.2 0.999219
52.3 0.999219
52.4 0.999219
52.5 0.999219
52.6 0.999219
52.7 0.999219
52.8 0.999219
52.9 0.999219
53 0.999219
53.1 0.999219
53.2 0.999219
53.3 0.999219
53.4 0.999219
53.5 0.999219
53.6 0.999219
53.7 0.999219
53.8 0.999219
53.9 0.999219
54 0.999219
54.1 0.999219
54.2 0.999219
54.3 0.999219
54.4 0.999219
54.5 0.999219
54.6 0.999219
54.7 0.999219
54.8 0.999219
54.9 0.999219
55 0.999219
55.1 0.999219
55.2 0.999219
55.3 0.999219
55.4 0.999219
55.5 0.999219
55.6 0.999219
55.7 0.999219
55.8 0.999219
55.9 0.999219
56 0.999219
56.1 0.999219
56.2 0.999219
56.3 0.999219
56.4 0.999219
56.5 0.999219
56.6 0.999219
56.7 0.999219
56.8 0.999219
56.9 0.999219
57 0.999219
57.1 0.999219
57.2 0.999219
57.3 0.999219
57.4 0.999219
57.5 0.999219
57.6 0.999219
57.7 0.999219
57.8 0.999219
57.9 0.999219
58 0.999219
58.1 0.999219
58.2 0.999219
58.3 0.999219
58.4 0.999219
58.5 0.999219
58.6 0.999219
58.7 0.999219
58.8 0.999219
58.9 0.999219
59 0.999219
59.1 0.999219
59.2 0.999219
59.3 0.999219
59.4 0.999219
59.5 0.999219
59.6 0.999219
59.7 0.999219
59.8 0.999219
59.9 0.999219
60 0.999219
60.1 0.999219
60.2 0.999219
60.3 0.999219
60.4 0.999219
60.5 0.999219
60.6 0.999219
60.7 0.999219
60.8 0.999219
60.9 0.999219
61 0.999219
61.1 0.999219
61.2 0.999219
61.3 0.999219
61.4 0.999219
61.5 0.999219
61.6 0.999219
61.7 0.999219
61.8 0.999219
61.9 0.999219
62 0.999219
62.1 0.999219
62.2 0.999219
62.3 0.999219
62.4 0.999219
62.5 0.999219
62.6 0.999219
62.7 0.999219
62.8 0.999219
62.9 0.999219
63 0.999531
63.1 0.999531
63.2 0.999531
63.3 0.999531
63.4 0.999531
63.5 0.999531
63.6 0.999531
63.7 0.999531
63.8 0.999531
63.9 0.999531
64 0.999531
64.1 0.999531
64.2 0.999531
64.3 0.999531
64.4 0.999531
64.5 0.999531
64.6 0.999531
64.7 0.999531
64.8 0.999531
64.9 0.999531
65 0.999531
65.1 0.999531
65.2 0.999531
65.3 0.999531
65.4 0.999531
65.5 0.999531
65.6 0.999531
65.7 0.999531
65.8 0.999531
65.9 0.999531
66 0.999531
66.1 0.999531
66.2 0.999531
66.3 0.999531
66.4 0.999531
66.5 0.999531
66.6 0.999531
66.7 0.999531
66.8 0.999531
66.9 0.999687
67 0.999687
67.1 0.999687
67.2 0.999687
67.3 0.999687
67.4 0.999687
67.5 0.999687
67.6 0.999687
67.7 0.999687
67.8 0.999687
67.9 0.999687
68 0.999687
68.1 0.999687
68.2 0.999687
68.3 0.999687
68.4 0.999687
68.5 0.999687
68.6 0.999687
68.7 0.999687
68.8 0.999687
68.9 0.999687
69 0.999687
69.1 0.999687
69.2 0.999844
69.3 0.999844
69.4 1
0.1 5e-05
0.2 0.0005
0.3 0.00365
0.4 0.00935
0.5 0.01755
0.6 0.0264
0.7 0.0379
0.8 0.0494
0.9 0.0628
1 0.0757
1.1 0.0877
1.2 0.1003
1.3 0.11305
1.4 0.1241
1.5 0.137
1.6 0.14885
1.7 0.1598
1.8 0.1706
1.9 0.1815
2 0.19235
2.1 0.2031
2.2 0.21435
2.3 0.22525
2.4 0.2366
2.5 0.247
2.6 0.2568
2.7 0.26685
2.8 0.2766
2.9 0.28605
3 0.29715
3.1 0.3077
3.2 0.317
3.3 0.3279
3.4 0.33645
3.5 0.346
3.6 0.35455
3.7 0.36305
3.8 0.3724
3.9 0.38035
4 0.3887
4.1 0.39755
4.2 0.40635
4.3 0.4134
4.4 0.4219
4.5 0.43085
4.6 0.4389
4.7 0.44675
4.8 0.45495
4.9 0.4612
5 0.46855
5.1 0.4765
5.2 0.48515
5.3 0.49255
5.4 0.50045
5.5 0.5061
5.6 0.5121
5.7 0.51865
5.8 0.526
5.9 0.53265
6 0.53935
6.1 0.54625
6.2 0.55265
6.3 0.55855
6.4 0.5643
6.5 0.57005
6.6 0.57625
6.7 0.5824
6.8 0.58765
6.9 0.593
7 0.59915
7.1 0.6041
7.2 0.6103
7.3 0.6162
7.4 0.62145
7.5 0.6266
7.6 0.63385
7.7 0.63895
7.8 0.644
7.9 0.6487
8 0.6538
8.1 0.6588
8.2 0.66285
8.3 0.66675
8.4 0.6708
8.5 0.6755
8.6 0.67985
8.7 0.68465
8.8 0.68875
8.9 0.6936
9 0.6983
9.1 0.70355
9.2 0.708
9.3 0.71185
9.4 0.71535
9.5 0.7196
9.6 0.72395
9.7 0.72805
9.8 0.7324
9.9 0.73605
10 0.7396
10.1 0.743
10.2 0.74685
10.3 0.7502
10.4 0.75295
10.5 0.75575
10.6 0.7589
10.7 0.7623
10.8 0.7656
10.9 0.76925
11 0.77225
11.1 0.77575
11.2 0.77865
11.3 0.7823
11.4 0.7857
11.5 0.78925
11.6 0.79255
11.7 0.79535
11.8 0.7985
11.9 0.80165
12 0.8043
12.1 0.80725
12.2 0.81025
12.3 0.81245
12.4 0.81455
12.5 0.81755
12.6 0.81995
12.7 0.82305
12.8 0.8251
12.9 0.827
13 0.8299
13.1 0.83245
13.2 0.8345
13.3 0.8366
13.4 0.8389
13.5 0.8412
13.6 0.8442
13.7 0.8464
13.8 0.8488
13.9 0.85085
14 0.85305
14.1 0.85535
14.2 0.85705
14.3 0.85895
14.4 0.8609
14.5 0.86295
14.6 0.86495
14.7 0.8669
14.8 0.8689
14.9 0.8711
15 0.87315
15.1 0.8745
15.2 0.87575
15.3 0.8775
15.4 0.8791
15.5 0.8809
15.6 0.8828
15.7 0.8847
15.8 0.88645
15.9 0.88775
16 0.8896
16.1 0.8909
16.2 0.8933
16.3 0.8948
16.4 0.8967
16.5 0.89805
16.6 0.8997
16.7 0.9008
16.8 0.90255
16.9 0.904
17 0.905
17.1 0.90645
17.2 0.90775
17.3 0.90905
17.4 0.91045
17.5 0.91185
17.6 0.91305
17.7 0.9143
17.8 0.9158
17.9 0.9168
18 0.91805
18.1 0.91915
18.2 0.92035
18.3 0.9216
18.4 0.92315
18.5 0.9247
18.6 0.9255
18.7 0.92655
18.8 0.92755
18.9 0.9288
19 0.92985
19.1 0.93115
19.2 0.932
19.3 0.93285
19.4 0.93425
19.5 0.9352
19.6 0.93635
19.7 0.9375
19.8 0.9389
19.9 0.9398
20 0.9405
20.1 0.9417
20.2 0.94265
20.3 0.94335
20.4 0.94395
20.5 0.94485
20.6 0.94585
20.7 0.94645
20.8 0.94725
20.9 0.9479
21 0.9487
21.1 0.9494
21.2 0.9501
21.3 0.9508
21.4 0.9515
21.5 0.9521
21.6 0.95235
21.7 0.9528
21.8 0.9534
21.9 0.95405
22 0.9546
22.1 0.95535
22.2 0.95615
22.3 0.95655
22.4 0.95735
22.5 0.9577
22.6 0.9581
22.7 0.9588
22.8 0.95925
22.9 0.9597
23 0.9604
23.1 0.9607
23.2 0.9612
23.3 0.96185
23.4 0.96225
23.5 0.96285
23.6 0.9631
23.7 0.9636
23.8 0.9642
23.9 0.9649
24 0.9655
24.1 0.96615
24.2 0.9666
24.3 0.96705
24.4 0.9674
24.5 0.96785
24.6 0.9684
24.7 0.9687
24.8 0.96915
24.9 0.96975
25 0.9703
25.1 0.97085
25.2 0.97135
25.3 0.9717
25.4 0.972
25.5 0.97215
25.6 0.9724
25.7 0.9728
25.8 0.9732
25.9 0.97345
26 0.9736
26.1 0.97415
26.2 0.9747
26.3 0.975
26.4 0.9754
26.5 0.9758
26.6 0.9762
26.7 0.9767
26.8 0.97685
26.9 0.9773
27 0.97775
27.1 0.97815
27.2 0.9784
27.3 0.97875
27.4 0.97935
27.5 0.97965
27.6 0.9799
27.7 0.9801
27.8 0.98035
27.9 0.9806
28 0.9809
28.1 0.9812
28.2 0.9813
28.3 0.9815
28.4 0.9818
28.5 0.9821
28.6 0.98245
28.7 0.98255
28.8 0.98295
28.9 0.98325
29 0.9835
29.1 0.9837
29.2 0.9839
29.3 0.9842
29.4 0.9844
29.5 0.9846
29.6 0.9848
29.7 0.98515
29.8 0.98525
29.9 0.9854
30 0.98565
30.1 0.9858
30.2 0.986
30.3 0.9861
30.4 0.9863
30.5 0.9864
30.6 0.98655
30.7 0.9868
30.8 0.987
30.9 0.987
31 0.9871
31.1 0.98735
31.2 0.9878
31.3 0.98795
31.4 0.98805
31.5 0.9881
31.6 0.9882
31.7 0.98835
31.8 0.98845
31.9 0.9886
32 0.9886
32.1 0.98875
32.2 0.98885
32.3 0.98905
32.4 0.98925
32.5 0.9893
32.6 0.9896
32.7 0.9897
32.8 0.9899
32.9 0.98995
33 0.99015
33.1 0.99015
33.2 0.9902
33.3 0.99025
33.4 0.9903
33.5 0.9904
33.6 0.9905
33.7 0.99065
33.8 0.99075
33.9 0.99085
34 0.99095
34.1 0.991
34.2 0.991
34.3 0.99105
34.4 0.99105
34.5 0.9912
34.6 0.99135
34.7 0.99145
34.8 0.99165
34.9 0.99195
35 0.99205
35.1 0.99225
35.2 0.9923
35.3 0.9924
35.4 0.99245
35.5 0.9925
35.6 0.99255
35.7 0.9926
35.8 0.9926
35.9 0.99275
36 0.99285
36.1 0.9929
36.2 0.99295
36.3 0.99305
36.4 0.99305
36.5 0.9931
36.6 0.99325
36.7 0.99325
36.8 0.9933
36.9 0.9934
37 0.9935
37.1 0.9936
37.2 0.99365
37.3 0.9937
37.4 0.9938
37.5 0.9938
37.6 0.99385
37.7 0.9939
37.8 0.99405
37.9 0.9941
38 0.9941
38.1 0.99415
38.2 0.9942
38.3 0.9942
38.4 0.9943
38.5 0.99445
38.6 0.99445
38.7 0.99465
38.8 0.99475
38.9 0.99485
39 0.9949
39.1 0.99505
39.2 0.9951
39.3 0.99515
39.4 0.99525
39.5 0.99535
39.6 0.9955
39.7 0.99555
39.8 0.9956
39.9 0.99565
40 0.9957
40.1 0.9957
40.2 0.9957
40.3 0.99575
40.4 0.9959
40.5 0.9959
40.6 0.9959
40.7 0.9959
40.8 0.99595
40.9 0.99595
41 0.99605
41.1 0.9961
41.2 0.9961
41.3 0.99625
41.4 0.9963
41.5 0.99635
41.6 0.99635
41.7 0.99635
41.8 0.9964
41.9 0.9965
42 0.9965
42.1 0.9966
42.2 0.99665
42.3 0.99675
42.4 0.99685
42.5 0.997
42.6 0.997
42.7 0.997
42.8 0.9971
42.9 0.99715
43 0.9972
43.1 0.99725
43.2 0.99735
43.3 0.99735
43.4 0.99735
43.5 0.99735
43.6 0.99735
43.7 0.99735
43.8 0.99735
43.9 0.99735
44 0.99735
44.1 0.99735
44.2 0.99735
44.3 0.99735
44.4 0.9975
44.5 0.9975
44.6 0.9975
44.7 0.9975
44.8 0.9975
44.9 0.9976
45 0.99765
45.1 0.99765
45.2 0.9977
45.3 0.99775
45.4 0.99785
45.5 0.9979
45.6 0.99795
45.7 0.99795
45.8 0.99795
45.9 0.998
46 0.998
46.1 0.99815
46.2 0.99825
46.3 0.9983
46.4 0.9983
46.5 0.9983
46.6 0.9983
46.7 0.9983
46.8 0.9983
46.9 0.9983
47 0.9983
47.1 0.9984
47.2 0.9984
47.3 0.99845
47.4 0.99845
47.5 0.9985
47.6 0.99855
47.7 0.99855
47.8 0.99855
47.9 0.99855
48 0.9986
48.1 0.9986
48.2 0.9986
48.3 0.9986
48.4 0.9986
48.5 0.9986
48.6 0.9986
48.7 0.9986
48.8 0.9986
48.9 0.99865
49 0.99875
49.1 0.99875
49.2 0.99885
49.3 0.99885
49.4 0.9989
49.5 0.9989
49.6 0.9989
49.7 0.99895
49.8 0.99895
49.9 0.99895
50 0.999
50.1 0.999
50.2 0.999
50.3 0.9991
50.4 0.9991
50.5 0.9991
50.6 0.9991
50.7 0.9991
50.8 0.9991
50.9 0.9991
51 0.9991
51.1 0.9991
51.2 0.9991
51.3 0.9991
51.4 0.9991
51.5 0.9991
51.6 0.9991
51.7 0.9991
51.8 0.9991
51.9 0.9991
52 0.99915
52.1 0.99915
52.2 0.99915
52.3 0.99915
52.4 0.9992
52.5 0.9992
52.6 0.9992
52.7 0.9992
52.8 0.9992
52.9 0.9992
53 0.9992
53.1 0.9993
53.2 0.9993
53.3 0.9993
53.4 0.99935
53.5 0.99935
53.6 0.99935
53.7 0.99935
53.8 0.99935
53.9 0.9994
54 0.9994
54.1 0.9994
54.2 0.9994
54.3 0.9994
54.4 0.9994
54.5 0.9994
54.6 0.9994
54.7 0.9994
54.8 0.99945
54.9 0.99945
55 0.99945
55.1 0.99945
55.2 0.99945
55.3 0.99945
55.4 0.99945
55.5 0.99945
55.6 0.99945
55.7 0.99945
55.8 0.9995
55.9 0.9995
56 0.9995
56.1 0.9995
56.2 0.9995
56.3 0.9995
56.4 0.9995
56.5 0.9995
56.6 0.9995
56.7 0.9995
56.8 0.9995
56.9 0.9995
57 0.9995
57.1 0.9995
57.2 0.9995
57.3 0.9995
57.4 0.9995
57.5 0.9995
57.6 0.9995
57.7 0.9995
57.8 0.99955
57.9 0.99955
58 0.99955
58.1 0.99955
58.2 0.99955
58.3 0.99955
58.4 0.99955
58.5 0.99955
58.6 0.99955
58.7 0.99955
58.8 0.99955
58.9 0.99955
59 0.99955
59.1 0.99955
59.2 0.99955
59.3 0.99955
59.4 0.99955
59.5 0.99955
59.6 0.99955
59.7 0.99955
59.8 0.99955
59.9 0.99955
60 0.99955
60.1 0.99955
60.2 0.99955
60.3 0.99955
60.4 0.99955
60.5 0.99955
60.6 0.99955
60.7 0.99955
60.8 0.99955
60.9 0.99955
61 0.99955
61.1 0.99955
61.2 0.99955
61.3 0.9996
61.4 0.9996
61.5 0.9996
61.6 0.9996
61.7 0.9996
61.8 0.99965
61.9 0.99965
62 0.99965
62.1 0.99965
62.2 0.9997
62.3 0.9997
62.4 0.9997
62.5 0.9997
62.6 0.9997
62.7 0.9997
62.8 0.9997
62.9 0.9997
63 0.9997
63.1 0.9997
63.2 0.9997
63.3 0.9997
63.4 0.9997
63.5 0.9997
63.6 0.9997
63.7 0.9997
63.8 0.9997
63.9 0.9997
64 0.9997
64.1 0.9997
64.2 0.9997
64.3 0.9997
64.4 0.9997
64.5 0.99975
64.6 0.99975
64.7 0.99975
64.8 0.99975
64.9 0.99975
65 0.99975
65.1 0.99975
65.2 0.99975
65.3 0.99975
65.4 0.99975
65.5 0.99975
65.6 0.99975
65.7 0.9998
65.8 0.9998
65.9 0.9998
66 0.9998
66.1 0.9998
66.2 0.9998
66.3 0.9998
66.4 0.99985
66.5 0.99985
66.6 0.99985
66.7 0.9999
66.8 0.9999
66.9 0.9999
67 0.9999
67.1 0.9999
67.2 0.9999
67.3 0.9999
67.4 0.9999
67.5 0.9999
67.6 0.9999
67.7 0.9999
67.8 0.9999
67.9 0.9999
68 0.9999
68.1 0.9999
68.2 0.9999
68.3 0.9999
68.4 0.9999
68.5 0.9999
68.6 0.9999
68.7 0.99995
68.8 0.99995
68.9 0.99995
69 0.99995
69.1 0.99995
69.2 0.99995
69.3 0.99995
69.4 0.99995
69.5 0.99995
69.6 0.99995
69.7 0.99995
69.8 0.99995
69.9 0.99995
70 0.99995
70.1 0.99995
70.2 0.99995
70.3 0.99995
70.4 0.99995
70.5 0.99995
70.6 0.99995
70.7 0.99995
70.8 0.99995
70.9 0.99995
71 0.99995
71.1 0.99995
71.2 0.99995
71.3 0.99995
71.4 0.99995
71.5 0.99995
71.6 0.99995
71.7 0.99995
71.8 0.99995
71.9 0.99995
72 0.99995
72.1 0.99995
72.2 0.99995
72.3 1
0.1 0
0.2 0.00035
0.3 0.0027
0.4 0.0088
0.5 0.017
0.6 0.02825
0.7 0.04055
0.8 0.05215
0.9 0.06455
1 0.0775
1.1 0.08965
1.2 0.10225
1.3 0.1137
1.4 0.1257
1.5 0.1369
1.6 0.1473
1.7 0.1595
1.8 0.1723
1.9 0.18405
2 0.19445
2.1 0.20735
2.2 0.2184
2.3 0.2282
2.4 0.2399
2.5 0.2492
2.6 0.25985
2.7 0.26935
2.8 0.27985
2.9 0.29025
3 0.3005
3.1 0.31025
3.2 0.32
3.3 0.32975
3.4 0.34075
3.5 0.3494
3.6 0.35745
3.7 0.36765
3.8 0.37595
3.9 0.38455
4 0.39365
4.1 0.40235
4.2 0.4096
4.3 0.4181
4.4 0.4271
4.5 0.4354
4.6 0.4437
4.7 0.4502
4.8 0.4588
4.9 0.46625
5 0.4732
5.1 0.4801
5.2 0.48785
5.3 0.49555
5.4 0.503
5.5 0.51
5.6 0.5166
5.7 0.52285
5.8 0.5292
5.9 0.53565
6 0.54295
6.1 0.54905
6.2 0.5555
6.3 0.56205
6.4 0.56765
6.5 0.5733
6.6 0.5792
6.7 0.58455
6.8 0.5902
6.9 0.5962
7 0.60235
7.1 0.6073
7.2 0.61335
7.3 0.61775
7.4 0.6239
7.5 0.62845
7.6 0.6326
7.7 0.6376
7.8 0.64255
7.9 0.64775
8 0.6519
8.1 0.65745
8.2 0.66235
8.3 0.66755
8.4 0.67205
8.5 0.6764
8.6 0.68065
8.7 0.6859
8.8 0.69065
8.9 0.69495
9 0.69905
9.1 0.70325
9.2 0.70745
9.3 0.7112
9.4 0.7154
9.5 0.71955
9.6 0.7234
9.7 0.7275
9.8 0.73045
9.9 0.73415
10 0.7382
10.1 0.7419
10.2 0.7459
10.3 0.74965
10.4 0.7529
10.5 0.7563
10.6 0.7598
10.7 0.76345
10.8 0.7662
10.9 0.76975
11 0.7732
11.1 0.7762
11.2 0.7803
11.3 0.7836
11.4 0.7866
11.5 0.78975
11.6 0.79265
11.7 0.79545
11.8 0.79805
11.9 0.8007
12 0.80335
12.1 0.80605
12.2 0.80925
12.3 0.8113
12.4 0.8138
12.5 0.8163
12.6 0.81865
12.7 0.8211
12.8 0.82385
12.9 0.82655
13 0.8292
13.1 0.83125
13.2 0.83345
13.3 0.8363
13.4 0.83825
13.5 0.8408
13.6 0.8425
13.7 0.84475
13.8 0.8473
13.9 0.84955
14 0.85185
14.1 0.8541
14.2 0.8567
14.3 0.8587
14.4 0.861
14.5 0.8629
14.6 0.86455
14.7 0.86675
14.8 0.8687
14.9 0.8708
15 0.8729
15.1 0.8745
15.2 0.8759
15.3 0.87775
15.4 0.8794
15.5 0.8813
15.6 0.8827
15.7 0.8839
15.8 0.8855
15.9 0.8868
16 0.8882
16.1 0.8895
16.2 0.8909
16.3 0.8922
16.4 0.89365
16.5 0.895
16.6 0.89645
16.7 0.8981
16.8 0.89915
16.9 0.9007
17 0.9021
17.1 0.9035
17.2 0.9049
17.3 0.9061
17.4 0.9074
17.5 0.9091
17.6 0.91045
17.7 0.9117
17.8 0.9128
17.9 0.91425
18 0.91535
18.1 0.91625
18.2 0.9174
18.3 0.91925
18.4 0.9202
18.5 0.92145
18.6 0.9226
18.7 0.92355
18.8 0.92485
18.9 0.92575
19 0.9269
19.1 0.9278
19.2 0.92875
19.3 0.92955
19.4 0.9303
19.5 0.93105
19.6 0.93235
19.7 0.9329
19.8 0.9337
19.9 0.9344
20 0.93525
20.1 0.93595
20.2 0.9366
20.3 0.9378
20.4 0.93845
20.5 0.93935
20.6 0.9401
20.7 0.94075
20.8 0.9416
20.9 0.9422
21 0.9433
21.1 0.9444
21.2 0.9453
21.3 0.9462
21.4 0.9469
21.5 0.94735
21.6 0.948
21.7 0.949
21.8 0.9496
21.9 0.95075
22 0.95155
22.1 0.95205
22.2 0.9525
22.3 0.95305
22.4 0.95385
22.5 0.95465
22.6 0.9554
22.7 0.9559
22.8 0.95645
22.9 0.95705
23 0.9577
23.1 0.9579
23.2 0.9584
23.3 0.9593
23.4 0.96
23.5 0.96075
23.6 0.9614
23.7 0.96165
23.8 0.96205
23.9 0.9625
24 0.96315
24.1 0.9636
24.2 0.96405
24.3 0.9644
24.4 0.96475
24.5 0.9654
24.6 0.9659
24.7 0.9663
24.8 0.9667
24.9 0.967
25 0.96735
25.1 0.9677
25.2 0.96825
25.3 0.9691
25.4 0.96945
25.5 0.9698
25.6 0.9702
25.7 0.9706
25.8 0.97095
25.9 0.97155
26 0.97195
26.1 0.9722
26.2 0.9725
26.3 0.97295
26.4 0.97325
26.5 0.97365
26.6 0.97405
26.7 0.97455
26.8 0.97485
26.9 0.9753
27 0.9755
27.1 0.9759
27.2 0.9763
27.3 0.9767
27.4 0.9772
27.5 0.97745
27.6 0.978
27.7 0.97845
27.8 0.9787
27.9 0.97885
28 0.9792
28.1 0.97935
28.2 0.9796
28.3 0.97975
28.4 0.97985
28.5 0.98005
28.6 0.98035
28.7 0.98065
28.8 0.9809
28.9 0.9812
29 0.98185
29.1 0.98195
29.2 0.982
29.3 0.98235
29.4 0.98255
29.5 0.9827
29.6 0.98295
29.7 0.9833
29.8 0.98345
29.9 0.9835
30 0.9837
30.1 0.98395
30.2 0.98415
30.3 0.9843
30.4 0.9846
30.5 0.9848
30.6 0.985
30.7 0.9853
30.8 0.98545
30.9 0.9856
31 0.9857
31.1 0.98585
31.2 0.986
31.3 0.98615
31.4 0.98655
31.5 0.98665
31.6 0.987
31.7 0.98725
31.8 0.98735
31.9 0.9876
32 0.9877
32.1 0.9879
32.2 0.9879
32.3 0.98815
32.4 0.98825
32.5 0.9884
32.6 0.9886
32.7 0.98875
32.8 0.9889
32.9 0.98905
33 0.98915
33.1 0.9892
33.2 0.98935
33.3 0.9897
33.4 0.98985
33.5 0.98995
33.6 0.99
33.7 0.99015
33.8 0.9903
33.9 0.9905
34 0.99075
34.1 0.9909
34.2 0.991
34.3 0.9911
34.4 0.9912
34.5 0.9913
34.6 0.99145
34.7 0.9916
34.8 0.9917
34.9 0.99175
35 0.99185
35.1 0.99205
35.2 0.9921
35.3 0.99215
35.4 0.99225
35.5 0.99235
35.6 0.99245
35.7 0.99255
35.8 0.99255
35.9 0.9926
36 0.99275
36.1 0.99285
36.2 0.99295
36.3 0.99305
36.4 0.99325
36.5 0.99345
36.6 0.99355
36.7 0.99355
36.8 0.9936
36.9 0.99365
37 0.99375
37.1 0.9939
37.2 0.9941
37.3 0.9941
37.4 0.99415
37.5 0.9942
37.6 0.9943
37.7 0.99445
37.8 0.99455
37.9 0.9947
38 0.9949
38.1 0.99495
38.2 0.9951
38.3 0.99525
38.4 0.9953
38.5 0.99535
38.6 0.99535
38.7 0.9955
38.8 0.9956
38.9 0.99575
39 0.9958
39.1 0.9959
39.2 0.99595
39.3 0.99605
39.4 0.99605
39.5 0.9962
39.6 0.99625
39.7 0.99635
39.8 0.9964
39.9 0.99645
40 0.99645
40.1 0.99645
40.2 0.99645
40.3 0.99655
40.4 0.99655
40.5 0.9966
40.6 0.99665
40.7 0.9967
40.8 0.99675
40.9 0.99675
41 0.99685
41.1 0.9969
41.2 0.99695
41.3 0.99705
41.4 0.99705
41.5 0.99705
41.6 0.99705
41.7 0.9971
41.8 0.99715
41.9 0.99725
42 0.99725
42.1 0.99735
42.2 0.99745
42.3 0.99745
42.4 0.99745
42.5 0.9975
42.6 0.99755
42.7 0.9976
42.8 0.99775
42.9 0.9978
43 0.9978
43.1 0.9978
43.2 0.9978
43.3 0.99795
43.4 0.99795
43.5 0.99795
43.6 0.99805
43.7 0.99805
43.8 0.99805
43.9 0.99805
44 0.99805
44.1 0.99805
44.2 0.99805
44.3 0.99805
44.4 0.9981
44.5 0.99815
44.6 0.99815
44.7 0.9983
44.8 0.9983
44.9 0.99835
45 0.99835
45.1 0.99835
45.2 0.99835
45.3 0.9984
45.4 0.9985
45.5 0.99855
45.6 0.99855
45.7 0.99855
45.8 0.99855
45.9 0.99855
46 0.99855
46.1 0.99855
46.2 0.99855
46.3 0.99855
46.4 0.99855
46.5 0.99855
46.6 0.9986
46.7 0.9986
46.8 0.9986
46.9 0.9986
47 0.9986
47.1 0.9986
47.2 0.9986
47.3 0.9987
47.4 0.9987
47.5 0.9987
47.6 0.99875
47.7 0.99875
47.8 0.99875
47.9 0.99875
48 0.99875
48.1 0.9988
48.2 0.9988
48.3 0.99885
48.4 0.9989
48.5 0.99895
48.6 0.99895
48.7 0.99895
48.8 0.99895
48.9 0.99895
49 0.99895
49.1 0.99895
49.2 0.999
49.3 0.9991
49.4 0.9991
49.5 0.9991
49.6 0.99915
49.7 0.9992
49.8 0.99925
49.9 0.9993
50 0.9993
50.1 0.9993
50.2 0.9993
50.3 0.9993
50.4 0.9993
50.5 0.9993
50.6 0.9993
50.7 0.99935
50.8 0.99935
50.9 0.99935
51 0.99935
51.1 0.9994
51.2 0.9994
51.3 0.9994
51.4 0.9994
51.5 0.9994
51.6 0.9994
51.7 0.9994
51.8 0.9994
51.9 0.9994
52 0.9994
52.1 0.9994
52.2 0.99945
52.3 0.99945
52.4 0.99945
52.5 0.99945
52.6 0.99945
52.7 0.99945
52.8 0.99945
52.9 0.99945
53 0.99945
53.1 0.99945
53.2 0.99945
53.3 0.99945
53.4 0.99955
53.5 0.99955
53.6 0.99955
53.7 0.99955
53.8 0.99955
53.9 0.99955
54 0.99955
54.1 0.99955
54.2 0.9996
54.3 0.9996
54.4 0.99965
54.5 0.99965
54.6 0.99965
54.7 0.99965
54.8 0.99965
54.9 0.99965
55 0.99965
55.1 0.99965
55.2 0.99965
55.3 0.99965
55.4 0.99965
55.5 0.99965
55.6 0.99965
55.7 0.99965
55.8 0.99965
55.9 0.99965
56 0.99965
56.1 0.9997
56.2 0.9997
56.3 0.9997
56.4 0.9997
56.5 0.9997
56.6 0.9997
56.7 0.9997
56.8 0.9997
56.9 0.9997
57 0.9997
57.1 0.9997
57.2 0.9997
57.3 0.9997
57.4 0.9997
57.5 0.99975
57.6 0.99975
57.7 0.99975
57.8 0.99975
57.9 0.99975
58 0.99975
58.1 0.99975
58.2 0.9998
58.3 0.9998
58.4 0.9998
58.5 0.9998
58.6 0.9998
58.7 0.9998
58.8 0.9998
58.9 0.9998
59 0.9998
59.1 0.9998
59.2 0.9998
59.3 0.9998
59.4 0.9998
59.5 0.9998
59.6 0.9998
59.7 0.9998
59.8 0.9998
59.9 0.99985
60 0.99985
60.1 0.99985
60.2 0.99985
60.3 0.99985
60.4 0.99985
60.5 0.99985
60.6 0.99985
60.7 0.99985
60.8 0.99985
60.9 0.99985
61 0.99985
61.1 0.99985
61.2 0.99985
61.3 0.99985
61.4 0.99985
61.5 0.99985
61.6 0.99985
61.7 0.99985
61.8 0.99985
61.9 0.99985
62 0.99985
62.1 0.99985
62.2 0.99985
62.3 0.99985
62.4 0.99985
62.5 0.99985
62.6 0.99985
62.7 0.9999
62.8 0.9999
62.9 0.9999
63 0.9999
63.1 0.9999
63.2 0.9999
63.3 0.9999
63.4 0.9999
63.5 0.9999
63.6 0.9999
63.7 0.9999
63.8 0.9999
63.9 0.9999
64 0.9999
64.1 0.9999
64.2 0.9999
64.3 0.9999
64.4 0.9999
64.5 0.9999
64.6 0.9999
64.7 0.9999
64.8 0.9999
64.9 0.9999
65 0.9999
65.1 0.9999
65.2 0.9999
65.3 0.9999
65.4 0.9999
65.5 0.9999
65.6 0.9999
65.7 0.9999
65.8 0.9999
65.9 0.9999
66 0.9999
66.1 0.9999
66.2 0.9999
66.3 0.99995
66.4 0.99995
66.5 0.99995
66.6 0.99995
66.7 0.99995
66.8 0.99995
66.9 0.99995
67 0.99995
67.1 0.99995
67.2 0.99995
67.3 0.99995
67.4 0.99995
67.5 0.99995
67.6 0.99995
67.7 0.99995
67.8 0.99995
67.9 0.99995
68 0.99995
68.1 0.99995
68.2 0.99995
68.3 0.99995
68.4 0.99995
68.5 0.99995
68.6 0.99995
68.7 0.99995
68.8 0.99995
68.9 0.99995
69 0.99995
69.1 0.99995
69.2 0.99995
69.3 0.99995
69.4 0.99995
69.5 0.99995
69.6 0.99995
69.7 0.99995
69.8 0.99995
69.9 0.99995
70 0.99995
70.1 0.99995
70.2 0.99995
70.3 0.99995
70.4 0.99995
70.5 0.99995
70.6 0.99995
70.7 0.99995
70.8 0.99995
70.9 0.99995
71 0.99995
71.1 0.99995
71.2 0.99995
71.3 0.99995
71.4 0.99995
71.5 0.99995
71.6 0.99995
71.7 0.99995
71.8 0.99995
71.9 0.99995
72 0.99995
72.1 0.99995
72.2 0.99995
72.3 0.99995
72.4 0.99995
72.5 0.99995
72.6 0.99995
72.7 0.99995
72.8 0.99995
72.9 0.99995
73 0.99995
73.1 0.99995
73.2 0.99995
73.3 0.99995
73.4 0.99995
73.5 0.99995
73.6 0.99995
73.7 0.99995
73.8 0.99995
73.9 0.99995
74 0.99995
74.1 0.99995
74.2 0.99995
74.3 0.99995
74.4 0.99995
74.5 0.99995
74.6 0.99995
74.7 0.99995
74.8 0.99995
74.9 0.99995
75 0.99995
75.1 0.99995
75.2 0.99995
75.3 0.99995
75.4 0.99995
75.5 0.99995
75.6 0.99995
75.7 0.99995
75.8 0.99995
75.9 0.99995
76 0.99995
76.1 0.99995
76.2 0.99995
76.3 0.99995
76.4 0.99995
76.5 0.99995
76.6 0.99995
76.7 0.99995
76.8 0.99995
76.9 0.99995
77 0.99995
77.1 0.99995
77.2 0.99995
77.3 0.99995
77.4 0.99995
77.5 0.99995
77.6 0.99995
77.7 0.99995
77.8 0.99995
77.9 0.99995
78 0.99995
78.1 0.99995
78.2 0.99995
78.3 0.99995
78.4 0.99995
78.5 0.99995
78.6 0.99995
78.7 0.99995
78.8 0.99995
78.9 0.99995
79 0.99995
79.1 0.99995
79.2 0.99995
79.3 0.99995
79.4 0.99995
79.5 0.99995
79.6 0.99995
79.7 0.99995
79.8 0.99995
79.9 0.99995
80 0.99995
80.1 0.99995
80.2 0.99995
80.3 0.99995
80.4 0.99995
80.5 0.99995
80.6 0.99995
80.7 0.99995
80.8 0.99995
80.9 0.99995
81 0.99995
81.1 0.99995
81.2 0.99995
81.3 0.99995
81.4 0.99995
81.5 0.99995
81.6 0.99995
81.7 0.99995
81.8 0.99995
81.9 0.99995
82 0.99995
82.1 0.99995
82.2 0.99995
82.3 0.99995
82.4 0.99995
82.5 0.99995
82.6 0.99995
82.7 0.99995
82.8 0.99995
82.9 0.99995
83 0.99995
83.1 0.99995
83.2 0.99995
83.3 0.99995
83.4 0.99995
83.5 0.99995
83.6 0.99995
83.7 0.99995
83.8 0.99995
83.9 0.99995
84 0.99995
84.1 0.99995
84.2 0.99995
84.3 0.99995
84.4 0.99995
84.5 0.99995
84.6 0.99995
84.7 0.99995
84.8 0.99995
84.9 0.99995
85 0.99995
85.1 0.99995
85.2 0.99995
85.3 0.99995
85.4 0.99995
85.5 0.99995
85.6 0.99995
85.7 0.99995
85.8 0.99995
85.9 0.99995
86 0.99995
86.1 0.99995
86.2 0.99995
86.3 0.99995
86.4 0.99995
86.5 0.99995
86.6 0.99995
86.7 0.99995
86.8 0.99995
86.9 0.99995
87 0.99995
87.1 0.99995
87.2 0.99995
87.3 0.99995
87.4 0.99995
87.5 0.99995
87.6 0.99995
87.7 0.99995
87.8 0.99995
87.9 0.99995
88 0.99995
88.1 0.99995
88.2 0.99995
88.3 0.99995
88.4 0.99995
88.5 0.99995
88.6 0.99995
88.7 0.99995
88.8 0.99995
88.9 0.99995
89 0.99995
89.1 0.99995
89.2 0.99995
89.3 0.99995
89.4 0.99995
89.5 0.99995
89.6 0.99995
89.7 0.99995
89.8 0.99995
89.9 0.99995
90 0.99995
90.1 1
0.1 0
0.2 0.00065
0.3 0.0032
0.4 0.0085
0.5 0.01585
0.6 0.0259
0.7 0.03665
0.8 0.0495
0.9 0.06135
1 0.07425
1.1 0.0863
1.2 0.0995
1.3 0.1134
1.4 0.1256
1.5 0.13765
1.6 0.14875
1.7 0.1609
1.8 0.1725
1.9 0.18295
2 0.19375
2.1 0.20525
2.2 0.21565
2.3 0.2256
2.4 0.23595
2.5 0.24665
2.6 0.25625
2.7 0.26745
2.8 0.2778
2.9 0.2896
3 0.29875
3.1 0.30955
3.2 0.31925
3.3 0.32875
3.4 0.3386
3.5 0.34805
3.6 0.3573
3.7 0.36485
3.8 0.37315
3.9 0.3809
4 0.3881
4.1 0.39675
4.2 0.40415
4.3 0.4117
4.4 0.41955
4.5 0.42775
4.6 0.43485
4.7 0.44325
4.8 0.45145
4.9 0.45825
5 0.4667
5.1 0.4747
5.2 0.48155
5.3 0.4895
5.4 0.49735
5.5 0.505
5.6 0.51165
5.7 0.51825
5.8 0.5249
5.9 0.5322
6 0.5395
6.1 0.54665
6.2 0.5538
6.3 0.55885
6.4 0.56485
6.5 0.5718
6.6 0.5783
6.7 0.5837
6.8 0.5893
6.9 0.5942
7 0.5999
7.1 0.6052
7.2 0.6105
7.3 0.6156
7.4 0.62085
7.5 0.6263
7.6 0.6317
7.7 0.6366
7.8 0.6417
7.9 0.6469
8 0.6518
8.1 0.656
8.2 0.65995
8.3 0.66455
8.4 0.6689
8.5 0.6736
8.6 0.679
8.7 0.6834
8.8 0.6881
8.9 0.69255
9 0.6972
9.1 0.701
9.2 0.7048
9.3 0.7089
9.4 0.71265
9.5 0.71665
9.6 0.72125
9.7 0.7248
9.8 0.7282
9.9 0.73215
10 0.7368
10.1 0.741
10.2 0.74435
10.3 0.7481
10.4 0.7524
10.5 0.75625
10.6 0.76015
10.7 0.76355
10.8 0.76625
10.9 0.7686
11 0.7719
11.1 0.775
11.2 0.77755
11.3 0.7809
11.4 0.78445
11.5 0.78725
11.6 0.7904
11.7 0.794
11.8 0.7965
11.9 0.7991
12 0.802
12.1 0.80495
12.2 0.8076
12.3 0.81035
12.4 0.81305
12.5 0.81575
12.6 0.8184
12.7 0.8209
12.8 0.82375
12.9 0.82645
13 0.82905
13.1 0.8314
13.2 0.83385
13.3 0.836
13.4 0.83835
13.5 0.84065
13.6 0.8434
13.7 0.8455
13.8 0.84745
13.9 0.8496
14 0.85195
14.1 0.8544
14.2 0.85645
14.3 0.85845
14.4 0.86045
14.5 0.86215
14.6 0.864
14.7 0.86615
14.8 0.86815
14.9 0.8701
15 0.8721
15.1 0.87375
15.2 0.8759
15.3 0.87765
15.4 0.87905
15.5 0.88025
15.6 0.88265
15.7 0.8848
15.8 0.88615
15.9 0.88755
16 0.88905
16.1 0.89045
16.2 0.89215
16.3 0.89375
16.4 0.89565
16.5 0.8966
16.6 0.89765
16.7 0.8992
16.8 0.90055
16.9 0.9018
17 0.903
17.1 0.90465
17.2 0.9061
17.3 0.90735
17.4 0.9089
17.5 0.9098
17.6 0.91085
17.7 0.91195
17.8 0.91325
17.9 0.9145
18 0.91595
18.1 0.917
18.2 0.918
18.3 0.91905
18.4 0.9201
18.5 0.92105
18.6 0.92235
18.7 0.9234
18.8 0.92445
18.9 0.926
19 0.92705
19.1 0.9282
19.2 0.92935
19.3 0.93085
19.4 0.93175
19.5 0.9328
19.6 0.93355
19.7 0.9345
19.8 0.93555
19.9 0.9364
20 0.9375
20.1 0.93815
20.2 0.9394
20.3 0.94045
20.4 0.94155
20.5 0.94225
20.6 0.9432
20.7 0.944
20.8 0.94475
20.9 0.94565
21 0.94635
21.1 0.9472
21.2 0.94785
21.3 0.94875
21.4 0.94945
21.5 0.9502
21.6 0.95115
21.7 0.95155
21.8 0.95235
21.9 0.9529
22 0.9536
22.1 0.95435
22.2 0.95495
22.3 0.95555
22.4 0.95625
22.5 0.9569
22.6 0.9573
22.7 0.9578
22.8 0.9584
22.9 0.95885
23 0.9595
23.1 0.95995
23.2 0.96065
23.3 0.961
23.4 0.9615
23.5 0.9621
23.6 0.9627
23.7 0.96355
23.8 0.96405
23.9 0.9647
24 0.96505
24.1 0.96535
24.2 0.96585
24.3 0.9662
24.4 0.96665
24.5 0.9672
24.6 0.9677
24.7 0.96815
24.8 0.96845
24.9 0.9692
25 0.96955
25.1 0.97035
25.2 0.9709
25.3 0.9712
25.4 0.9718
25.5 0.9722
25.6 0.9725
25.7 0.97285
25.8 0.9732
25.9 0.9735
26 0.97365
26.1 0.9742
26.2 0.97445
26.3 0.97475
26.4 0.9753
26.5 0.9756
26.6 0.97615
26.7 0.9765
26.8 0.97675
26.9 0.97705
27 0.97755
27.1 0.97795
27.2 0.97835
27.3 0.9785
27.4 0.97885
27.5 0.9791
27.6 0.97925
27.7 0.9795
27.8 0.9797
27.9 0.9801
28 0.9806
28.1 0.98085
28.2 0.9812
28.3 0.98145
28.4 0.98165
28.5 0.9818
28.6 0.982
28.7 0.98225
28.8 0.98265
28.9 0.983
29 0.98325
29.1 0.98365
29.2 0.9839
29.3 0.9839
29.4 0.98445
29.5 0.9847
29.6 0.9849
29.7 0.985
29.8 0.9852
29.9 0.98555
30 0.98575
30.1 0.9861
30.2 0.9862
30.3 0.98645
30.4 0.9867
30.5 0.98685
30.6 0.98705
30.7 0.98725
30.8 0.9875
30.9 0.9876
31 0.98805
31.1 0.9881
31.2 0.9883
31.3 0.9886
31.4 0.9887
31.5 0.9889
31.6 0.98905
31.7 0.9892
31.8 0.9894
31.9 0.9895
32 0.9897
32.1 0.9897
32.2 0.98975
32.3 0.98975
32.4 0.98985
32.5 0.99
32.6 0.99005
32.7 0.99025
32.8 0.99035
32.9 0.99035
33 0.99045
33.1 0.99045
33.2 0.9905
33.3 0.9906
33.4 0.9908
33.5 0.99105
33.6 0.9911
33.7 0.99115
33.8 0.99125
33.9 0.99145
34 0.9916
34.1 0.99165
34.2 0.99175
34.3 0.99175
34.4 0.9918
34.5 0.99195
34.6 0.99215
34.7 0.9922
34.8 0.9923
34.9 0.99255
35 0.99255
35.1 0.99255
35.2 0.99265
35.3 0.9928
35.4 0.99295
35.5 0.99315
35.6 0.99325
35.7 0.99345
35.8 0.99355
35.9 0.9936
36 0.9936
36.1 0.9937
36.2 0.9938
36.3 0.994
36.4 0.994
36.5 0.994
36.6 0.99415
36.7 0.9942
36.8 0.9943
36.9 0.9944
37 0.9945
37.1 0.99455
37.2 0.99455
37.3 0.9946
37.4 0.9947
37.5 0.9947
37.6 0.9947
37.7 0.9948
37.8 0.9948
37.9 0.99495
38 0.99505
38.1 0.99515
38.2 0.9952
38.3 0.99525
38.4 0.9953
38.5 0.9954
38.6 0.99545
38.7 0.99555
38.8 0.99555
38.9 0.99575
39 0.99575
39.1 0.9958
39.2 0.99585
39.3 0.99605
39.4 0.99615
39.5 0.99615
39.6 0.9962
39.7 0.9964
39.8 0.9965
39.9 0.9965
40 0.9965
40.1 0.9965
40.2 0.9965
40.3 0.99655
40.4 0.99655
40.5 0.99665
40.6 0.99665
40.7 0.9967
40.8 0.99675
40.9 0.99675
41 0.9968
41.1 0.9968
41.2 0.9968
41.3 0.9968
41.4 0.9968
41.5 0.9969
41.6 0.99695
41.7 0.997
41.8 0.9971
41.9 0.9972
42 0.9972
42.1 0.9972
42.2 0.9972
42.3 0.9972
42.4 0.9972
42.5 0.99725
42.6 0.9973
42.7 0.99735
42.8 0.9974
42.9 0.99745
43 0.99745
43.1 0.9975
43.2 0.99755
43.3 0.99755
43.4 0.99755
43.5 0.9976
43.6 0.9976
43.7 0.9976
43.8 0.9976
43.9 0.9976
44 0.9977
44.1 0.9977
44.2 0.99775
44.3 0.99785
44.4 0.99785
44.5 0.9979
44.6 0.99795
44.7 0.99795
44.8 0.998
44.9 0.9981
45 0.9981
45.1 0.99815
45.2 0.99815
45.3 0.99815
45.4 0.9982
45.5 0.9982
45.6 0.9982
45.7 0.9982
45.8 0.9982
45.9 0.9982
46 0.99835
46.1 0.99835
46.2 0.99835
46.3 0.9984
46.4 0.9984
46.5 0.99845
46.6 0.99845
46.7 0.9985
46.8 0.99855
46.9 0.99855
47 0.9986
47.1 0.9986
47.2 0.9987
47.3 0.9987
47.4 0.99875
47.5 0.99875
47.6 0.9988
47.7 0.9988
47.8 0.9988
47.9 0.9988
48 0.9988
48.1 0.99885
48.2 0.99885
48.3 0.9989
48.4 0.99895
48.5 0.99895
48.6 0.999
48.7 0.99905
48.8 0.99905
48.9 0.99905
49 0.9991
49.1 0.9991
49.2 0.9991
49.3 0.9991
49.4 0.99915
49.5 0.99915
49.6 0.99915
49.7 0.99915
49.8 0.9992
49.9 0.9992
50 0.9992
50.1 0.9992
50.2 0.9992
50.3 0.99925
50.4 0.99925
50.5 0.99925
50.6 0.99925
50.7 0.9993
50.8 0.9993
50.9 0.9993
51 0.9993
51.1 0.9993
51.2 0.9993
51.3 0.9993
51.4 0.9993
51.5 0.9993
51.6 0.9993
51.7 0.9993
51.8 0.9993
51.9 0.9993
52 0.9993
52.1 0.9993
52.2 0.9993
52.3 0.99935
52.4 0.99935
52.5 0.99935
52.6 0.9994
52.7 0.9994
52.8 0.9994
52.9 0.9994
53 0.9994
53.1 0.9994
53.2 0.9994
53.3 0.99945
53.4 0.99945
53.5 0.99945
53.6 0.99945
53.7 0.99945
53.8 0.99945
53.9 0.99945
54 0.99945
54.1 0.99945
54.2 0.9995
54.3 0.9995
54.4 0.9995
54.5 0.9995
54.6 0.9995
54.7 0.99955
54.8 0.99955
54.9 0.99955
55 0.99955
55.1 0.99955
55.2 0.99955
55.3 0.99955
55.4 0.99955
55.5 0.99955
55.6 0.99955
55.7 0.99955
55.8 0.99955
55.9 0.99955
56 0.99955
56.1 0.99955
56.2 0.99955
56.3 0.99955
56.4 0.99955
56.5 0.99955
56.6 0.99955
56.7 0.99955
56.8 0.99955
56.9 0.99955
57 0.99955
57.1 0.99955
57.2 0.99955
57.3 0.9996
57.4 0.9996
57.5 0.9996
57.6 0.9996
57.7 0.9996
57.8 0.9996
57.9 0.9996
58 0.9996
58.1 0.9996
58.2 0.9996
58.3 0.9996
58.4 0.9996
58.5 0.9996
58.6 0.9996
58.7 0.9996
58.8 0.9996
58.9 0.9996
59 0.9996
59.1 0.9996
59.2 0.9996
59.3 0.9996
59.4 0.9996
59.5 0.99965
59.6 0.99965
59.7 0.99965
59.8 0.99965
59.9 0.99965
60 0.99965
60.1 0.99965
60.2 0.99965
60.3 0.99965
60.4 0.99965
60.5 0.99965
60.6 0.99965
60.7 0.99965
60.8 0.99965
60.9 0.99965
61 0.9997
61.1 0.9997
61.2 0.9997
61.3 0.9997
61.4 0.9997
61.5 0.9997
61.6 0.9997
61.7 0.9997
61.8 0.9997
61.9 0.9997
62 0.9997
62.1 0.9997
62.2 0.9997
62.3 0.9997
62.4 0.9997
62.5 0.9997
62.6 0.9997
62.7 0.9997
62.8 0.9997
62.9 0.9997
63 0.9997
63.1 0.9997
63.2 0.9997
63.3 0.9997
63.4 0.9997
63.5 0.9997
63.6 0.9997
63.7 0.9997
63.8 0.9997
63.9 0.9997
64 0.9997
64.1 0.9997
64.2 0.9997
64.3 0.99975
64.4 0.99975
64.5 0.99975
64.6 0.99975
64.7 0.99975
64.8 0.99975
64.9 0.99975
65 0.99975
65.1 0.99975
65.2 0.99975
65.3 0.99975
65.4 0.99975
65.5 0.9998
65.6 0.9998
65.7 0.9998
65.8 0.9998
65.9 0.9998
66 0.9998
66.1 0.9998
66.2 0.9998
66.3 0.9998
66.4 0.9998
66.5 0.9998
66.6 0.9998
66.7 0.9998
66.8 0.9998
66.9 0.9998
67 0.9998
67.1 0.9998
67.2 0.9998
67.3 0.9998
67.4 0.9998
67.5 0.9998
67.6 0.9998
67.7 0.9998
67.8 0.9998
67.9 0.9998
68 0.99985
68.1 0.99985
68.2 0.99985
68.3 0.99985
68.4 0.99985
68.5 0.99985
68.6 0.99985
68.7 0.99985
68.8 0.99985
68.9 0.99985
69 0.99985
69.1 0.99985
69.2 0.9999
69.3 0.9999
69.4 0.9999
69.5 0.9999
69.6 0.9999
69.7 0.9999
69.8 0.9999
69.9 0.9999
70 0.9999
70.1 0.9999
70.2 0.9999
70.3 0.9999
70.4 0.9999
70.5 0.9999
70.6 0.9999
70.7 0.9999
70.8 0.9999
70.9 0.9999
71 0.9999
71.1 0.9999
71.2 0.9999
71.3 0.9999
71.4 0.9999
71.5 0.9999
71.6 0.9999
71.7 0.9999
71.8 0.9999
71.9 0.9999
72 0.99995
72.1 0.99995
72.2 0.99995
72.3 0.99995
72.4 0.99995
72.5 0.99995
72.6 0.99995
72.7 0.99995
72.8 0.99995
72.9 0.99995
73 0.99995
73.1 0.99995
73.2 0.99995
73.3 0.99995
73.4 0.99995
73.5 0.99995
73.6 0.99995
73.7 0.99995
73.8 0.99995
73.9 0.99995
74 0.99995
74.1 0.99995
74.2 0.99995
74.3 0.99995
74.4 0.99995
74.5 0.99995
74.6 0.99995
74.7 0.99995
74.8 0.99995
74.9 0.99995
75 0.99995
75.1 0.99995
75.2 0.99995
75.3 0.99995
75.4 0.99995
75.5 0.99995
75.6 0.99995
75.7 0.99995
75.8 0.99995
75.9 0.99995
76 0.99995
76.1 0.99995
76.2 0.99995
76.3 0.99995
76.4 0.99995
76.5 0.99995
76.6 1
0.1 0
0.2 0.0003
0.3 0.0027
0.4 0.0075
0.5 0.0168
0.6 0.0272
0.7 0.037
0.8 0.0484
0.9 0.0605
1 0.07405
1.1 0.08715
1.2 0.09905
1.3 0.1107
1.4 0.12355
1.5 0.1371
1.6 0.1498
1.7 0.1617
1.8 0.17415
1.9 0.18495
2 0.1958
2.1 0.2074
2.2 0.21815
2.3 0.22895
2.4 0.23935
2.5 0.25035
2.6 0.26045
2.7 0.26985
2.8 0.27875
2.9 0.2906
3 0.30165
3.1 0.3109
3.2 0.3213
3.3 0.3312
3.4 0.34165
3.5 0.35025
3.6 0.3587
3.7 0.3667
3.8 0.3764
3.9 0.3861
4 0.39405
4.1 0.40135
4.2 0.40955
4.3 0.41825
4.4 0.4251
4.5 0.43385
4.6 0.4414
4.7 0.44955
4.8 0.457
4.9 0.4659
5 0.47335
5.1 0.4809
5.2 0.48845
5.3 0.49545
5.4 0.50285
5.5 0.5092
5.6 0.51575
5.7 0.52195
5.8 0.52845
5.9 0.5361
6 0.54155
6.1 0.5479
6.2 0.554
6.3 0.56
6.4 0.56575
6.5 0.57075
6.6 0.5768
6.7 0.5834
6.8 0.58835
6.9 0.5935
7 0.59945
7.1 0.60465
7.2 0.6094
7.3 0.61535
7.4 0.62045
7.5 0.6257
7.6 0.63075
7.7 0.63625
7.8 0.6422
7.9 0.64805
8 0.6525
8.1 0.6572
8.2 0.66265
8.3 0.66755
8.4 0.67235
8.5 0.6774
8.6 0.6824
8.7 0.68785
8.8 0.69215
8.9 0.6968
9 0.7009
9.1 0.7049
9.2 0.70905
9.3 0.7147
9.4 0.7178
9.5 0.72175
9.6 0.7262
9.7 0.7294
9.8 0.7335
9.9 0.73685
10 0.73985
10.1 0.74315
10.2 0.74655
10.3 0.7507
10.4 0.7547
10.5 0.7586
10.6 0.7616
10.7 0.7649
10.8 0.768
10.9 0.7705
11 0.7738
11.1 0.7768
11.2 0.7791
11.3 0.7818
11.4 0.7849
11.5 0.78785
11.6 0.7902
11.7 0.7931
11.8 0.796
11.9 0.79895
12 0.80235
12.1 0.8048
12.2 0.80715
12.3 0.8092
12.4 0.81185
12.5 0.81425
12.6 0.8172
12.7 0.81975
12.8 0.8223
12.9 0.8253
13 0.8276
13.1 0.8296
13.2 0.83155
13.3 0.83405
13.4 0.8359
13.5 0.83825
13.6 0.8403
13.7 0.84205
13.8 0.84445
13.9 0.8467
14 0.84865
14.1 0.85075
14.2 0.85265
14.3 0.85475
14.4 0.85685
14.5 0.85905
14.6 0.86125
14.7 0.8637
14.8 0.8662
14.9 0.8683
15 0.8701
15.1 0.87155
15.2 0.87305
15.3 0.8752
15.4 0.87715
15.5 0.8788
15.6 0.8807
15.7 0.8822
15.8 0.8836
15.9 0.8851
16 0.88625
16.1 0.88815
16.2 0.89
16.3 0.892
16.4 0.89415
16.5 0.8961
16.6 0.89815
16.7 0.8996
16.8 0.90075
16.9 0.90195
17 0.9029
17.1 0.90435
17.2 0.90585
17.3 0.9069
17.4 0.9084
17.5 0.90985
17.6 0.91115
17.7 0.91215
17.8 0.91285
17.9 0.9138
18 0.9153
18.1 0.91655
18.2 0.9175
18.3 0.9185
18.4 0.9197
18.5 0.92105
18.6 0.9224
18.7 0.92345
18.8 0.92455
18.9 0.92595
19 0.9267
19.1 0.92755
19.2 0.92835
19.3 0.9295
19.4 0.9307
19.5 0.93165
19.6 0.9329
19.7 0.9338
19.8 0.9348
19.9 0.93595
20 0.93665
20.1 0.93745
20.2 0.93835
20.3 0.9391
20.4 0.93985
20.5 0.9407
20.6 0.9413
20.7 0.94215
20.8 0.94315
20.9 0.9437
21 0.94435
21.1 0.94535
21.2 0.9459
21.3 0.94695
21.4 0.94745
21.5 0.9484
21.6 0.94915
21.7 0.94975
21.8 0.95045
21.9 0.9513
22 0.95185
22.1 0.95275
22.2 0.95365
22.3 0.95445
22.4 0.9551
22.5 0.9559
22.6 0.9564
22.7 0.95675
22.8 0.9575
22.9 0.9579
23 0.95855
23.1 0.9592
23.2 0.95975
23.3 0.96045
23.4 0.96105
23.5 0.9617
23.6 0.9622
23.7 0.9626
23.8 0.96315
23.9 0.96365
24 0.96415
24.1 0.96455
24.2 0.96525
24.3 0.96575
24.4 0.96625
24.5 0.9666
24.6 0.9671
24.7 0.9674
24.8 0.9679
24.9 0.96875
25 0.96945
25.1 0.9697
25.2 0.97
25.3 0.9703
25.4 0.9706
25.5 0.9709
25.6 0.97175
25.7 0.97205
25.8 0.9725
25.9 0.97275
26 0.97295
26.1 0.97355
26.2 0.9738
26.3 0.97425
26.4 0.97445
26.5 0.97465
26.6 0.97505
26.7 0.97525
26.8 0.97575
26.9 0.976
27 0.97605
27.1 0.97645
27.2 0.9768
27.3 0.977
27.4 0.9771
27.5 0.97745
27.6 0.97785
27.7 0.97795
27.8 0.97825
27.9 0.97855
28 0.97885
28.1 0.9791
28.2 0.97935
28.3 0.97955
28.4 0.97985
28.5 0.9801
28.6 0.9803
28.7 0.9805
28.8 0.98055
28.9 0.9808
29 0.98115
29.1 0.9813
29.2 0.9816
29.3 0.9817
29.4 0.9819
29.5 0.9822
29.6 0.98245
29.7 0.9827
29.8 0.98305
29.9 0.9832
30 0.98345
30.1 0.98345
30.2 0.98375
30.3 0.98405
30.4 0.98415
30.5 0.9843
30.6 0.98445
30.7 0.9846
30.8 0.9847
30.9 0.9849
31 0.9851
31.1 0.9853
31.2 0.9857
31.3 0.9859
31.4 0.98595
31.5 0.9861
31.6 0.98645
31.7 0.9865
31.8 0.98665
31.9 0.98685
32 0.9869
32.1 0.9872
32.2 0.9874
32.3 0.98765
32.4 0.98785
32.5 0.98795
32.6 0.9882
32.7 0.9885
32.8 0.98865
32.9 0.989
33 0.98915
33.1 0.9893
33.2 0.98935
33.3 0.9894
33.4 0.9897
33.5 0.98975
33.6 0.98985
33.7 0.9899
33.8 0.99
33.9 0.99005
34 0.99005
34.1 0.9904
34.2 0.99055
34.3 0.9906
34.4 0.99065
34.5 0.9908
34.6 0.9909
34.7 0.9911
34.8 0.99125
34.9 0.99155
35 0.9917
35.1 0.99175
35.2 0.99175
35.3 0.9918
35.4 0.992
35.5 0.99205
35.6 0.99215
35.7 0.9922
35.8 0.99235
35.9 0.99245
36 0.99255
36.1 0.9927
36.2 0.99285
36.3 0.99295
36.4 0.993
36.5 0.99305
36.6 0.9931
36.7 0.99315
36.8 0.99315
36.9 0.9933
37 0.99335
37.1 0.99345
37.2 0.9936
37.3 0.9939
37.4 0.99395
37.5 0.994
37.6 0.99405
37.7 0.99405
37.8 0.99415
37.9 0.9942
38 0.9943
38.1 0.9944
38.2 0.99455
38.3 0.9946
38.4 0.99465
38.5 0.9948
38.6 0.9949
38.7 0.99495
38.8 0.995
38.9 0.99515
39 0.9952
39.1 0.99525
39.2 0.9954
39.3 0.9955
39.4 0.9955
39.5 0.99555
39.6 0.9956
39.7 0.9956
39.8 0.9956
39.9 0.99565
40 0.9957
40.1 0.99575
40.2 0.9958
40.3 0.9958
40.4 0.9959
40.5 0.99595
40.6 0.99595
40.7 0.996
40.8 0.99605
40.9 0.99615
41 0.99615
41.1 0.99615
41.2 0.99615
41.3 0.9962
41.4 0.9963
41.5 0.9963
41.6 0.99635
41.7 0.99635
41.8 0.9964
41.9 0.9965
42 0.9965
42.1 0.99655
42.2 0.9967
42.3 0.9968
42.4 0.99685
42.5 0.9969
42.6 0.99695
42.7 0.997
42.8 0.99715
42.9 0.9972
43 0.9973
43.1 0.99735
43.2 0.99735
43.3 0.99745
43.4 0.99745
43.5 0.99745
43.6 0.9975
43.7 0.9976
43.8 0.9976
43.9 0.9976
44 0.9976
44.1 0.99765
44.2 0.99765
44.3 0.99765
44.4 0.9978
44.5 0.9978
44.6 0.9979
44.7 0.99795
44.8 0.99795
44.9 0.99795
45 0.99805
45.1 0.9981
45.2 0.9981
45.3 0.9981
45.4 0.9981
45.5 0.9981
45.6 0.99815
45.7 0.9982
45.8 0.9982
45.9 0.99825
46 0.9983
46.1 0.9983
46.2 0.9983
46.3 0.99835
46.4 0.9984
46.5 0.9984
46.6 0.9984
46.7 0.99845
46.8 0.9985
46.9 0.99855
47 0.99855
47.1 0.99855
47.2 0.99855
47.3 0.99855
47.4 0.9986
47.5 0.9986
47.6 0.99865
47.7 0.99875
47.8 0.99875
47.9 0.99875
48 0.99875
48.1 0.99875
48.2 0.9988
48.3 0.9988
48.4 0.9988
48.5 0.9988
48.6 0.9988
48.7 0.9988
48.8 0.9988
48.9 0.9988
49 0.9988
49.1 0.9988
49.2 0.99885
49.3 0.99895
49.4 0.99895
49.5 0.99895
49.6 0.99895
49.7 0.99895
49.8 0.99895
49.9 0.99895
50 0.99895
50.1 0.99895
50.2 0.99895
50.3 0.99895
50.4 0.99895
50.5 0.99895
50.6 0.99895
50.7 0.99895
50.8 0.99895
50.9 0.99895
51 0.999
51.1 0.999
51.2 0.999
51.3 0.999
51.4 0.999
51.5 0.999
51.6 0.999
51.7 0.99905
51.8 0.99905
51.9 0.9991
52 0.9991
52.1 0.9991
52.2 0.9991
52.3 0.9991
52.4 0.9991
52.5 0.9991
52.6 0.9991
52.7 0.9991
52.8 0.99915
52.9 0.9992
53 0.9992
53.1 0.9992
53.2 0.9992
53.3 0.99925
53.4 0.99925
53.5 0.9993
53.6 0.9993
53.7 0.9993
53.8 0.9993
53.9 0.9993
54 0.9993
54.1 0.9993
54.2 0.99935
54.3 0.99935
54.4 0.99935
54.5 0.99935
54.6 0.99935
54.7 0.99935
54.8 0.99935
54.9 0.99935
55 0.99935
55.1 0.9994
55.2 0.9994
55.3 0.9994
55.4 0.9994
55.5 0.9994
55.6 0.99945
55.7 0.99945
55.8 0.99945
55.9 0.99945
56 0.99945
56.1 0.99945
56.2 0.99945
56.3 0.99945
56.4 0.99945
56.5 0.99945
56.6 0.99945
56.7 0.99945
56.8 0.99945
56.9 0.9995
57 0.9995
57.1 0.9995
57.2 0.9995
57.3 0.9995
57.4 0.9995
57.5 0.9995
57.6 0.99955
57.7 0.99955
57.8 0.99955
57.9 0.99955
58 0.99955
58.1 0.99955
58.2 0.99955
58.3 0.99955
58.4 0.99955
58.5 0.99955
58.6 0.99955
58.7 0.99955
58.8 0.99955
58.9 0.9996
59 0.9996
59.1 0.9996
59.2 0.9996
59.3 0.9996
59.4 0.9996
59.5 0.9996
59.6 0.9996
59.7 0.99965
59.8 0.99965
59.9 0.99965
60 0.99965
60.1 0.99965
60.2 0.99965
60.3 0.99965
60.4 0.99965
60.5 0.9997
60.6 0.9997
60.7 0.9997
60.8 0.9997
60.9 0.9997
61 0.9997
61.1 0.9997
61.2 0.9997
61.3 0.9997
61.4 0.9997
61.5 0.9997
61.6 0.9997
61.7 0.9997
61.8 0.9997
61.9 0.99975
62 0.99975
62.1 0.99975
62.2 0.99975
62.3 0.99975
62.4 0.99975
62.5 0.99975
62.6 0.99975
62.7 0.99975
62.8 0.99975
62.9 0.99975
63 0.9998
63.1 0.9998
63.2 0.9998
63.3 0.9998
63.4 0.9998
63.5 0.9998
63.6 0.9998
63.7 0.9998
63.8 0.9998
63.9 0.9998
64 0.9998
64.1 0.9998
64.2 0.9998
64.3 0.9998
64.4 0.9998
64.5 0.9998
64.6 0.99985
64.7 0.99985
64.8 0.99985
64.9 0.99985
65 0.99985
65.1 0.99985
65.2 0.99985
65.3 0.99985
65.4 0.99985
65.5 0.99985
65.6 0.99985
65.7 0.99985
65.8 0.99985
65.9 0.99985
66 0.99985
66.1 0.99985
66.2 0.99985
66.3 0.99985
66.4 0.99985
66.5 0.99985
66.6 0.99985
66.7 0.99985
66.8 0.99985
66.9 0.99985
67 0.99985
67.1 0.99985
67.2 0.99985
67.3 0.99985
67.4 0.99985
67.5 0.99985
67.6 0.99985
67.7 0.99985
67.8 0.99985
67.9 0.99985
68 0.99985
68.1 0.99985
68.2 0.99985
68.3 0.99985
68.4 0.99985
68.5 0.99985
68.6 0.99985
68.7 0.99985
68.8 0.99985
68.9 0.99985
69 0.99985
69.1 0.99985
69.2 0.99985
69.3 0.99985
69.4 0.99985
69.5 0.99985
69.6 0.99985
69.7 0.99985
69.8 0.99985
69.9 0.99985
70 0.99985
70.1 0.99985
70.2 0.99985
70.3 0.99985
70.4 0.99985
70.5 0.99985
70.6 0.99985
70.7 0.99985
70.8 0.99985
70.9 0.99985
71 0.99985
71.1 0.99985
71.2 0.99985
71.3 0.99985
71.4 0.99985
71.5 0.99985
71.6 0.99985
71.7 0.99985
71.8 0.99985
71.9 0.99985
72 0.99985
72.1 0.99985
72.2 0.99985
72.3 0.99985
72.4 0.99985
72.5 0.99985
72.6 0.99985
72.7 0.99985
72.8 0.99985
72.9 0.99985
73 0.99985
73.1 0.99985
73.2 0.99985
73.3 0.99985
73.4 0.99985
73.5 0.99985
73.6 0.99985
73.7 0.99985
73.8 0.99985
73.9 0.99985
74 0.99985
74.1 0.99985
74.2 0.99985
74.3 0.99985
74.4 0.99985
74.5 0.99985
74.6 0.99985
74.7 0.99985
74.8 0.99985
74.9 0.99985
75 0.99985
75.1 0.99985
75.2 0.99985
75.3 0.99985
75.4 0.99985
75.5 0.99985
75.6 0.99985
75.7 0.99985
75.8 0.9999
75.9 0.9999
76 0.9999
76.1 0.9999
76.2 0.9999
76.3 0.9999
76.4 0.9999
76.5 0.9999
76.6 0.9999
76.7 0.9999
76.8 0.9999
76.9 0.9999
77 0.9999
77.1 0.9999
77.2 0.9999
77.3 0.9999
77.4 0.9999
77.5 0.9999
77.6 0.9999
77.7 0.9999
77.8 0.9999
77.9 0.9999
78 0.9999
78.1 0.9999
78.2 0.9999
78.3 0.9999
78.4 0.9999
78.5 0.9999
78.6 0.9999
78.7 0.9999
78.8 0.9999
78.9 0.9999
79 0.9999
79.1 0.9999
79.2 0.9999
79.3 0.9999
79.4 0.9999
79.5 0.9999
79.6 0.9999
79.7 0.9999
79.8 0.9999
79.9 0.9999
80 0.9999
80.1 0.9999
80.2 0.9999
80.3 0.9999
80.4 0.9999
80.5 0.9999
80.6 0.9999
80.7 0.99995
80.8 0.99995
80.9 0.99995
81 0.99995
81.1 0.99995
81.2 0.99995
81.3 0.99995
81.4 0.99995
81.5 0.99995
81.6 0.99995
81.7 0.99995
81.8 0.99995
81.9 0.99995
82 0.99995
82.1 0.99995
82.2 0.99995
82.3 0.99995
82.4 0.99995
82.5 0.99995
82.6 0.99995
82.7 0.99995
82.8 0.99995
82.9 0.99995
83 0.99995
83.1 0.99995
83.2 0.99995
83.3 0.99995
83.4 0.99995
83.5 0.99995
83.6 0.99995
83.7 0.99995
83.8 0.99995
83.9 0.99995
84 0.99995
84.1 0.99995
84.2 0.99995
84.3 0.99995
84.4 0.99995
84.5 0.99995
84.6 0.99995
84.7 0.99995
84.8 0.99995
84.9 0.99995
85 0.99995
85.1 0.99995
85.2 0.99995
85.3 0.99995
85.4 1
0.1 0
0.2 0.0005
0.3 0.00315
0.4 0.0086
0.5 0.01635
0.6 0.02765
0.7 0.0389
0.8 0.0499
0.9 0.0626
1 0.07575
1.1 0.08965
1.2 0.10165
1.3 0.1147
1.4 0.1265
1.5 0.13755
1.6 0.1494
1.7 0.1629
1.8 0.1743
1.9 0.1876
2 0.19835
2.1 0.2106
2.2 0.2213
2.3 0.2327
2.4 0.24365
2.5 0.2544
2.6 0.26495
2.7 0.2757
2.8 0.28605
2.9 0.2957
3 0.3049
3.1 0.3144
3.2 0.32365
3.3 0.33325
3.4 0.34275
3.5 0.35235
3.6 0.36075
3.7 0.3704
3.8 0.37955
3.9 0.3874
4 0.39525
4.1 0.40335
4.2 0.4118
4.3 0.42
4.4 0.42765
4.5 0.43605
4.6 0.44415
4.7 0.45255
4.8 0.46075
4.9 0.4675
5 0.4751
5.1 0.48215
5.2 0.4893
5.3 0.49695
5.4 0.50465
5.5 0.51155
5.6 0.51965
5.7 0.52695
5.8 0.53405
5.9 0.53975
6 0.54615
6.1 0.55235
6.2 0.55885
6.3 0.56525
6.4 0.57105
6.5 0.5771
6.6 0.58315
6.7 0.5904
6.8 0.5962
6.9 0.6025
7 0.6084
7.1 0.6148
7.2 0.6209
7.3 0.6259
7.4 0.63245
7.5 0.6376
7.6 0.6419
7.7 0.64655
7.8 0.6513
7.9 0.6565
8 0.66135
8.1 0.66675
8.2 0.67175
8.3 0.67635
8.4 0.67995
8.5 0.68455
8.6 0.68895
8.7 0.69355
8.8 0.69795
8.9 0.70185
9 0.70605
9.1 0.70935
9.2 0.7148
9.3 0.7185
9.4 0.7226
9.5 0.72685
9.6 0.73025
9.7 0.7345
9.8 0.7381
9.9 0.7415
10 0.74525
10.1 0.74955
10.2 0.7525
10.3 0.75655
10.4 0.7594
10.5 0.7625
10.6 0.7658
10.7 0.7685
10.8 0.7715
10.9 0.7749
11 0.77845
11.1 0.7814
11.2 0.7845
11.3 0.78725
11.4 0.79085
11.5 0.79405
11.6 0.79725
11.7 0.79995
11.8 0.802
11.9 0.8051
12 0.80785
12.1 0.81085
12.2 0.8139
12.3 0.816
12.4 0.819
12.5 0.8209
12.6 0.8233
12.7 0.82585
12.8 0.8286
12.9 0.83095
13 0.83345
13.1 0.8358
13.2 0.8383
13.3 0.84055
13.4 0.84305
13.5 0.84505
13.6 0.8473
13.7 0.8495
13.8 0.8509
13.9 0.85315
14 0.85605
14.1 0.8582
14.2 0.85975
14.3 0.86125
14.4 0.8635
14.5 0.86585
14.6 0.8678
14.7 0.8699
14.8 0.872
14.9 0.87415
15 0.8757
15.1 0.8776
15.2 0.87905
15.3 0.88065
15.4 0.882
15.5 0.8837
15.6 0.88515
15.7 0.88675
15.8 0.88875
15.9 0.8904
16 0.89215
16.1 0.8938
16.2 0.8951
16.3 0.8963
16.4 0.8978
16.5 0.8992
16.6 0.9006
16.7 0.90195
16.8 0.90365
16.9 0.90475
17 0.90605
17.1 0.9077
17.2 0.90905
17.3 0.91065
17.4 0.91185
17.5 0.91325
17.6 0.91425
17.7 0.91555
17.8 0.91695
17.9 0.91815
18 0.9195
18.1 0.9204
18.2 0.9216
18.3 0.9224
18.4 0.9239
18.5 0.92525
18.6 0.9262
18.7 0.92735
18.8 0.9283
18.9 0.92925
19 0.9298
19.1 0.93075
19.2 0.93155
19.3 0.9323
19.4 0.933
19.5 0.93375
19.6 0.93465
19.7 0.93565
19.8 0.9364
19.9 0.93715
20 0.9385
20.1 0.93935
20.2 0.94015
20.3 0.94125
20.4 0.9422
20.5 0.94275
20.6 0.9434
20.7 0.94415
20.8 0.9451
20.9 0.94595
21 0.9465
21.1 0.947
21.2 0.94745
21.3 0.94815
21.4 0.9485
21.5 0.94915
21.6 0.9497
21.7 0.9506
21.8 0.95115
21.9 0.9517
22 0.95235
22.1 0.95275
22.2 0.9531
22.3 0.954
22.4 0.9547
22.5 0.95515
22.6 0.95585
22.7 0.9563
22.8 0.9566
22.9 0.95735
23 0.9585
23.1 0.9589
23.2 0.95955
23.3 0.96
23.4 0.96055
23.5 0.9614
23.6 0.96195
23.7 0.9627
23.8 0.9633
23.9 0.9638
24 0.96445
24.1 0.9648
24.2 0.96525
24.3 0.96605
24.4 0.96645
24.5 0.96675
24.6 0.967
24.7 0.9673
24.8 0.96765
24.9 0.968
25 0.9683
25.1 0.9687
25.2 0.96915
25.3 0.96975
25.4 0.97015
25.5 0.97065
25.6 0.97105
25.7 0.9714
25.8 0.97175
25.9 0.9719
26 0.9723
26.1 0.9728
26.2 0.973
26.3 0.97335
26.4 0.97365
26.5 0.9742
26.6 0.9747
26.7 0.97515
26.8 0.97605
26.9 0.9765
27 0.9768
27.1 0.977
27.2 0.9774
27.3 0.97775
27.4 0.978
27.5 0.97835
27.6 0.97885
27.7 0.9792
27.8 0.97935
27.9 0.9797
28 0.9799
28.1 0.98025
28.2 0.98035
28.3 0.98075
28.4 0.98085
28.5 0.981
28.6 0.98125
28.7 0.98165
28.8 0.9819
28.9 0.98195
29 0.98215
29.1 0.98235
29.2 0.98245
29.3 0.98265
29.4 0.98295
29.5 0.98335
29.6 0.9837
29.7 0.98385
29.8 0.98395
29.9 0.98415
30 0.98445
30.1 0.98465
30.2 0.9848
30.3 0.98495
30.4 0.9854
30.5 0.9857
30.6 0.9858
30.7 0.98605
30.8 0.98625
30.9 0.9864
31 0.98655
31.1 0.98665
31.2 0.9868
31.3 0.98695
31.4 0.9872
31.5 0.98725
31.6 0.98745
31.7 0.98765
31.8 0.98785
31.9 0.98805
32 0.9882
32.1 0.98825
32.2 0.9884
32.3 0.9886
32.4 0.9886
32.5 0.9887
32.6 0.98885
32.7 0.98915
32.8 0.9893
32.9 0.98935
33 0.98945
33.1 0.98965
33.2 0.98975
33.3 0.99005
33.4 0.99025
33.5 0.9904
33.6 0.9905
33.7 0.9906
33.8 0.99085
33.9 0.99095
34 0.9911
34.1 0.9913
34.2 0.9913
34.3 0.99145
34.4 0.9916
34.5 0.99175
34.6 0.9918
34.7 0.99195
34.8 0.99205
34.9 0.99215
35 0.9923
35.1 0.99235
35.2 0.99245
35.3 0.99255
35.4 0.99255
35.5 0.99275
35.6 0.99285
35.7 0.99295
35.8 0.9931
35.9 0.99315
36 0.99335
36.1 0.99345
36.2 0.99355
36.3 0.9936
36.4 0.9936
36.5 0.9937
36.6 0.99375
36.7 0.9938
36.8 0.99385
36.9 0.9939
37 0.994
37.1 0.9941
37.2 0.99425
37.3 0.9943
37.4 0.9943
37.5 0.99445
37.6 0.99455
37.7 0.99455
37.8 0.9948
37.9 0.9949
38 0.99495
38.1 0.99505
38.2 0.9951
38.3 0.9952
38.4 0.9953
38.5 0.9953
38.6 0.9954
38.7 0.99545
38.8 0.99545
38.9 0.99555
39 0.9956
39.1 0.9956
39.2 0.99575
39.3 0.99575
39.4 0.99585
39.5 0.9959
39.6 0.996
39.7 0.9961
39.8 0.99615
39.9 0.9962
40 0.9962
40.1 0.9963
40.2 0.9964
40.3 0.9965
40.4 0.99655
40.5 0.99655
40.6 0.9966
40.7 0.9966
40.8 0.9966
40.9 0.9967
41 0.9968
41.1 0.99685
41.2 0.99685
41.3 0.99685
41.4 0.99685
41.5 0.9969
41.6 0.997
41.7 0.997
41.8 0.9971
41.9 0.99715
42 0.99715
42.1 0.99735
42.2 0.9974
42.3 0.99745
42.4 0.99745
42.5 0.99755
42.6 0.99755
42.7 0.9976
42.8 0.9976
42.9 0.99765
43 0.99765
43.1 0.99775
43.2 0.9978
43.3 0.9978
43.4 0.99795
43.5 0.998
43.6 0.99805
43.7 0.99805
43.8 0.99815
43.9 0.99815
44 0.99815
44.1 0.9982
44.2 0.9982
44.3 0.9982
44.4 0.9982
44.5 0.99825
44.6 0.99825
44.7 0.99825
44.8 0.9983
44.9 0.9983
45 0.9983
45.1 0.9983
45.2 0.9983
45.3 0.99835
45.4 0.99835
45.5 0.9984
45.6 0.9984
45.7 0.99845
45.8 0.99845
45.9 0.99845
46 0.99855
46.1 0.99855
46.2 0.99855
46.3 0.99855
46.4 0.99855
46.5 0.9986
46.6 0.9986
46.7 0.9986
46.8 0.9986
46.9 0.9986
47 0.9986
47.1 0.99865
47.2 0.99865
47.3 0.99865
47.4 0.99865
47.5 0.9987
47.6 0.9987
47.7 0.9987
47.8 0.9987
47.9 0.99875
48 0.99875
48.1 0.99875
48.2 0.9988
48.3 0.9988
48.4 0.9989
48.5 0.9989
48.6 0.9989
48.7 0.99895
48.8 0.99895
48.9 0.99895
49 0.99895
49.1 0.999
49.2 0.999
49.3 0.99905
49.4 0.99905
49.5 0.99905
49.6 0.9991
49.7 0.9992
49.8 0.9992
49.9 0.99925
50 0.99925
50.1 0.99925
50.2 0.9993
50.3 0.9993
50.4 0.9993
50.5 0.9993
50.6 0.99935
50.7 0.99935
50.8 0.99935
50.9 0.99935
51 0.99935
51.1 0.99935
51.2 0.9994
51.3 0.99945
51.4 0.99945
51.5 0.99945
51.6 0.99945
51.7 0.99945
51.8 0.9995
51.9 0.9995
52 0.9995
52.1 0.9995
52.2 0.9995
52.3 0.9995
52.4 0.9995
52.5 0.9995
52.6 0.99955
52.7 0.99955
52.8 0.99955
52.9 0.99955
53 0.99955
53.1 0.99955
53.2 0.99955
53.3 0.99955
53.4 0.99955
53.5 0.99955
53.6 0.99955
53.7 0.99955
53.8 0.9996
53.9 0.9996
54 0.9996
54.1 0.9996
54.2 0.9996
54.3 0.9996
54.4 0.9996
54.5 0.9996
54.6 0.99965
54.7 0.99965
54.8 0.99965
54.9 0.99965
55 0.99965
55.1 0.9997
55.2 0.9997
55.3 0.9997
55.4 0.9997
55.5 0.9997
55.6 0.9997
55.7 0.9997
55.8 0.9997
55.9 0.9997
56 0.9997
56.1 0.9997
56.2 0.9997
56.3 0.9997
56.4 0.9997
56.5 0.9997
56.6 0.9997
56.7 0.9997
56.8 0.9997
56.9 0.9997
57 0.9997
57.1 0.9997
57.2 0.9997
57.3 0.9997
57.4 0.99975
57.5 0.99975
57.6 0.99975
57.7 0.99975
57.8 0.99975
57.9 0.99975
58 0.99975
58.1 0.99975
58.2 0.99975
58.3 0.99975
58.4 0.99975
58.5 0.99975
58.6 0.99975
58.7 0.99975
58.8 0.99975
58.9 0.99975
59 0.99975
59.1 0.99975
59.2 0.9998
59.3 0.9998
59.4 0.9998
59.5 0.9998
59.6 0.9998
59.7 0.9998
59.8 0.9998
59.9 0.9998
60 0.9998
60.1 0.9998
60.2 0.9998
60.3 0.99985
60.4 0.99985
60.5 0.99985
60.6 0.99985
60.7 0.99985
60.8 0.99985
60.9 0.99985
61 0.99985
61.1 0.99985
61.2 0.99985
61.3 0.99985
61.4 0.9999
61.5 0.9999
61.6 0.9999
61.7 0.9999
61.8 0.9999
61.9 0.9999
62 0.9999
62.1 0.9999
62.2 0.9999
62.3 0.9999
62.4 0.9999
62.5 0.9999
62.6 0.9999
62.7 0.9999
62.8 0.9999
62.9 0.9999
63 0.9999
63.1 0.9999
63.2 0.9999
63.3 0.9999
63.4 0.9999
63.5 0.9999
63.6 0.9999
63.7 0.9999
63.8 0.9999
63.9 0.9999
64 0.9999
64.1 0.9999
64.2 0.9999
64.3 0.9999
64.4 0.9999
64.5 0.9999
64.6 0.9999
64.7 0.9999
64.8 0.9999
64.9 0.9999
65 0.9999
65.1 0.9999
65.2 0.9999
65.3 0.9999
65.4 0.9999
65.5 0.9999
65.6 0.9999
65.7 0.9999
65.8 0.9999
65.9 0.9999
66 0.9999
66.1 0.9999
66.2 0.9999
66.3 0.9999
66.4 0.9999
66.5 0.9999
66.6 0.9999
66.7 0.9999
66.8 0.9999
66.9 0.9999
67 0.9999
67.1 0.9999
67.2 0.9999
67.3 0.9999
67.4 0.9999
67.5 0.9999
67.6 0.9999
67.7 0.9999
67.8 0.9999
67.9 0.9999
68 0.9999
68.1 0.9999
68.2 0.9999
68.3 0.9999
68.4 0.9999
68.5 0.9999
68.6 0.9999
68.7 0.9999
68.8 0.9999
68.9 0.9999
69 0.9999
69.1 0.9999
69.2 0.9999
69.3 0.9999
69.4 0.9999
69.5 0.9999
69.6 0.9999
69.7 0.9999
69.8 0.9999
69.9 0.9999
70 0.9999
70.1 0.9999
70.2 0.9999
70.3 0.9999
70.4 0.9999
70.5 0.9999
70.6 0.9999
70.7 0.9999
70.8 0.9999
70.9 0.9999
71 0.9999
71.1 0.9999
71.2 0.9999
71.3 0.9999
71.4 0.9999
71.5 0.9999
71.6 0.9999
71.7 0.9999
71.8 0.9999
71.9 0.9999
72 0.9999
72.1 0.9999
72.2 0.9999
72.3 0.9999
72.4 0.9999
72.5 0.9999
72.6 0.9999
72.7 0.9999
72.8 0.9999
72.9 0.9999
73 0.9999
73.1 0.9999
73.2 0.9999
73.3 0.9999
73.4 0.9999
73.5 0.9999
73.6 0.9999
73.7 0.9999
73.8 0.9999
73.9 0.9999
74 0.9999
74.1 0.9999
74.2 0.9999
74.3 0.9999
74.4 0.9999
74.5 0.9999
74.6 0.9999
74.7 0.9999
74.8 0.9999
74.9 0.9999
75 0.9999
75.1 0.9999
75.2 0.9999
75.3 0.9999
75.4 0.99995
75.5 0.99995
75.6 0.99995
75.7 0.99995
75.8 0.99995
75.9 0.99995
76 0.99995
76.1 1
0.1 0
0.2 0.00025
0.3 0.00285
0.4 0.009
0.5 0.01755
0.6 0.02635
0.7 0.0366
0.8 0.0482
0.9 0.0609
1 0.07385
1.1 0.0865
1.2 0.0983
1.3 0.1108
1.4 0.12285
1.5 0.13465
1.6 0.14675
1.7 0.1597
1.8 0.17145
1.9 0.18255
2 0.19305
2.1 0.2049
2.2 0.21595
2.3 0.2274
2.4 0.2385
2.5 0.24845
2.6 0.2582
2.7 0.2689
2.8 0.27915
2.9 0.29075
3 0.3005
3.1 0.3096
3.2 0.31905
3.3 0.3294
3.4 0.3395
3.5 0.34855
3.6 0.357
3.7 0.36615
3.8 0.37525
3.9 0.38435
4 0.39245
4.1 0.40045
4.2 0.4089
4.3 0.418
4.4 0.426
4.5 0.43415
4.6 0.4409
4.7 0.4483
4.8 0.45475
4.9 0.46275
5 0.4705
5.1 0.479
5.2 0.4853
5.3 0.4929
5.4 0.4997
5.5 0.50585
5.6 0.5125
5.7 0.51855
5.8 0.52465
5.9 0.5313
6 0.5384
6.1 0.5452
6.2 0.55185
6.3 0.55815
6.4 0.56455
6.5 0.57065
6.6 0.5768
6.7 0.58245
6.8 0.58845
6.9 0.59455
7 0.5998
7.1 0.6059
7.2 0.6123
7.3 0.61665
7.4 0.62155
7.5 0.6273
7.6 0.63255
7.7 0.63765
7.8 0.64255
7.9 0.64685
8 0.6527
8.1 0.6573
8.2 0.662
8.3 0.6666
8.4 0.67135
8.5 0.6757
8.6 0.6792
8.7 0.68465
8.8 0.6897
8.9 0.6943
9 0.69815
9.1 0.70255
9.2 0.7063
9.3 0.7108
9.4 0.71495
9.5 0.71885
9.6 0.7229
9.7 0.72705
9.8 0.7305
9.9 0.7342
10 0.7374
10.1 0.74095
10.2 0.7449
10.3 0.7487
10.4 0.75255
10.5 0.75595
10.6 0.75935
10.7 0.7624
10.8 0.76545
10.9 0.76925
11 0.772
11.1 0.77495
11.2 0.77915
11.3 0.7823
11.4 0.7855
11.5 0.78885
11.6 0.7921
11.7 0.79495
11.8 0.79835
11.9 0.80075
12 0.80345
12.1 0.8066
12.2 0.80925
12.3 0.81255
12.4 0.8151
12.5 0.8177
12.6 0.81985
12.7 0.82245
12.8 0.8246
12.9 0.8278
13 0.8297
13.1 0.83215
13.2 0.83505
13.3 0.83765
13.4 0.83935
13.5 0.84195
13.6 0.84355
13.7 0.846
13.8 0.8482
13.9 0.8504
14 0.85265
14.1 0.85465
14.2 0.85655
14.3 0.8584
14.4 0.8604
14.5 0.86265
14.6 0.86435
14.7 0.8662
14.8 0.86825
14.9 0.8706
15 0.8731
15.1 0.87455
15.2 0.87605
15.3 0.8779
15.4 0.8796
15.5 0.88095
15.6 0.88275
15.7 0.8847
15.8 0.8862
15.9 0.8876
16 0.8893
16.1 0.8907
16.2 0.8924
16.3 0.89405
16.4 0.8954
16.5 0.8969
16.6 0.8982
16.7 0.89935
16.8 0.9009
16.9 0.9023
17 0.90355
17.1 0.90455
17.2 0.90615
17.3 0.90755
17.4 0.9092
17.5 0.91065
17.6 0.91215
17.7 0.9134
17.8 0.91435
17.9 0.91565
18 0.9168
18.1 0.9179
18.2 0.9189
18.3 0.9202
18.4 0.9215
18.5 0.9222
18.6 0.9233
18.7 0.924
18.8 0.92485
18.9 0.9262
19 0.9271
19.1 0.928
19.2 0.92935
19.3 0.93045
19.4 0.93125
19.5 0.93195
19.6 0.93275
19.7 0.93355
19.8 0.93415
19.9 0.93495
20 0.9358
20.1 0.93685
20.2 0.9379
20.3 0.939
20.4 0.93985
20.5 0.94055
20.6 0.9412
20.7 0.94175
20.8 0.94265
20.9 0.9436
21 0.94425
21.1 0.94485
21.2 0.94565
21.3 0.94635
21.4 0.94725
21.5 0.94795
21.6 0.9486
21.7 0.94935
21.8 0.9501
21.9 0.95065
22 0.95155
22.1 0.9523
22.2 0.95295
22.3 0.9537
22.4 0.95435
22.5 0.955
22.6 0.9556
22.7 0.95635
22.8 0.95695
22.9 0.9574
23 0.9581
23.1 0.95855
23.2 0.95895
23.3 0.95935
23.4 0.95985
23.5 0.96025
23.6 0.9606
23.7 0.9611
23.8 0.96165
23.9 0.9622
24 0.9626
24.1 0.9635
24.2 0.96375
24.3 0.964
24.4 0.9646
24.5 0.9651
24.6 0.96565
24.7 0.96595
24.8 0.96655
24.9 0.96695
25 0.9673
25.1 0.9676
25.2 0.9681
25.3 0.9685
25.4 0.969
25.5 0.96935
25.6 0.9696
25.7 0.97005
25.8 0.9704
25.9 0.9709
26 0.97135
26.1 0.9717
26.2 0.97195
26.3 0.97275
26.4 0.97315
26.5 0.9735
26.6 0.9738
26.7 0.97415
26.8 0.9746
26.9 0.97535
27 0.97575
27.1 0.9761
27.2 0.9764
27.3 0.9766
27.4 0.97705
27.5 0.9773
27.6 0.97765
27.7 0.97805
27.8 0.97825
27.9 0.97855
28 0.97885
28.1 0.979
28.2 0.97945
28.3 0.97985
28.4 0.98025
28.5 0.98055
28.6 0.9808
28.7 0.9811
28.8 0.98145
28.9 0.98175
29 0.98205
29.1 0.98225
29.2 0.98235
29.3 0.9825
29.4 0.98265
29.5 0.98275
29.6 0.98295
29.7 0.98315
29.8 0.98345
29.9 0.98365
30 0.9838
30.1 0.9841
30.2 0.98415
30.3 0.98425
30.4 0.9845
30.5 0.98475
30.6 0.9851
30.7 0.9853
30.8 0.9854
30.9 0.9856
31 0.98565
31.1 0.98595
31.2 0.9861
31.3 0.98635
31.4 0.98645
31.5 0.98665
31.6 0.98685
31.7 0.98695
31.8 0.98705
31.9 0.9874
32 0.9877
32.1 0.9879
32.2 0.988
32.3 0.98835
32.4 0.9884
32.5 0.9885
32.6 0.9886
32.7 0.9888
32.8 0.9891
32.9 0.98925
33 0.9893
33.1 0.98955
33.2 0.98965
33.3 0.98965
33.4 0.9898
33.5 0.9899
33.6 0.99
33.7 0.9901
33.8 0.9902
33.9 0.99035
34 0.9905
34.1 0.9908
34.2 0.9908
34.3 0.99085
34.4 0.99105
34.5 0.9912
34.6 0.9913
34.7 0.9915
34.8 0.9917
34.9 0.9919
35 0.99215
35.1 0.9922
35.2 0.9924
35.3 0.99265
35.4 0.99265
35.5 0.9929
35.6 0.9931
35.7 0.99335
35.8 0.99345
35.9 0.9935
36 0.99355
36.1 0.99365
36.2 0.99365
36.3 0.99375
36.4 0.9939
36.5 0.99395
36.6 0.994
36.7 0.99405
36.8 0.9941
36.9 0.9942
37 0.9942
37.1 0.9943
37.2 0.9944
37.3 0.9946
37.4 0.99465
37.5 0.99485
37.6 0.99495
37.7 0.99495
37.8 0.99495
37.9 0.99505
38 0.99505
38.1 0.9951
38.2 0.9952
38.3 0.9955
38.4 0.9955
38.5 0.9957
38.6 0.99575
38.7 0.9958
38.8 0.9958
38.9 0.99585
39 0.99585
39.1 0.99595
39.2 0.996
39.3 0.9961
39.4 0.99625
39.5 0.99635
39.6 0.99635
39.7 0.9965
39.8 0.9965
39.9 0.9965
40 0.9965
40.1 0.9966
40.2 0.9966
40.3 0.9966
40.4 0.9967
40.5 0.99675
40.6 0.9968
40.7 0.99685
40.8 0.99695
40.9 0.997
41 0.99705
41.1 0.99705
41.2 0.9973
41.3 0.9974
41.4 0.9974
41.5 0.99745
41.6 0.9975
41.7 0.9975
41.8 0.99755
41.9 0.99755
42 0.9976
42.1 0.99765
42.2 0.99765
42.3 0.9977
42.4 0.9977
42.5 0.99775
42.6 0.9978
42.7 0.99785
42.8 0.99785
42.9 0.99795
43 0.99795
43.1 0.998
43.2 0.998
43.3 0.99805
43.4 0.99815
43.5 0.99815
43.6 0.9982
43.7 0.9982
43.8 0.99825
43.9 0.99825
44 0.99825
44.1 0.99825
44.2 0.9983
44.3 0.9984
44.4 0.99845
44.5 0.99845
44.6 0.99845
44.7 0.9985
44.8 0.9985
44.9 0.9985
45 0.9985
45.1 0.9985
45.2 0.9985
45.3 0.9985
45.4 0.9985
45.5 0.9985
45.6 0.9985
45.7 0.9985
45.8 0.9986
45.9 0.9986
46 0.9986
46.1 0.99865
46.2 0.99865
46.3 0.9987
46.4 0.9987
46.5 0.99875
46.6 0.99875
46.7 0.9989
46.8 0.9989
46.9 0.99895
47 0.99895
47.1 0.99895
47.2 0.99895
47.3 0.999
47.4 0.999
47.5 0.999
47.6 0.999
47.7 0.999
47.8 0.999
47.9 0.999
48 0.999
48.1 0.99905
48.2 0.99905
48.3 0.99905
48.4 0.99905
48.5 0.99915
48.6 0.99915
48.7 0.99915
48.8 0.99915
48.9 0.9992
49 0.99925
49.1 0.99925
49.2 0.99925
49.3 0.99925
49.4 0.99925
49.5 0.99925
49.6 0.9993
49.7 0.9993
49.8 0.9993
49.9 0.9993
50 0.99935
50.1 0.99935
50.2 0.9994
50.3 0.9994
50.4 0.9994
50.5 0.9994
50.6 0.9994
50.7 0.9994
50.8 0.9994
50.9 0.99945
51 0.99945
51.1 0.9995
51.2 0.99955
51.3 0.99955
51.4 0.99955
51.5 0.99955
51.6 0.99955
51.7 0.99955
51.8 0.99955
51.9 0.99955
52 0.99955
52.1 0.99955
52.2 0.99955
52.3 0.99955
52.4 0.99955
52.5 0.99955
52.6 0.99955
52.7 0.99955
52.8 0.99955
52.9 0.9996
53 0.9996
53.1 0.9996
53.2 0.9996
53.3 0.9996
53.4 0.9996
53.5 0.9996
53.6 0.9996
53.7 0.9996
53.8 0.9996
53.9 0.9996
54 0.9996
54.1 0.9996
54.2 0.9996
54.3 0.9996
54.4 0.9996
54.5 0.9996
54.6 0.9996
54.7 0.9996
54.8 0.9996
54.9 0.9996
55 0.9996
55.1 0.9996
55.2 0.9996
55.3 0.9996
55.4 0.9996
55.5 0.9996
55.6 0.9996
55.7 0.9996
55.8 0.9996
55.9 0.9996
56 0.9996
56.1 0.9996
56.2 0.9996
56.3 0.9996
56.4 0.9996
56.5 0.9996
56.6 0.9996
56.7 0.9996
56.8 0.9996
56.9 0.9996
57 0.9996
57.1 0.9996
57.2 0.9996
57.3 0.9996
57.4 0.9996
57.5 0.9996
57.6 0.99965
57.7 0.99965
57.8 0.99965
57.9 0.99965
58 0.99965
58.1 0.99965
58.2 0.99965
58.3 0.99965
58.4 0.99965
58.5 0.99965
58.6 0.99965
58.7 0.99965
58.8 0.99965
58.9 0.99965
59 0.99965
59.1 0.99965
59.2 0.99965
59.3 0.99965
59.4 0.9997
59.5 0.9997
59.6 0.9997
59.7 0.9997
59.8 0.9997
59.9 0.99975
60 0.99975
60.1 0.99975
60.2 0.99975
60.3 0.9998
60.4 0.99985
60.5 0.99985
60.6 0.9999
60.7 0.99995
60.8 0.99995
60.9 0.99995
61 0.99995
61.1 0.99995
61.2 0.99995
61.3 0.99995
61.4 0.99995
61.5 0.99995
61.6 0.99995
61.7 0.99995
61.8 0.99995
61.9 0.99995
62 0.99995
62.1 0.99995
62.2 0.99995
62.3 0.99995
62.4 0.99995
62.5 0.99995
62.6 0.99995
62.7 0.99995
62.8 0.99995
62.9 0.99995
63 0.99995
63.1 0.99995
63.2 0.99995
63.3 0.99995
63.4 0.99995
63.5 0.99995
63.6 0.99995
63.7 0.99995
63.8 0.99995
63.9 0.99995
64 0.99995
64.1 0.99995
64.2 0.99995
64.3 0.99995
64.4 0.99995
64.5 0.99995
64.6 0.99995
64.7 0.99995
64.8 0.99995
64.9 0.99995
65 0.99995
65.1 0.99995
65.2 0.99995
65.3 0.99995
65.4 0.99995
65.5 0.99995
65.6 0.99995
65.7 0.99995
65.8 0.99995
65.9 0.99995
66 0.99995
66.1 0.99995
66.2 0.99995
66.3 0.99995
66.4 0.99995
66.5 0.99995
66.6 0.99995
66.7 0.99995
66.8 0.99995
66.9 0.99995
67 0.99995
67.1 0.99995
67.2 0.99995
67.3 0.99995
67.4 0.99995
67.5 0.99995
67.6 0.99995
67.7 0.99995
67.8 0.99995
67.9 0.99995
68 0.99995
68.1 0.99995
68.2 0.99995
68.3 1
0.1 0
0.2 0.00046875
0.3 0.003125
0.4 0.0096875
0.5 0.0178125
0.6 0.0267187
0.7 0.0384375
0.8 0.0503125
0.9 0.0626562
1 0.0735937
1.1 0.08625
1.2 0.099375
1.3 0.112031
1.4 0.124688
1.5 0.136094
1.6 0.146563
1.7 0.161406
1.8 0.173437
1.9 0.186719
2 0.197187
2.1 0.209687
2.2 0.222344
2.3 0.234844
2.4 0.244219
2.5 0.256406
2.6 0.267188
2.7 0.277187
2.8 0.28875
2.9 0.297969
3 0.305469
3.1 0.314844
3.2 0.324062
3.3 0.330469
3.4 0.339219
3.5 0.350938
3.6 0.359687
3.7 0.369219
3.8 0.378437
3.9 0.387188
4 0.39625
4.1 0.405469
4.2 0.412813
4.3 0.423281
4.4 0.431563
4.5 0.440469
4.6 0.450156
4.7 0.459219
4.8 0.467031
4.9 0.475781
5 0.481563
5.1 0.490469
5.2 0.496094
5.3 0.502344
5.4 0.511094
5.5 0.520156
5.6 0.527656
5.7 0.535156
5.8 0.541875
5.9 0.548438
6 0.553281
6.1 0.559844
6.2 0.566094
6.3 0.5725
6.4 0.580313
6.5 0.585
6.6 0.590781
6.7 0.597969
6.8 0.603125
6.9 0.608125
7 0.614219
7.1 0.618906
7.2 0.625
7.3 0.629375
7.4 0.633594
7.5 0.639687
7.6 0.644375
7.7 0.649844
7.8 0.653594
7.9 0.659687
8 0.665156
8.1 0.672188
8.2 0.675625
8.3 0.679531
8.4 0.685625
8.5 0.690625
8.6 0.695
8.7 0.700469
8.8 0.705313
8.9 0.709219
9 0.713906
9.1 0.716875
9.2 0.720938
9.3 0.723437
9.4 0.727656
9.5 0.731875
9.6 0.736875
9.7 0.739531
9.8 0.743437
9.9 0.746719
10 0.750469
10.1 0.755156
10.2 0.75875
10.3 0.761563
10.4 0.764687
10.5 0.768594
10.6 0.772188
10.7 0.775156
10.8 0.778438
10.9 0.781719
11 0.785312
11.1 0.787344
11.2 0.789844
11.3 0.792656
11.4 0.794687
11.5 0.799375
11.6 0.802656
11.7 0.805312
11.8 0.807969
11.9 0.810156
12 0.811094
12.1 0.813906
12.2 0.816094
12.3 0.818906
12.4 0.821094
12.5 0.823906
12.6 0.826406
12.7 0.829063
12.8 0.831406
12.9 0.833594
13 0.83625
13.1 0.838906
13.2 0.841562
13.3 0.844063
13.4 0.845625
13.5 0.847969
13.6 0.849844
13.7 0.852344
13.8 0.854219
13.9 0.855938
14 0.857812
14.1 0.859219
14.2 0.860625
14.3 0.862187
14.4 0.864062
14.5 0.86625
14.6 0.868125
14.7 0.869844
14.8 0.871563
14.9 0.874375
15 0.87625
15.1 0.877344
15.2 0.879687
15.3 0.881094
15.4 0.8825
15.5 0.883906
15.6 0.885312
15.7 0.885781
15.8 0.887344
15.9 0.888906
16 0.889687
16.1 0.89125
16.2 0.893281
16.3 0.895
16.4 0.896563
16.5 0.898125
16.6 0.899687
16.7 0.90125
16.8 0.902656
16.9 0.904219
17 0.905312
17.1 0.905937
17.2 0.908281
17.3 0.909375
17.4 0.910312
17.5 0.912188
17.6 0.913594
17.7 0.914687
17.8 0.915781
17.9 0.91625
18 0.917344
18.1 0.919219
18.2 0.920937
18.3 0.921406
18.4 0.9225
18.5 0.923906
18.6 0.924844
18.7 0.925937
18.8 0.9275
18.9 0.928438
19 0.930312
19.1 0.931406
19.2 0.932656
19.3 0.934063
19.4 0.934844
19.5 0.935781
19.6 0.936094
19.7 0.937187
19.8 0.938281
19.9 0.939219
20 0.940312
20.1 0.941406
20.2 0.942813
20.3 0.943438
20.4 0.943906
20.5 0.945313
20.6 0.945937
20.7 0.947031
20.8 0.9475
20.9 0.948125
21 0.949063
21.1 0.949688
21.2 0.950469
21.3 0.95125
21.4 0.951406
21.5 0.952812
21.6 0.953125
21.7 0.95375
21.8 0.954219
21.9 0.954531
22 0.954844
22.1 0.955469
22.2 0.955625
22.3 0.95625
22.4 0.957344
22.5 0.957812
22.6 0.958281
22.7 0.958594
22.8 0.958906
22.9 0.959531
23 0.96
23.1 0.960469
23.2 0.960938
23.3 0.96125
23.4 0.961875
23.5 0.962187
23.6 0.962812
23.7 0.96375
23.8 0.964063
23.9 0.964219
24 0.964219
24.1 0.964844
24.2 0.965313
24.3 0.965625
24.4 0.965938
24.5 0.965938
24.6 0.966406
24.7 0.967187
24.8 0.967969
24.9 0.968281
25 0.968281
25.1 0.968594
25.2 0.968594
25.3 0.969063
25.4 0.969531
25.5 0.969844
25.6 0.970625
25.7 0.971094
25.8 0.971406
25.9 0.971875
26 0.972344
26.1 0.972812
26.2 0.972812
26.3 0.973125
26.4 0.973437
26.5 0.973437
26.6 0.97375
26.7 0.974219
26.8 0.974375
26.9 0.974375
27 0.974375
27.1 0.974688
27.2 0.975
27.3 0.975313
27.4 0.975938
27.5 0.976563
27.6 0.977031
27.7 0.977656
27.8 0.977812
27.9 0.977969
28 0.978281
28.1 0.978594
28.2 0.978906
28.3 0.979062
28.4 0.979062
28.5 0.979375
28.6 0.979375
28.7 0.979531
28.8 0.979688
28.9 0.979844
29 0.980313
29.1 0.980625
29.2 0.980781
29.3 0.981406
29.4 0.981406
29.5 0.981719
29.6 0.981719
29.7 0.982187
29.8 0.982344
29.9 0.982344
30 0.982969
30.1 0.982969
30.2 0.982969
30.3 0.983125
30.4 0.983437
30.5 0.983594
30.6 0.98375
30.7 0.984062
30.8 0.984375
30.9 0.984688
31 0.984688
31.1 0.985156
31.2 0.985469
31.3 0.985938
31.4 0.986094
31.5 0.98625
31.6 0.986563
31.7 0.986563
31.8 0.986875
31.9 0.987031
32 0.9875
32.1 0.987812
32.2 0.987812
32.3 0.987812
32.4 0.987969
32.5 0.987969
32.6 0.988281
32.7 0.988281
32.8 0.988437
32.9 0.988594
33 0.988594
33.1 0.98875
33.2 0.989062
33.3 0.989219
33.4 0.989375
33.5 0.989688
33.6 0.989688
33.7 0.989688
33.8 0.989844
33.9 0.990156
34 0.990313
34.1 0.990313
34.2 0.990469
34.3 0.990469
34.4 0.990625
34.5 0.990781
34.6 0.990781
34.7 0.99125
34.8 0.991406
34.9 0.991875
35 0.992188
35.1 0.992656
35.2 0.992812
35.3 0.993125
35.4 0.993125
35.5 0.993125
35.6 0.993437
35.7 0.993594
35.8 0.993594
35.9 0.99375
36 0.99375
36.1 0.994062
36.2 0.994062
36.3 0.994062
36.4 0.994062
36.5 0.994062
36.6 0.994062
36.7 0.994219
36.8 0.994219
36.9 0.994219
37 0.994219
37.1 0.994219
37.2 0.994375
37.3 0.994375
37.4 0.994531
37.5 0.994531
37.6 0.994844
37.7 0.994844
37.8 0.995
37.9 0.995
38 0.995
38.1 0.995
38.2 0.995
38.3 0.995
38.4 0.995156
38.5 0.995313
38.6 0.995313
38.7 0.995313
38.8 0.995313
38.9 0.995313
39 0.995469
39.1 0.995469
39.2 0.995469
39.3 0.995469
39.4 0.995469
39.5 0.995469
39.6 0.995625
39.7 0.995781
39.8 0.995938
39.9 0.995938
40 0.995938
40.1 0.995938
40.2 0.995938
40.3 0.995938
40.4 0.995938
40.5 0.996094
40.6 0.996094
40.7 0.996406
40.8 0.996563
40.9 0.996563
41 0.996563
41.1 0.996563
41.2 0.997031
41.3 0.997031
41.4 0.997031
41.5 0.997188
41.6 0.997188
41.7 0.997188
41.8 0.997344
41.9 0.9975
42 0.9975
42.1 0.9975
42.2 0.9975
42.3 0.9975
42.4 0.9975
42.5 0.997656
42.6 0.997656
42.7 0.997656
42.8 0.997656
42.9 0.997656
43 0.997812
43.1 0.997812
43.2 0.997812
43.3 0.997812
43.4 0.997969
43.5 0.997969
43.6 0.997969
43.7 0.998281
43.8 0.998281
43.9 0.998281
44 0.998281
44.1 0.998281
44.2 0.998281
44.3 0.998281
44.4 0.998281
44.5 0.998281
44.6 0.998281
44.7 0.998281
44.8 0.998281
44.9 0.998281
45 0.998281
45.1 0.998281
45.2 0.998437
45.3 0.99875
45.4 0.99875
45.5 0.99875
45.6 0.99875
45.7 0.99875
45.8 0.99875
45.9 0.99875
46 0.99875
46.1 0.99875
46.2 0.99875
46.3 0.99875
46.4 0.99875
46.5 0.99875
46.6 0.99875
46.7 0.99875
46.8 0.99875
46.9 0.99875
47 0.99875
47.1 0.99875
47.2 0.99875
47.3 0.99875
47.4 0.998906
47.5 0.998906
47.6 0.998906
47.7 0.998906
47.8 0.998906
47.9 0.998906
48 0.998906
48.1 0.998906
48.2 0.998906
48.3 0.998906
48.4 0.998906
48.5 0.999062
48.6 0.999062
48.7 0.999062
48.8 0.999062
48.9 0.999062
49 0.999062
49.1 0.999062
49.2 0.999062
49.3 0.999062
49.4 0.999062
49.5 0.999062
49.6 0.999062
49.7 0.999062
49.8 0.999062
49.9 0.999062
50 0.999062
50.1 0.999062
50.2 0.999062
50.3 0.999062
50.4 0.999062
50.5 0.999062
50.6 0.999062
50.7 0.999062
50.8 0.999062
50.9 0.999062
51 0.999062
51.1 0.999062
51.2 0.999062
51.3 0.999062
51.4 0.999062
51.5 0.999062
51.6 0.999062
51.7 0.999062
51.8 0.999062
51.9 0.999219
52 0.999219
52.1 0.999219
52.2 0.999219
52.3 0.999219
52.4 0.999219
52.5 0.999219
52.6 0.999531
52.7 0.999531
52.8 0.999531
52.9 0.999531
53 0.999531
53.1 0.999531
53.2 0.999531
53.3 0.999531
53.4 0.999531
53.5 0.999531
53.6 0.999531
53.7 0.999687
53.8 0.999687
53.9 0.999687
54 0.999687
54.1 0.999687
54.2 0.999687
54.3 0.999687
54.4 0.999687
54.5 0.999687
54.6 0.999687
54.7 0.999687
54.8 0.999687
54.9 0.999687
55 0.999687
55.1 0.999687
55.2 0.999687
55.3 0.999687
55.4 0.999687
55.5 0.999687
55.6 0.999687
55.7 0.999687
55.8 0.999687
55.9 0.999687
56 0.999687
56.1 0.999687
56.2 0.999687
56.3 0.999687
56.4 0.999687
56.5 0.999687
56.6 0.999687
56.7 0.999844
56.8 0.999844
56.9 0.999844
57 0.999844
57.1 0.999844
57.2 0.999844
57.3 0.999844
57.4 0.999844
57.5 0.999844
57.6 0.999844
57.7 0.999844
57.8 0.999844
57.9 0.999844
58 0.999844
58.1 0.999844
58.2 0.999844
58.3 0.999844
58.4 0.999844
58.5 0.999844
58.6 0.999844
58.7 0.999844
58.8 0.999844
58.9 0.999844
59 0.999844
59.1 0.999844
59.2 0.999844
59.3 0.999844
59.4 0.999844
59.5 0.999844
59.6 0.999844
59.7 0.999844
59.8 0.999844
59.9 0.999844
60 0.999844
60.1 0.999844
60.2 0.999844
60.3 0.999844
60.4 0.999844
60.5 0.999844
60.6 0.999844
60.7 0.999844
60.8 0.999844
60.9 0.999844
61 0.999844
61.1 0.999844
61.2 0.999844
61.3 0.999844
61.4 0.999844
61.5 0.999844
61.6 0.999844
61.7 0.999844
61.8 0.999844
61.9 0.999844
62 0.999844
62.1 0.999844
62.2 0.999844
62.3 0.999844
62.4 0.999844
62.5 0.999844
62.6 0.999844
62.7 0.999844
62.8 0.999844
62.9 0.999844
63 0.999844
63.1 0.999844
63.2 0.999844
63.3 0.999844
63.4 0.999844
63.5 0.999844
63.6 0.999844
63.7 0.999844
63.8 0.999844
63.9 0.999844
64 0.999844
64.1 0.999844
64.2 0.999844
64.3 0.999844
64.4 0.999844
64.5 0.999844
64.6 0.999844
64.7 0.999844
64.8 0.999844
64.9 0.999844
65 0.999844
65.1 0.999844
65.2 0.999844
65.3 0.999844
65.4 0.999844
65.5 0.999844
65.6 0.999844
65.7 0.999844
65.8 0.999844
65.9 0.999844
66 0.999844
66.1 0.999844
66.2 0.999844
66.3 0.999844
66.4 0.999844
66.5 0.999844
66.6 0.999844
66.7 0.999844
66.8 0.999844
66.9 0.999844
67 0.999844
67.1 0.999844
67.2 0.999844
67.3 0.999844
67.4 0.999844
67.5 0.999844
67.6 0.999844
67.7 0.999844
67.8 0.999844
67.9 0.999844
68 0.999844
68.1 0.999844
68.2 0.999844
68.3 0.999844
68.4 0.999844
68.5 0.999844
68.6 0.999844
68.7 0.999844
68.8 0.999844
68.9 0.999844
69 0.999844
69.1 0.999844
69.2 0.999844
69.3 0.999844
69.4 0.999844
69.5 0.999844
69.6 0.999844
69.7 0.999844
69.8 0.999844
69.9 0.999844
70 0.999844
70.1 0.999844
70.2 0.999844
70.3 0.999844
70.4 0.999844
70.5 0.999844
70.6 0.999844
70.7 0.999844
70.8 0.999844
70.9 0.999844
71 0.999844
71.1 0.999844
71.2 0.999844
71.3 0.999844
71.4 0.999844
71.5 0.999844
71.6 0.999844
71.7 0.999844
71.8 0.999844
71.9 0.999844
72 0.999844
72.1 0.999844
72.2 0.999844
72.3 0.999844
72.4 0.999844
72.5 0.999844
72.6 0.999844
72.7 0.999844
72.8 0.999844
72.9 0.999844
73 0.999844
73.1 0.999844
73.2 0.999844
73.3 0.999844
73.4 0.999844
73.5 0.999844
73.6 0.999844
73.7 0.999844
73.8 0.999844
73.9 1
